{
    "hashes": {
        "appinfo\/info.xml": "bd3816eb3ae4b3001fd5748e743041753463f59b337181670c4632d4374dc11543587efab1a8d004922da2ca9bcb3b7db957b58fe2980899a48712a166ce0dff",
        "appinfo\/routes.php": "e80c29341dd4c9f86535fe0f68525594127d936b5b53b8a1281a09b87164e177f2c00d794a7eade57c77e4c8ffef34e93328d226c2dcee54430586059e6418ed",
        "css\/dashboard.scss": "9766ca9155d125a57c0e8380c3125cc1cf9364829078b84dfcac819903642423b1f002478164b3669a059a1ba047182c9713e8830c644f959b3b614add3cf917",
        "img\/anatoly-mikhaltsov-butterfly-wing-scale.jpg": "8c3b325a60a1a9111a98a1131b874191640d58b0a859468823501f84faf14396202ac2d325f4aa43c5a2d6fe920f7dd23e4eb1562b0eab3c39d1f274bbe5d3b6",
        "img\/bernard-spragg-new-zealand-fern.jpg": "75dc5f0d163a5db10b2d256a0b0ea48aac068db8401f9b646c4b57aea25db435dd502aa21a8b7e2624e109b37bb06ff7124fc75e657efe8df2c5e77c685f6eaa",
        "img\/bernie-cetonia-aurata-take-off-composition.jpg": "38f2d9a4320b0835794f9b474286e5ebe8537fd80e091b4d755f927adfd82ecf34ab13a586c20db5a0f04baaba123ddf3d2f790b9196d7ab1bc12044a31d81fa",
        "img\/dashboard.svg": "ca8c0193a697fcb17fb9bf7e47f8d564a1ae18658e156f9123ce290f2b2a9fe5256cac634ad23db82a6117600ed68a059ec37ffea44aa51d0c7d644241184094",
        "img\/dejan-krsmanovic-ribbed-red-metal.jpg": "9b0f03bf1c7429480a326482252954e9d6b7a99baaadfe86122f03eb9451691baafbed6476f4ab1ce5de32b86aed141160eee4a2362dc0506f5e0a1cd43347e6",
        "img\/eduardo-neves-pedra-azul.jpg": "e196a9a2d5c42e9899f049c9d78f5ef6e734114d027b099413e1b51fdbdfd5dfe0fb0b4369f90d1afda321e1efb44d9e14abda65b691050375b4d1a84eca8ed4",
        "img\/european-space-agency-barents-bloom.jpg": "616f41fc55ad3d107fd51e72e1dc1cf46b5471abeded59b3a2d8579376315195dfdc4721d2a418f52777864bc262c2707cdb459ffd067da229cd05580bcb742f",
        "img\/hannes-fritz-flippity-floppity.jpg": "4bd71e37e6325d6558f1251df6994ed7e6dee0d718d3060b9a16dd4be6473c0b3d49ebeeed87de3331319b8c51069a4cf7f03379aa8001ca9ebd0411ee90768d",
        "img\/hannes-fritz-roulette.jpg": "da9e4c7b158b5bb9a9d5abcf5de1ab40edbbf8f47f59daf4978bec12754580c64d4aa7a9c201e9e620a135f02941d73f08c0ed35dfeafb692f6a19f54369ae69",
        "img\/hannes-fritz-sea-spray.jpg": "e2e354319f78e152450c4ba8fb7e48a210250511002591adfe446b1927c6c23de696657ce1c7bad2b4f14f211229ffca526cb69a41263ede7d66be857e5985d1",
        "img\/kamil-porembinski-clouds.jpg": "d7a542083460404f7a51e8aa80663f191680c484ba48a7cc88f15a1f071d684db4ee95040ec3353365dc5b5868e4794757d1c0fddfc7d4b59073bdf1af07d407",
        "img\/lali-masriera-yellow-bricks.jpg": "dde065b10650bc25762e77a3225c8b130ee6e657ac3570d41249304a08e7279861adad8cf31e4c6bda62db6e378067d7a01cd4685a0487f90e2b8934b9d130c3",
        "img\/nasa-waxing-crescent-moon.jpg": "38b91ad022adff67c7e9b8b88101337bd62d2b572a3a998393112cf854f4d2132d3c3f1ef297a59d4daa85d64538c5a310725eb81d15e8b01810eb78c3ca42d4",
        "img\/previews\/anatoly-mikhaltsov-butterfly-wing-scale.jpg": "1b6079d4faf8a236275cb3544c91bbd7cca139191521768d881f7e2a2e001ed478222bd3ef93c846122c5d4001eea80bf54d328b669d0eda8630ede89bc7e9bb",
        "img\/previews\/bernard-spragg-new-zealand-fern.jpg": "213a597e009270438ec227bcea058049857670a634cbc0e4603c5a6c9241b5d141e056a3a4e3e9cbd3f211b90691a1bea4c50dd910e9b2df7e6a45ef24dcc101",
        "img\/previews\/bernie-cetonia-aurata-take-off-composition.jpg": "e4be2e497a74d769fd33a82ba8b44c189b53cf76f52d26eb4f22cb503f36e85a534f2fea3aafbb36df050e2b41407e98588adb84217f0e98a3b1472caa6d8f81",
        "img\/previews\/dejan-krsmanovic-ribbed-red-metal.jpg": "7829a365658e63d2312159b4cca1b72506bd57782f56dce7e7a716437b6404bcdbfa6385b414cbedca1768144d38945beff61c0f9c79e9eeca5964423e2d2c5c",
        "img\/previews\/eduardo-neves-pedra-azul.jpg": "7c2f84603a5912b2e2e05b056c507e771370fb1ed997a124c122837c8cfd8197b8f559bb61795e7f289d52a1ebaa1b4170c1ea07b51f03544a953215b397629c",
        "img\/previews\/european-space-agency-barents-bloom.jpg": "ccc35e59d41f34901952b1a3730567937924f7e135bbe0800b85fafd878f640de0914641ed0bd956355372662e9adce0128dd4605b1a9a5b7d602925420c9626",
        "img\/previews\/hannes-fritz-flippity-floppity.jpg": "11cd125b5a7bdc712f788c63ab5a284ffdf8349a92ebd0e5b6c9d2d72a4466436bc1ac7585013c702967230b102e4a3ffe1ae496ac3df5de1f3cda145cd028e8",
        "img\/previews\/hannes-fritz-roulette.jpg": "5dfc4ae4b3a89bd7fd0eeee6ff615f93b1aa9f4fb38d0e4c9f2bd4b5b47703793387f6060459890989ff76c3d09e0c05a8dcf1acebe74f48581d06fe16d7837d",
        "img\/previews\/hannes-fritz-sea-spray.jpg": "01f8161574c05ae4080e321656be2670ee8207520cb2c543caf059646d40e949c8374381d650895f5775227d00abf6b61e6f6367c83c87055c652f8ad7585638",
        "img\/previews\/kamil-porembinski-clouds.jpg": "1311fa245040fe92d0e650418854987ed12082ecff63cbeaf22c50122b56da6c61a351efe7143baf07c552d6357e5bca264f451cd8c895869439cc4dd1dc5a2b",
        "img\/previews\/lali-masriera-yellow-bricks.jpg": "d036b69fe89c8a91cea7ce21bef641e09bee7a427c05e3019568051a089c9bbac294f6919df06d8f809bc4a9a5bd84536f9eb79a7b69f2edf6f1e18ceff90dcb",
        "img\/previews\/nasa-waxing-crescent-moon.jpg": "1879b6f1d56c5cbc8ef8efa198e8fcc7e9a41191953bb11b88745439d9babab3704ab81c3e3dc6c511f9a79903c7404005a256edfd2521a8a1e7286c08e5d829",
        "img\/previews\/rawpixel-pink-tapioca-bubbles.jpg": "eb785e7deb6689013da554a11aad55100c97dbadcf016c3536273ed79e661f23cb8f1e5103f59435666c36aa1b8c1b05fb0b21f60edecc329efa2fa0d44c728f",
        "img\/previews\/tommy-chau-already.jpg": "9fa312bc9c8229ab9ed1f5634e049dfc54b498f5d699cfc5cbb677bd6a4f1598e21fdf5247664d20e98b8a1bfd4f9a4d43b398fffe4316ddc9770296532441a4",
        "img\/previews\/tommy-chau-lion-rock-hill.jpg": "72ba51d191efe6aa9df641345a35bcecfa405ee2e05fa42d6573bcae8499d7ea9551751fec125dbeb807a3ffa5b835ce70f92138e4630d79276b59dac3d8eb09",
        "img\/rawpixel-pink-tapioca-bubbles.jpg": "744672fe0658844c7485f74b77b571f3aa69b820a59c46767b56657cad53c0af14ed89d92ce9183f37bb076292c1fedf44efb7c809c10cfda1df6d527ab467e7",
        "img\/tommy-chau-already.jpg": "65805270b800c2a2c2cae3482cb41c7fbf5e79cb75b929948c0675d94c3a62b679a2bd2535a700d923ef9e811f08d4a2645e5e7e453d83786e180c2eaea1bfca",
        "img\/tommy-chau-lion-rock-hill.jpg": "a7e784bb605128396d0fab41460f1aa6d0c48be6f4be678c019e5b1f2d8185050e33115bb45a70949323620b400f8ca213906939218b5e56b32089f8bb6f5d06",
        "js\/dashboard.js": "2cbf293c085f5cfb8d78f18af37cd36a93c740ece945528160d36651c46dcf4214a0aec746b7af595faaae56f334113b8d0371299b33dfbea093f463f425e474",
        "js\/dashboard.js.map": "9a74897c32ea3d01f1b6084af8d9614465dc901321b63a1ea7a8169f282fb56218e3283bda208889ce3a39617c5170fa98853e924984f81d5a862c35ca2cf595",
        "l10n\/ar.js": "a5e196609a030a61e3ca50114ab40b9afbebdab438e16c3cc276bfb4ab376e973dd3cc8f3456956c11d6209e16ba08f4bcc46e44f0f6a7491a559c073cd57161",
        "l10n\/ar.json": "bf0a1d820f591d0e8ee1aee6a86051b44d090fbecdc9f120687ac2f881f86f32b94a214e7da990a4116b9fc6c486b14e6878ff34abdaf5bc27204f8284d659de",
        "l10n\/bg.js": "46530da32514cdcf6d0fc4993baf9dce3e523c0a3608ef6ca28ec5bd63ecc7253a3d0556bba029447073b7f08bbd5e253ce2d91dc5fc08dbfc21e4a1a7d75b22",
        "l10n\/bg.json": "0c4fdc0651a3faca19395a9e686fe0fad84393e3cd607e712f870b18c4b4ace754a6164b00dee47062a84332c17eb5f7cb851c153a5f92c67215b13180fdf49b",
        "l10n\/ca.js": "d041a0c91262fb76780b379e42b181f42bd10834cd939dfc5ee4597eeaf48d17d5d43cfd1f50c79c1b8d0098c657510ea844ef98500361285b330153d3d5d480",
        "l10n\/ca.json": "32200d310e017f243e1b8b5d7eed677c8b362c6c8218d8cbfc3d864c00387eb35947d7f2064e4ad8a3310e8c43a8a4a50fdb47e66b50c699921cf20e9d357921",
        "l10n\/cs.js": "eb96091ff7912fcb34b7593523d2ef83870e07d915800e5b5ee7f20794729b22b5d91b45b71ecee90e83b90badcdeead2ab71ff7275fb13b7aeb99614a589900",
        "l10n\/cs.json": "bf99ed135131d6259129a69563f532146ac1f0ac31ca7bbd40b9b41da1bd7d180fe4ad38df3f2609e25500f47659446ed586450328014fe3e17eb8f7af040d16",
        "l10n\/de.js": "3b536951d051683fb53f8dcfc8ed7e5cb1ba3ec74882d1bf27086eec335507345361519bc3954a7ca73a6c16103348ff869c20be4fdd1b0f9921373c784ea041",
        "l10n\/de.json": "42f486bcc3cf6beb7a435ec1d0135eec48ba81e08c801085342337f86106b0c1ed5c9f1f8059d544c575fa98e06328c88bd0581ba6e91932b992d238f9a91a79",
        "l10n\/de_DE.js": "89fd01f074fb5148e521fa023fb366595c5d9d4e272320c0f388cbe875eb858c598fee6f3db207c8000acc0c923bbe4e145328c0b8f1c0b2e42ce01e9a874694",
        "l10n\/de_DE.json": "e44c95e42e63a4abce9c8f78d88e6b17032f012ff7d039dc104552c7b40d6e44dea7bbcca7dbd8921f7de2185f439704e7fdbbf1db655f9dca4892fd3871d94d",
        "l10n\/el.js": "522c5a310a74db6433d89483ad60a9aa08e83199fc32ffef62269ccc649d7de8b8a7fca7a4a978b45299e7f557d3bf4610ca996b779497605c7b481f0a6b72a7",
        "l10n\/el.json": "d90c48246a173342a2271c32e11cb1dabce8343b4feeda11f63be0cd45e46857599f00e70621ae4824735d0f4b52258e26362c3195890335a833993038e7fb75",
        "l10n\/es.js": "b2a50f185bf066d77629e8989e4a0ffa2a325f5387980e19bbe1b5aaedf2eda6d0245949828397c9f40f1a44cb1ee12723e20d9ad2ebf8a85f4f4615619e567c",
        "l10n\/es.json": "3a885bdad149e565d6a929eed009d05f1dfcc4026876a3a499bdf93640642e4dceaa5102b85e61c838f46df4243349edf4fc6ed75faf7ed5741d6081a5f56586",
        "l10n\/eu.js": "9c88578f0a444a124dbda5fac322bf767b79b40caa729eefd38848cb6f2e3300cdca021557cb2c7929ea180e7c94ee1b5e5ea75c59ad55545a24c11dd9d2dcff",
        "l10n\/eu.json": "91f9b3ea9f2073bef3944a2c1896eac1aceddcae25cc5ebe6ea6a9ebc9e50f9384864262fd5bad5303f1bfa002b34acbf589cc88a1ed30e10d6bca8a714a764d",
        "l10n\/fa.js": "97bebb58ebbb37cb870b38c09813c8da94f11339bc3f69df51e56a83e1032dcf6c7c8172a03149fe80b8f97322b9a5c7a288d5fe43cb20c1b8207ab97acd80db",
        "l10n\/fa.json": "7e12263d36edf624bc8749c3be7528e3f57db0375b810df6f498902cda2c2f1ee3adccab31fe03ca9f33aacc65c747efb655d43453eb11a8d4e36b9d1cea409d",
        "l10n\/fi.js": "45391e95dc7ccd4cf154bf23f8bc717577e96e047830b34c8ac928d2065514037ea083bb6f16caec091a054f88b01f26af10fe848feabda25b4b3f7f34755254",
        "l10n\/fi.json": "40453e1326ea63e6074862fe97294f8110cd4cf02d40a3b103345de2209226ab61407fccaf4ed569c5c880a5847a4ad4f8165ff50ebb4c3473370a7057166ba7",
        "l10n\/fr.js": "86cec12f30553e79740598eb0e735472f543cf2333f211b955239e27dfd617fa733879099d73e883de9821bf4ff753789874ca7f6199274c726a8e071ea6bc06",
        "l10n\/fr.json": "f6efef2908835f94ed50240071621f332f0dd9cf190a09a74ca7e717fb0efe636405b59639d849bdab6ef6d518998c298ea148fb928c900fa2c98d4e5a37d7b0",
        "l10n\/gl.js": "36c87a0f8f4e7c10ccedec2a4b20884950e45c20e734d577dff9b9ee3070a9f2a3376cc2341ead8dcba01a6095383f100a27bd0bce183fd2cfec59370a02ff2c",
        "l10n\/gl.json": "053755fd5c65bcd72ad514dc6cb079ddf1cbff1e0e5d8007f4532e20664c6bc7fbcd2a4222cefafc7ddd6cda644e2d2d0680c50af1329f4b734d6fdc49768752",
        "l10n\/he.js": "01ec3ae0c29f348ab2ecdf6027a1d29f607163d4c5057b891f3ed3e5897066ab5ae713303aa4784e8851ded80ecc5e6254445e83071d1796887224cae8e813cc",
        "l10n\/he.json": "82588b770b5cdbda27f930200c80f25d3ba83be5e8d51a33530d987b37d83a0b731e85e7036e0434ae7731533c5a37b8643b0266879b3d9b7d9a889eb0090ccd",
        "l10n\/hr.js": "6ec46f447820daa7d8b909857661804bf04b91dfb2e11f94117a1087e2b249b7ad83569f357dbe82fe8a741fad91ba9cfb4efc26ff36faf153aebf5d9c00c8e5",
        "l10n\/hr.json": "65867b612e27eca27683d0dc99207cab9d1a30537fe972b4fae52432e166379747c8bd9bd69579a5f0255975ceb8eff16a8378d4d281f959ec7d2d54faf3a571",
        "l10n\/hu.js": "31e87bfc3e01d7aa5ed42f1915617fa9257098a1784b5f7ba99f4f888298a3de0258ac4b6172236da80d07a2405bcce757e89f7085c33d5b6a31cec49e4ea14b",
        "l10n\/hu.json": "0ca1812a9469321c79b1c97836057416817d15b37319db0a26d65ede125e3bcde19443879f24cf0bba1d4cdf94a8c2c25c1c492f89469e4e4e6b765b6283620b",
        "l10n\/it.js": "979af5818842f1682b1ffc422ee1385b6352c0f76311bb6245feaafe82499e413e11ccbe5a84baf0eb2ee69495b56c9883bcb526f06735e4fa60abb4915cafc2",
        "l10n\/it.json": "bf19bc93993cba3a95d541165b50fe9d7a1747323eeaa64ff829c7d95c5b056941177202200232ec7a4e2b493f359dc855549c36015482ea1a7078fb97010dc1",
        "l10n\/ja.js": "cb0d5986ec4b32a8b4d8254c603b1c8addbdba3e9877d3df9da0e045a3337d56ec374cc4dcb7cdd3424b1db0ab09eb3d09fb36a9acab57a3ae52031986993ca3",
        "l10n\/ja.json": "49f551e4d2dc2cfe76310613d979111502dad44148188a5171b774b5c8881924f2129d8513cebe197a44a7cc42d9237eb42635038b0003b193ae700743417e04",
        "l10n\/lt_LT.js": "312045bd0efd2097da9396512330759a8fc4d8fba5b68a1a19eea1fa686d39e5ed9caf0a1f36c6f961bf14e6cbcf7c50ebf5f6b45127be44c19d580274184e5c",
        "l10n\/lt_LT.json": "70aa435bdf0767f656b3ddbe31bb8e5d68f3e843065f59408b2adc25082c54ffe07da90dbf3993b22bf4e1e3028173ea1fd0ef895315723a94b65933bcce2c18",
        "l10n\/mk.js": "a18cab834462b49ca919f1128b18cbf292c40c8b1215e1796f0949d212ada310c61ba7fb5175af4473f9548d8be7e6045def9fa5384f953e9b0a871b532cb937",
        "l10n\/mk.json": "53b1851ea3e054e0fb58a418243d7505826c4d9a2b4d73d2123d4eafde94f1d554961aba1cff0d47dff3163bb3c8e9ef9243d272714ab9010313875a30f14de8",
        "l10n\/nl.js": "a9cc91d295f6e1dddb800aa9fc32ddea65efa06339945dffce573ff8686fd7b2efb4e26fc292018be866f9803a849cafd02ca815c7c3c078ceeb81f62f1ad4cb",
        "l10n\/nl.json": "4aeffe07da8c1bce377a4dceb57da307e2d697b01895a344743fabb920bb5baa20ae9b6ac13bc76046cff143c6f4d8ab8becbaedd02c75a00dd27486c8cdb394",
        "l10n\/oc.js": "27c7ffbd8f6ab0d8e4395416520253a04b453dd80dfdbf991d399429531596c421abcc47d55e2aa6ccbcfaf839fbb7973e997936d51e04dc7e1ce44db6c9a2ae",
        "l10n\/oc.json": "105cfc75b506f066b6554e6feed1a5045b5b8c321022368807774926a456f22354f55b781717698ca5c58a71a6852946cf6e7ea48e657813bee5a32d2ca6947b",
        "l10n\/pl.js": "affa52b76cb0641a7c70a79baa39122023e87ea9a337e4e064cb0e609aedf33701878fedbad0f90248e109c158d317bb3601a0eeb6b1745c5a6a0dc0b0eb8de3",
        "l10n\/pl.json": "867223006f0aaeaef92eed63f836b988d7a2c2577455b526d81186a5812cde5c43a410098f733abf9db87542abc3586f47a8146d37f265c4ec806c7677a33294",
        "l10n\/pt_BR.js": "cdaa3e4c0fb16db758cee65781b10185e0c28a3c31ddb77841933731bc4c157a23806d3e62681f7c48a73a24e442d84a8de5be5c284585836e94fb1c488b60a5",
        "l10n\/pt_BR.json": "214b62aeb96dfd58ffcc6f917d7f7788c62771b4d27284f2d9c4cd8b7e22f8a1b6c3ea5e9b2a9c453c7b162ceb4102838cd0a4e61f5dc68ab0c418d3de29bc5d",
        "l10n\/pt_PT.js": "e77ce1f215a94e38d8bd050a4aa6aa27e7029337b34198740bfe99ec4d3fc238d0a2cc3bf260195fedf1b4af382e2622927e7f89998189768232f9c5ce3d442e",
        "l10n\/pt_PT.json": "9999eddc9f0d40dfa6b99dc27ecaf082d5c6262597cdd1740690f4647c36871376810e6401dbf0ec7dedc404c7f4e7300c362291862f7a3a599142379a2fbfe6",
        "l10n\/ru.js": "dd57ad017ac15e86f4f38aa7318970afa3b94d7e1b53158045d606a60c5845c630a3a45cde6a370092766d0014171377adb9ba85cd50b485d0488c999bb106f1",
        "l10n\/ru.json": "b0d096ad3c6aee3be7f3be5a017feb081ac3f2092a62faa46a947fdbc90e84a3306310fb981f555d9a217c4aedbbfb540ad5d4a17e39df276cad70af4c33b331",
        "l10n\/sk.js": "f6b5a206b25be67d3cfa657ccf7a98a6af17b63d34239e859ad2dd4a888edf5f2e139fb5574d02a8121799198adea0bcdb5728aa57161f7d662c6e41db9f4750",
        "l10n\/sk.json": "127a582d039b0e3627642dac9a4a2b3493d920fe6b54baf260ce1eb1db4ffbe4a4218ce285dbd29f231777d7a11525ef53b1a220568d8753162a1377de7fa2fc",
        "l10n\/sl.js": "8e42a68e6c8e94984bc844d26fc7914d73da6adf78818a25672992ae63a44a4294ccf180f23a66ace01ed03a63d7d3bc1ff922cc9ff421348d28f24a53ef44e1",
        "l10n\/sl.json": "f51c0d0b12a330392483bb1b8cc0f171db63d78378563f09270eb4d5c732d2d9061e34dfa3b6011e941441ca534912ce8279cf026a82d7f536bd860c7eb55a38",
        "l10n\/sv.js": "94104a975334378da1a9f63fe206d2ce7b149e25bc34597c5a7f101292d1a77c3157224c986f4b073678b0eef450b967f595638dcc93c2dcdda894102c274b1f",
        "l10n\/sv.json": "eb12cbf303e4fc263d80ff367d0fc07646825e73f2b4ad10511f201b1e099f1bcf4def3030931b83cbc114995cf17514d9301e9645c38b7901b6b5d87301c2b2",
        "l10n\/th.js": "d542a658a800156d41db039433af7feed5a57bc59f0f573d50cdcbb70b0984b1582fb4fa406c0c093afe202d8b901aaacbe79969ca2285ef661051e00735893d",
        "l10n\/th.json": "f93cc7943c25d284fbc5d8d6d669a45a78da72a6f93b9d65b6c73362865820ad2953c87ee7bebfec0d4e2c0f75ff4c6103758985e9087682e9e55be74886f342",
        "l10n\/tr.js": "2587b44c106e40d9231dc2271562483b1c6b33491191b8c2b031bfc6597e4a14bae4c2a8a839f5cdacb6a97856485e420585f6028c90a7b7db4d2a5f51f59fe6",
        "l10n\/tr.json": "11e62b18a6a1e9aa307b64319d127b054d1bf90116a3bd51a8d192b380d8ad3d7d517eafb325e54450951ff76391ddb3d986c5c4c9aaa46b57160c070a8e1caa",
        "l10n\/zh_CN.js": "4a9c75cd0e569f4829ba1529ec4c1aef707e8b96ac6f38e4ec136e05b657429be8ad5f0474287541818c67152bc679f0356fc6e644df16761a5f04d9953505da",
        "l10n\/zh_CN.json": "a17d0ece4bea7aced3bc9c66ddce211ad95cc0308b70c740d0ac0e676e0548ba9761bff7024c72280250c511b0bf6af9948aa869a58980e0d7e87165e1ed5bed",
        "l10n\/zh_HK.js": "42bcc904949f93a1c29494ad8c11b46548a774da1fff817bb178115dfcaf40ed94c95a2f2ee70aeb0493b1c1b08140b2384f773a8135cc621b1dc14e78a8bc5e",
        "l10n\/zh_HK.json": "044b113cb5d3041f26585eadccc6ab15fe111bdbd97cd553a04e670e376cf75e8093bab2daa9f110278915aa06460c71edd007eb1857f5409ea4d155bfd8980f",
        "l10n\/zh_TW.js": "42bcc904949f93a1c29494ad8c11b46548a774da1fff817bb178115dfcaf40ed94c95a2f2ee70aeb0493b1c1b08140b2384f773a8135cc621b1dc14e78a8bc5e",
        "l10n\/zh_TW.json": "044b113cb5d3041f26585eadccc6ab15fe111bdbd97cd553a04e670e376cf75e8093bab2daa9f110278915aa06460c71edd007eb1857f5409ea4d155bfd8980f",
        "lib\/Controller\/DashboardController.php": "5ea12d413bde5de97456204f3e2d6a90f32cce2eddb06fa75b2e13798a05ba4d7dfd984d3a52b1b6c5028a705baccf295efbf4d276507578030caa979aec1a7d",
        "lib\/Controller\/LayoutApiController.php": "063be378f6a170816d0fef6de98763b9444ba38b892a2e8ef1d666b48cfc140c9cbfd940e54d1b6f170e41f9ec14af72a9d01a9b2f8fdf4084fd6c3c72321786",
        "lib\/Service\/BackgroundService.php": "4160f39b54024edb91f6362ab21b5e612bb04ad211fb07c49ceffb24473fc66ead3ba7c51f0020279a185010bacc951d3e54464ba91023abf8bcf361f1c285a4",
        "templates\/index.php": "df4a2e14c6b6f9433400386edd79caa25fa6dcc2a82374fb07df8e4a48f08dccb407d7a973d510c49d5af27fd1cd98f9215156b683ee5e5ed3aeec7adf87e7a0"
    },
    "signature": "Jv\/eWLcgCCjlzjzbBRvRHqppBVvES50BJQnN\/UViSXLbDrnD+LzwP\/kTOlAFAOhQigGEJA3USedaaxlp5yHR6JWhlYRmNbjnHioe67\/Oz+VSBa9pwK508g3vtuM+PVY6S7Rch6URGk+Ic6Px7RCCtrdg5PoSeEfQGFYDCv5G2yyxBj3BwvnuRuJbIMRPtnP2JdKs60CBjttzNRhl6NBVmfHjWr5k7v9Fv563OTjFkA6xAbwOJps6OuA7o6fhRO1pqA5oN3UdPZ0PQH0MvMs3HZPLIPr1sx89UPLOEe3QGA2xLauIMj51Ua1KeetJjyBjW\/iWSxB32FSUfSHNvvZX+g==",
    "certificate": "-----BEGIN CERTIFICATE-----\r\nMIIEojCCA4qgAwIBAgICEAAwDQYJKoZIhvcNAQELBQAwezELMAkGA1UEBhMCREUx\r\nGzAZBgNVBAgMEkJhZGVuLVd1ZXJ0dGVtYmVyZzEXMBUGA1UECgwOTmV4dGNsb3Vk\r\nIEdtYkgxNjA0BgNVBAMMLU5leHRjbG91ZCBDb2RlIFNpZ25pbmcgSW50ZXJtZWRp\r\nYXRlIEF1dGhvcml0eTAeFw0xNjA2MTIyMTA1MDZaFw00MTA2MDYyMTA1MDZaMGYx\r\nCzAJBgNVBAYTAkRFMRswGQYDVQQIDBJCYWRlbi1XdWVydHRlbWJlcmcxEjAQBgNV\r\nBAcMCVN0dXR0Z2FydDEXMBUGA1UECgwOTmV4dGNsb3VkIEdtYkgxDTALBgNVBAMM\r\nBGNvcmUwggEiMA0GCSqGSIb3DQEBAQUAA4IBDwAwggEKAoIBAQDUxcrn2DC892IX\r\n8+dJjZVh9YeHF65n2ha886oeAizOuHBdWBfzqt+GoUYTOjqZF93HZMcwy0P+xyCf\r\nQqak5Ke9dybN06RXUuGP45k9UYBp03qzlUzCDalrkj+Jd30LqcSC1sjRTsfuhc+u\r\nvH1IBuBnf7SMUJUcoEffbmmpAPlEcLHxlUGlGnz0q1e8UFzjbEFj3JucMO4ys35F\r\nqZS4dhvCngQhRW3DaMlQLXEUL9k3kFV+BzlkPzVZEtSmk4HJujFCnZj1vMcjQBg\/\r\nBqq1HCmUB6tulnGcxUzt\/Z\/oSIgnuGyENeke077W3EyryINL7EIyD4Xp7sxLizTM\r\nFCFCjjH1AgMBAAGjggFDMIIBPzAJBgNVHRMEAjAAMBEGCWCGSAGG+EIBAQQEAwIG\r\nQDAzBglghkgBhvhCAQ0EJhYkT3BlblNTTCBHZW5lcmF0ZWQgU2VydmVyIENlcnRp\r\nZmljYXRlMB0GA1UdDgQWBBQwc1H9AL8pRlW2e5SLCfPPqtqc0DCBpQYDVR0jBIGd\r\nMIGagBRt6m6qqTcsPIktFz79Ru7DnnjtdKF+pHwwejELMAkGA1UEBhMCREUxGzAZ\r\nBgNVBAgMEkJhZGVuLVd1ZXJ0dGVtYmVyZzESMBAGA1UEBwwJU3R1dHRnYXJ0MRcw\r\nFQYDVQQKDA5OZXh0Y2xvdWQgR21iSDEhMB8GA1UEAwwYTmV4dGNsb3VkIFJvb3Qg\r\nQXV0aG9yaXR5ggIQADAOBgNVHQ8BAf8EBAMCBaAwEwYDVR0lBAwwCgYIKwYBBQUH\r\nAwEwDQYJKoZIhvcNAQELBQADggEBADZ6+HV\/+0NEH3nahTBFxO6nKyR\/VWigACH0\r\nnaV0ecTcoQwDjKDNNFr+4S1WlHdwITlnNabC7v9rZ\/6QvbkrOTuO9fOR6azp1EwW\r\n2pixWqj0Sb9\/dSIVRpSq+jpBE6JAiX44dSR7zoBxRB8DgVO2Afy0s80xEpr5JAzb\r\nNYuPS7M5UHdAv2dr16fDcDIvn+vk92KpNh1NTeZFjBbRVQ9DXrgkRGW34TK8uSLI\r\nYG6jnfJ6eJgTaO431ywWPXNg1mUMaT\/+QBOgB299QVCKQU+lcZWptQt+RdsJUm46\r\nNY\/nARy4Oi4uOe88SuWITj9KhrFmEvrUlgM8FvoXA1ldrR7KiEg=\r\n-----END CERTIFICATE-----"
}