{
    "hashes": {
        "appinfo\/info.xml": "e16dfd356adadd3ece847f92482d0cab5c442f9764a55448174038428332c8cc03cdd41e4c6239f5ea62012461366aed22bec5f1d0782c0f43a249d12ba27d0a",
        "appinfo\/routes.php": "1fef6b19d1068d5d55b3ddca004ebef722ce51b90b6f8f92c76076b70d543bcfd7c997fc465778df2ed106a10a45638676287193f74b805e664b1cef026dacf7",
        "composer\/autoload.php": "33fcf50f102566cb9d45047bfe8bd5d5162124b8155a70d33c40bda2ba8e6d2fd7226eabc8469475d3c553046afb425b2c9636cba5bee2384d138f0c3cd0ea46",
        "composer\/composer.json": "d8c892e13caf7801c4929d726c1ad072b391bd1824607decee4b597300e3d38a1b7ea738646b1ee06f43c2a7df76633a08db1a19181a788fff658ebb31b93507",
        "composer\/composer\/ClassLoader.php": "2b6fa585122ace1ba816410acbd8372cb75329917aae6363dbad48e396cca581452616e1386a2e445a8fbb0e461b988279103f4f89adf704bce7726f761abf0e",
        "composer\/composer\/LICENSE": "f3bb64009f41a425df5a9bbab53490f0eb9b74fa8d6aaa2f57efb928edc4ffff330260666edeaa04a91fed708c3663371cf01b284f3a08d6698aaef7a23f355a",
        "composer\/composer\/autoload_classmap.php": "9be0e2566982b62c2368f4e5bc9a735cec38a78d38d1dc03847fc72a9b3c2c78541dac7459e48f1babcb9dc8b0a3012bf83bb35f8890e0c09a7c09f173cdc327",
        "composer\/composer\/autoload_namespaces.php": "dd8ee31d2faa9014fe567e1f954b5e7f450cf06feacbb96d4df663c59b1a36a0b7d26ad41b46354bd14f282fa7899298137208d1851099cd3ada285650efd90f",
        "composer\/composer\/autoload_psr4.php": "d1365f678110bfcf86b9465e36f57ea57354a3c479e6196683985ff68e182c1e7b2f4a67f91d2b96e473039fac7f20dd10afd779842b42e2e36de16d11745e37",
        "composer\/composer\/autoload_real.php": "8235322ae3a58a9cfab26f7fbc3c71a5146bc21260e6e8abd30be3ed20ba869d37df44f9329a1d7356e412f8bea6b378071c0777d3d9cb1bef65b7208189855a",
        "composer\/composer\/autoload_static.php": "da43157a3fa4e37df1883f6b8d6e7dca16b4973c5fa47fbca1924a98f7f267268e0850961c43d336745b8621b4ba2f202527f8488c24aa2d1965667575741f73",
        "img\/app-dark.svg": "fb7c343b3fd988453e03403c8b9e26a7f702a17b088ccbd4728a16444fccefb574939ee00d2700080dcdee6c32a9a5ae0e2808e1b8e2699dbfe8fb144af3d858",
        "img\/app.svg": "7d62a4f8322f744a494335d38769cba2805a2bfce7d80a64221391d5f5ac662c3864fcbf07f56b336add6d1c808355bdc558568feccbba08b79cd9f059dbcf01",
        "js\/workflowengine.js": "c08c5ce8936adfd404ed1805ba99b6abdd0fec86cf637a3640855e7671cf8cbfc8db2c5da52ae15df10ea57e3448603ebbdd87755ca19fe23e00e8acd1810ec8",
        "js\/workflowengine.js.map": "9f101d50b05b7ba1854009cb098863310b2dd593a95f750b013a7a156bd40b970e274f0d91898df4e59ce6a4603fbc63895fc4db1f880782c677f674c01136be",
        "l10n\/ast.js": "7e4ac4823a898c12e9a96b4722faafdadd2c3d7624a0d849b629b0a9b67c316eec73f354862ff3576d5fc08ca2cb4fe248f37e94c999ff154b2936a64b6d76ec",
        "l10n\/ast.json": "78cb076817d8d46bb472c77d356069c6e4005014cfc3e9541855d081bd2c46fcce3516c02deaecaa9dae447de13972c09b322878bd2661d14d74bd974857eb00",
        "l10n\/bg.js": "09495c72a6a7654e108bbde9ebd80d1958aa7e1c37c3bbeec9480a723ebb325c46598ee6ea6113b6473fa593f18149934947520650186beb5b8f9963de75bdce",
        "l10n\/bg.json": "b5b68fad9f0267b15feb5d8f8d3159f3c2ea157cc1a50da4e1a60a38406d47d6b3ac0a369d18a8b5371a429e0fe7345abe700384e8dfd50e7bf86d7db15cf210",
        "l10n\/bg_BG.js": "8593d5d3477f30d047d0f94404640e3a9b6723bf864cefb1a20f3b0071bcbc724b8e4ad8a48927aed670181b789e2a7c1d04ce70a4f8b1debbf3169da3abd8fe",
        "l10n\/bg_BG.json": "2600c549589047551767146ee50edb7a90faf1ed138bd9a55eaa8a065c775264777fd75bb28755b565daf5f99d0b74d4efc1d441b77547f425dc0bf00b98c9f4",
        "l10n\/ca.js": "4d69cdc6e7c3bc7566607d022f6eedc145c5c50058f048311011f8d6ce8a1f02e5d5b84b43b7bb5d9e4cd80818811ea7aab5a6fb7f7eec74fe6704f10b9f12e0",
        "l10n\/ca.json": "8e08e1cb0f976e8ea4f1c1ea4cc3367530ef26ffa13317217176df5d498988d1317ce5ec23c79e49c2d8bb31636b29bba6ea1cc0523e44f2cea41c1a93c3e120",
        "l10n\/cs.js": "313b09765531c568a772c783c9041b9e5392a1e6127abadf6654932ed5c834b68ec921d79423cfa516eb014d716b1ff3f6f7efe74654666e037c43551edafdc2",
        "l10n\/cs.json": "91ef6664980b650e36e12bde059e030439b5c0c09f899c73f8f2daf003240dc2ff201f4debde0b47d3e3b085d60e9bb558d5c2b2502defb35739e2749466980b",
        "l10n\/cs_CZ.js": "123a766e28f51eebc30bd8d403061b93a051e7af6e8de10e89c2f084c3e3f23ce047baf1502e5e3db1dbe7cf441d986936533111de2f504323391e749a90f42e",
        "l10n\/cs_CZ.json": "2bc9089eb4f8ae306f88020eeedd96ec9605e35738e08e12eb4e59c2081cd9183c357ebf87d02a358fc8ed38752ecc97a0e2e26df7dddcf899b4b836d2fd59b6",
        "l10n\/da.js": "b0830381e37b19a94b601e20b9d9fb4b45acbbadf83fae1ac546e3ff4047d4000adc8ef30457ffc4bd265bb786f9e391e58fb265739198113bf099fde44202e9",
        "l10n\/da.json": "0e27b7b8fff6deee26447c8eaba9f12a2632ab4f796cd953fc0d828c2d75cb2b31278b17c286e3e5cec9e983d53d730d59a4b6782e40672fe4a8998f5cdf469a",
        "l10n\/de.js": "09d1ddb3a2ab935d486b1a056e210c554f9301e8fcedd2fed5124fce5ccbda4d86f6fc8751b1fac4f0f7421f9748f12befd4f614c90308708e3cae15b5c0bc02",
        "l10n\/de.json": "8127039da7e20548b147b2a68c43f92b2dfb8bf632272dfb0642035d31e89d94a958840d909d027d7a6a995d169791282ddcf65664c14f016dd6d99fddc59f34",
        "l10n\/de_DE.js": "c25c1e92d8aef512920deb560712ab8311af3de1ca5e9ac443756d440569ab4d78e3787e746044d02f5af71797f505e6c125b9619739a3f2aadd1a81f5b587ff",
        "l10n\/de_DE.json": "6e8193de3c39daf505cf427c28b2f31f693546b2ac72a5946bba365cb1ea2bf76ba8cbcc5288520766316c17b0b9b9b82f3c78201cb75097ced45762d1af0758",
        "l10n\/el.js": "8719211724229e609bf251ab4298ae1304756ca76d779b20e5d9e5482303f1fcb5b93b1ca3f985a662b41c6b423d569e5aaf806d7cc1e1a284ba02ba18770874",
        "l10n\/el.json": "996143a5d823ea951cf20e852459e8a5ee7863c6674932a1c1bd6b2d523a02a9144431d70c9199514310d4aed27f3dc4b5e296de3fc47b3f55160abe489cabea",
        "l10n\/en_GB.js": "80a4ba533efe36773d4caab4e2bc0890cb8c7e37be2b7b943b62b08bc7686b5d82c1a1979635c1ba51952da8d5429bcd08f2937989d8824d081a2403f3cfdba0",
        "l10n\/en_GB.json": "760ea60075df9ef10d6df43c79ae2ce69b840bb7c65c0ad3c38d82b5b952482e370d3cdfbfb6e354eabed6b7bbc18b67d9913980b463a08b5d53694ba1e08c39",
        "l10n\/eo.js": "49057b125581ae57ac020c296673c3fe650bf9dcadef0af974c5b592b5912c2917a7dda20be661ac6a93733b0f96d08f93dcc9c7643f803891c0a62de1f91d8a",
        "l10n\/eo.json": "4f36c82a634b97c50f8ff6cb77dd9635cf0ce168182c962b27ec690994ecdc21a50f73ddc6ce98d32f81344f61c2006bea266b8c44f60ee0e4c2eefc1a5f57a3",
        "l10n\/es.js": "85f722316484e628510acadcee8ca76a56b5787bb2b709d3e6258461a2be8af5ada1571eba361e6909d9aae9b53ac221779093aec3355f6a8d11aee9b2f86a47",
        "l10n\/es.json": "4fc991fc97d60a72e93185eebc4d77703aa1dff36bbf65cb39ee06cb47bc20b9fd9c7ac248da84ad6da8f7e44b1501086921703aa67a3dbd62a230dd3bce28af",
        "l10n\/es_419.js": "91048128b1c102d14605b8426b7ca0d0639fa7b6998ddd2a5fc291914ee6ab8d842ddb89537f8f1819b321e1d4cbd46bf6f2fe084325b3bbfe908c20c4687274",
        "l10n\/es_419.json": "4fb9001655e3fe583912e39e9fc37ee1b5e5f595fe279e8d02c5cdf6a1fd7a31e2be78bd0e502dc07feee3a31766e143f95a9417c6c5fed90aaa7abeadf84a69",
        "l10n\/es_AR.js": "7a418f2e6bbce5a5741eddecc9c6a6b34dec1bee4e8006ea6013f740dc6e87192e64aef27ac54ecc662ea354080cab66bfa9c8ff31a22d87a249dad71cbf764a",
        "l10n\/es_AR.json": "1521f0026851e3241d46c77c792551071bd3c3e97b742fa23ebb6ebb7984325781a8eba7942532db7baec0369a0da628a9cf7b3d9c75b8b46ac219831e1a0eaa",
        "l10n\/es_CL.js": "85a8840db5d797a341e77deebf5dd28242dacc860761b4a58121315ae444dd0f5d0001be467b0ee2644318342554ca7b23ab8cdc20f9d5f8d182d3961f4f7723",
        "l10n\/es_CL.json": "a611e6e7980160faa5265a4289aec6c5215a8aadd34480fb24b7ebbeaed73c580d045fcc6c2423942352a0a4d99d08500a842bea740f57a8c265eabc7ce76fb7",
        "l10n\/es_CO.js": "85a8840db5d797a341e77deebf5dd28242dacc860761b4a58121315ae444dd0f5d0001be467b0ee2644318342554ca7b23ab8cdc20f9d5f8d182d3961f4f7723",
        "l10n\/es_CO.json": "a611e6e7980160faa5265a4289aec6c5215a8aadd34480fb24b7ebbeaed73c580d045fcc6c2423942352a0a4d99d08500a842bea740f57a8c265eabc7ce76fb7",
        "l10n\/es_CR.js": "85a8840db5d797a341e77deebf5dd28242dacc860761b4a58121315ae444dd0f5d0001be467b0ee2644318342554ca7b23ab8cdc20f9d5f8d182d3961f4f7723",
        "l10n\/es_CR.json": "a611e6e7980160faa5265a4289aec6c5215a8aadd34480fb24b7ebbeaed73c580d045fcc6c2423942352a0a4d99d08500a842bea740f57a8c265eabc7ce76fb7",
        "l10n\/es_DO.js": "85a8840db5d797a341e77deebf5dd28242dacc860761b4a58121315ae444dd0f5d0001be467b0ee2644318342554ca7b23ab8cdc20f9d5f8d182d3961f4f7723",
        "l10n\/es_DO.json": "a611e6e7980160faa5265a4289aec6c5215a8aadd34480fb24b7ebbeaed73c580d045fcc6c2423942352a0a4d99d08500a842bea740f57a8c265eabc7ce76fb7",
        "l10n\/es_EC.js": "85a8840db5d797a341e77deebf5dd28242dacc860761b4a58121315ae444dd0f5d0001be467b0ee2644318342554ca7b23ab8cdc20f9d5f8d182d3961f4f7723",
        "l10n\/es_EC.json": "a611e6e7980160faa5265a4289aec6c5215a8aadd34480fb24b7ebbeaed73c580d045fcc6c2423942352a0a4d99d08500a842bea740f57a8c265eabc7ce76fb7",
        "l10n\/es_GT.js": "85a8840db5d797a341e77deebf5dd28242dacc860761b4a58121315ae444dd0f5d0001be467b0ee2644318342554ca7b23ab8cdc20f9d5f8d182d3961f4f7723",
        "l10n\/es_GT.json": "a611e6e7980160faa5265a4289aec6c5215a8aadd34480fb24b7ebbeaed73c580d045fcc6c2423942352a0a4d99d08500a842bea740f57a8c265eabc7ce76fb7",
        "l10n\/es_HN.js": "91048128b1c102d14605b8426b7ca0d0639fa7b6998ddd2a5fc291914ee6ab8d842ddb89537f8f1819b321e1d4cbd46bf6f2fe084325b3bbfe908c20c4687274",
        "l10n\/es_HN.json": "4fb9001655e3fe583912e39e9fc37ee1b5e5f595fe279e8d02c5cdf6a1fd7a31e2be78bd0e502dc07feee3a31766e143f95a9417c6c5fed90aaa7abeadf84a69",
        "l10n\/es_MX.js": "faca40d287d8963b598b95f499169cad09fd49c9b62415c97188f0c2fc769e44909eb7439b0cf82bb7d5ab7fb484a7150d74a52d591b8cfdf9b9003b108ce8de",
        "l10n\/es_MX.json": "4e3b2dfd656903abed81d9c09236bb9c7d7a1a4b2773b16fb0b5637611e45a4c01f1c9e317d3c91d47de75260b6049c321dc81229147f77c17764f012e5cd8de",
        "l10n\/es_NI.js": "91048128b1c102d14605b8426b7ca0d0639fa7b6998ddd2a5fc291914ee6ab8d842ddb89537f8f1819b321e1d4cbd46bf6f2fe084325b3bbfe908c20c4687274",
        "l10n\/es_NI.json": "4fb9001655e3fe583912e39e9fc37ee1b5e5f595fe279e8d02c5cdf6a1fd7a31e2be78bd0e502dc07feee3a31766e143f95a9417c6c5fed90aaa7abeadf84a69",
        "l10n\/es_PA.js": "91048128b1c102d14605b8426b7ca0d0639fa7b6998ddd2a5fc291914ee6ab8d842ddb89537f8f1819b321e1d4cbd46bf6f2fe084325b3bbfe908c20c4687274",
        "l10n\/es_PA.json": "4fb9001655e3fe583912e39e9fc37ee1b5e5f595fe279e8d02c5cdf6a1fd7a31e2be78bd0e502dc07feee3a31766e143f95a9417c6c5fed90aaa7abeadf84a69",
        "l10n\/es_PE.js": "91048128b1c102d14605b8426b7ca0d0639fa7b6998ddd2a5fc291914ee6ab8d842ddb89537f8f1819b321e1d4cbd46bf6f2fe084325b3bbfe908c20c4687274",
        "l10n\/es_PE.json": "4fb9001655e3fe583912e39e9fc37ee1b5e5f595fe279e8d02c5cdf6a1fd7a31e2be78bd0e502dc07feee3a31766e143f95a9417c6c5fed90aaa7abeadf84a69",
        "l10n\/es_PR.js": "91048128b1c102d14605b8426b7ca0d0639fa7b6998ddd2a5fc291914ee6ab8d842ddb89537f8f1819b321e1d4cbd46bf6f2fe084325b3bbfe908c20c4687274",
        "l10n\/es_PR.json": "4fb9001655e3fe583912e39e9fc37ee1b5e5f595fe279e8d02c5cdf6a1fd7a31e2be78bd0e502dc07feee3a31766e143f95a9417c6c5fed90aaa7abeadf84a69",
        "l10n\/es_PY.js": "91048128b1c102d14605b8426b7ca0d0639fa7b6998ddd2a5fc291914ee6ab8d842ddb89537f8f1819b321e1d4cbd46bf6f2fe084325b3bbfe908c20c4687274",
        "l10n\/es_PY.json": "4fb9001655e3fe583912e39e9fc37ee1b5e5f595fe279e8d02c5cdf6a1fd7a31e2be78bd0e502dc07feee3a31766e143f95a9417c6c5fed90aaa7abeadf84a69",
        "l10n\/es_SV.js": "85a8840db5d797a341e77deebf5dd28242dacc860761b4a58121315ae444dd0f5d0001be467b0ee2644318342554ca7b23ab8cdc20f9d5f8d182d3961f4f7723",
        "l10n\/es_SV.json": "a611e6e7980160faa5265a4289aec6c5215a8aadd34480fb24b7ebbeaed73c580d045fcc6c2423942352a0a4d99d08500a842bea740f57a8c265eabc7ce76fb7",
        "l10n\/es_UY.js": "91048128b1c102d14605b8426b7ca0d0639fa7b6998ddd2a5fc291914ee6ab8d842ddb89537f8f1819b321e1d4cbd46bf6f2fe084325b3bbfe908c20c4687274",
        "l10n\/es_UY.json": "4fb9001655e3fe583912e39e9fc37ee1b5e5f595fe279e8d02c5cdf6a1fd7a31e2be78bd0e502dc07feee3a31766e143f95a9417c6c5fed90aaa7abeadf84a69",
        "l10n\/et_EE.js": "3b62f0955d25af6ed7039cd9bd1483784faf1ba4dbd9e0add0314495337fb80f3c92356fbaf3489b7497497c9d72a573a688a0b8f71d2ecfcc6d24e07e5b68e4",
        "l10n\/et_EE.json": "4d4d8054996943b06474ab2e5003c86e43a40963a21611caf76351d438d02919154f2704d089f61f81f8a7992a822fb9da250d4a3a0e3fe192be338133397f45",
        "l10n\/eu.js": "b5916ef01b6ea1de8a9c9ef0cb93c5f02f055fed31b09bfb1a6cb83443bab996caf4760a4f6d7dd5f1acdb72458334be4b9059510501d9fe866b99ac67d8c297",
        "l10n\/eu.json": "f7206e18cb44ce79774ba8ad546ed51f8306fca49124a3d057a9ba707110e1c5a4f751e5688c24725515f003c4b90b39d6db4d73e07a4763c610fa7045c947af",
        "l10n\/fa.js": "0eeda815ce96f16bdc9773bf658c6e2240a5536f298153570b9fbb58a26701d50db1eb4080afac772365168936fce203dcd3429b0349349424793e5885dd620e",
        "l10n\/fa.json": "f5374ae848c3690ad3ed2d91a14b7c589f72d687e01df5ea33fe1d5767ad67eac83ccc5b14f24123174e0f6b0dbbe2caf76c93c447130a2894ceffb264c57bc8",
        "l10n\/fi.js": "aa0082a40af6c19c6b7be557c98476633ffafa7d9171fc98d8fcf053c7a71cbacb9f37fdabfa8853276cbcbe3ce7b800c8a441ca96865f72a0bd0309665adc1d",
        "l10n\/fi.json": "3fcb85264f3307510f31ac9b4a08072a39c2d645f5c93dd14b356e5539a7499863761d2be866101e84e53522ad0e7200f9e86f6d166b5599b2c610d286a35bdf",
        "l10n\/fr.js": "8423691b6be93b362b1e9ccf4170f76031df104d562b2bd5596805d8bd53e41eef74d134dadd25fd0f408a49fd366ed39a93d6076ab1bb1f7e722ed90b1fa5ce",
        "l10n\/fr.json": "d9fc17696a9a6181e09a11ab667479917ead89878106987cb20902c99a477dbbd2cc75c7c492d02f16dc7b62afd1b640e5e93310af21c35f404460b605ed60d6",
        "l10n\/gl.js": "40d8603d104bae492bfb12ae728e9accf4c07ac5a9f3c237101afd7fabf0431bec8ee06a3aef5bc4e77c6f3bcea40e2c00867c78961651ec1f24e9d60f63f52c",
        "l10n\/gl.json": "cacf6f99b831b89a823a4b96072a2024da4379f103d3dc08e9247e633c7fb67149097e0088a7951dcd50eee4042736b26f82d6f164cdb229e7d908517916041e",
        "l10n\/he.js": "b070250b81e0f951cc7c3994f00c4d78a0438e4a5c7618188e9aa131eadca0d2733d82284adc10e17cb8fd4480696e890c4cce831f254c41921d493ce8c667c2",
        "l10n\/he.json": "4fe177242c3b0934ecc31c474534872609111f0c9a14d9c3ab161169ccfa36c7e442c594c00e4ff34e27382762e8b9b80a231d6b37eaa8a9d477be6aecf3de1c",
        "l10n\/hr.js": "6eb9a458b1f17f76b8ef4defb9ffdfd7af5a26edd5c0ad25c07cd9edfb9fb4da3adc183e7ae40de03ea05aaf45937bf81acc96c174dd850fed2d6dc76af041af",
        "l10n\/hr.json": "a1f14a017ee1a91bbf6cd799f895c945d81d2a779dd95fb6ef9d6b8d3bf1c676afb2247d9ec7ecb8fa2ed1e80cbb021fa2f93ac0c10ded2b036bc5869e8f5676",
        "l10n\/hu.js": "edcff2bfe63fc7782da3412a51b985fdf5807344127f5345893d8fe2eb28602166b0d31ced5f90559c4653912583bc08e4167df6d3ab196ba1734e982f0da3b1",
        "l10n\/hu.json": "7f40c9f7b4807540b171526d0b78daca969b797d4f994bc7182776e3260dd6dfcf6aca7cbd05c59288cbec55d52dc799b6a20de79294244974a7ea251d2bdb2d",
        "l10n\/hu_HU.js": "e4eab0578b3443cbcb3e0d739bb4888de5bff206209e276acf0fbf1ac46c42b144b51030df33c0ca0658aaa147dc8a647902bd97ceb7a32d6c66df14c38dd754",
        "l10n\/hu_HU.json": "dbfed42d5d5139d447e7b6f730bcdaf600ddc51d5034a597173472c73ad6f764186b4b6fb165bf1b0c63773f312cdb2ab2786ffdec41eccc2767754d861dc4e8",
        "l10n\/ia.js": "1c518123bb113b951a57f58c95a288fac67d3454cb66bded2a9c572f58b193344a8dd6fa7680497cfbbc801ad0c1700acaa870e1d6feb5a7d5725cd304dfc3b3",
        "l10n\/ia.json": "ab0aaba76f1fff769bca4251f4fa019acd1686d0e3b8964fa0cc6b102b4e8cf242f56367f3ca0d32502ae03fce5aa0d87f2470a121edcae002e2f3f46d64a497",
        "l10n\/id.js": "d48926b7368d30d74c63f11d543ef0fc5a872fc9c4cfb37753200cebb4e66cbc6ec6db80892898fe766fcdb5df4f05bc7d03b0a7ce1f534f5509b57c47115115",
        "l10n\/id.json": "63630537465110ca62df77d96e1ac4175fc6e64d13dbaf2501f4b6da8290efe1cc25ae2fe9f92bb4d69eaf51f831b03f928c39d49a528a20417375a7fb17f3da",
        "l10n\/is.js": "83638cdb921290c2ff2816edf5abf3fb9d380faabd8bda51bb83e312863454cfc78c05aff33beb68d0a940b2b90cedf3cb71fdac61e4aff96adaf7957dde1b32",
        "l10n\/is.json": "b93b18d9e8167d993404b260ad56f13949991174240af707a7f1f2685737b75b94cead7377aa44f98c1ebbd78d89718072865e7f266d21ce89a13a4c73d9181f",
        "l10n\/it.js": "63c79b591e9384a431b441a05484435695c50465bcf38a0b08708a750b460619b0c245440311fb8487e4c25536b8adc3fb1761503715d8e32a2055684a869518",
        "l10n\/it.json": "5530c0a817c837ec2299a10203430ed33b91bbf672d2c23bd87ab0d88df38e03d1ad11c143ce255938e804917d6702f22bb85656ff8f58ca7ec7164950420cc4",
        "l10n\/ja.js": "e91f227bfa5f860939669c457077e2454ee966bd88bd1cb34bf1a9e295278a7690eac7bcccea9e75011b4270496cac9876976590aa780533073097f16becb8e4",
        "l10n\/ja.json": "8e15862753752bbbc0e3c23ae1466788059b5e89b74f8a04b7bc19f1108121eba206330db5bffc7080a22193a7e4ba8dc311df892de695d8d1d2da31de68d52a",
        "l10n\/ka_GE.js": "c42c98b227d614474629a6428338a478450c33a29be90b802112a84e8356edc0f3369d3bfce9c1c9666425fd06e5664b20becdaf231b417a83723999e7319ea7",
        "l10n\/ka_GE.json": "c9f5393ca8cd8226e65180b2e07fc7e1acfcd8dd400145a5478f3a488e9bb6d30abf138f4c0a4845082271e6178acd78142ba464b6b088cc29e6fb6a3ba1e792",
        "l10n\/ko.js": "fb82eb7b0a186ba76d20a92f4f6812f9a82d1f45f91ef8fbaf60043db953e4842186762b22b414df92bb93596beef983c8ec2c8666a4a22a80f70b9624cf937f",
        "l10n\/ko.json": "dfbac138a818d5456f016ecd68589508e65f093844f845a2528b50fcdd94df3bb161edb2755dfa6f23353ed5dc4b3bf6418f5d7e57675361b2d5f5fe6400efae",
        "l10n\/lt_LT.js": "fbb03802eac341d1a69e6efed2427ef6ab87ea9258d10f72761257c6e6510c8a13c37c9d30d1027784f480fea9fd44bff5669cf414e95cb5ffa11d4242fd36b6",
        "l10n\/lt_LT.json": "de37a6e6a56cf4b908a25c96219cc0a37c5782548b3ddf063fd98d7801afce4b9efea046767409ab2b4526400788583b5b87d43ff6efbc6ae4c824710c4d65a3",
        "l10n\/lv.js": "859f944eaed3659888c78909ff8eb2d546be727f9c58e6f616d8586f4b91b348238158bd0a41f9c5e5f87b50f1795febae107d5ede10d1646e9bece2e3e06c61",
        "l10n\/lv.json": "beccbc3debba042b5be53e32d58f3cc27c0dfbff73548f65da16a91df5feb90dedf6b12aff98f8770c7837dffac38f407d44802c60eb3da3562bdd8315e5ffe1",
        "l10n\/mk.js": "00b82ae3ad6799d8f8379d1103a410558d3b928c76428caeba6ff9f091c247767ca22d6ac1552fa0f904b452ca465312a161e09a5ac2e27e4f63274ee6f44f1f",
        "l10n\/mk.json": "fdea6e7e36f8f2ac364352e3af82b4b58b37cc8454d6b7cd3dec35059591bfc5f63bdb976370340e19427e797fc810316e878d2fc98b1b469771b0f58cbc48ba",
        "l10n\/mn.js": "548fb87297cca8e5932fedebd2cbb392d45fe2e75258cb74c137e8d953985c1ff92e13d50792195806465a619182f10694e161926d23b6ac97dd37ea33d8bc20",
        "l10n\/mn.json": "1375f9f4109643b901d6a79c75c87f0e8b4c5e2549b1a71bb388f48a782e3f7527a30d6c903bbef363e3008ae25ffb834a57dce2da3707b20cbfa17b0f6dc127",
        "l10n\/nb.js": "8699dfae6628c52248bc62810f89668349f4bba27d4d2eaf25dacc79fc77cf3758f1fd4d8c1775a8ca4a3ace0fd5abc36c567b61d093bec751b296fd74f21167",
        "l10n\/nb.json": "dea4e92b97bf0809b741875d8b50b26ad1bf438529a18f6b2bbe6c3ee608b418dd7d61f1351afef7264d60ec1e6d49a089b384ec581137be44304b33a0cd1a40",
        "l10n\/nb_NO.js": "6a5e8be2006c991a46ddce01c881f6e4fe7e6499347469ffa62f339089b2da2e26d719301595a0e5be847d5875b30538a3142e3866b7070c5ea0d2e8347dc7c5",
        "l10n\/nb_NO.json": "20debe2e4283517589905266421185df752cee7b04aac40e46e5815a411d6fca8902e67cd7a84e4487ea21e28f56c03a1fbe55ca6eb88a3920c8c69e3fbb199d",
        "l10n\/nl.js": "748e5386fbf6204f4b3b7adcc782ce929337a6284c74140b926e35332ac72bfa8383c173ba5990cb28c7e8d918ea1612193a2964a2418b2e6efd4b1b40cee207",
        "l10n\/nl.json": "f9158d1bee61302311efc7a5573b5e6119ae14571110f7abaad16b45b92f18558840919322baead5584f6377f099ff00fc7d1c979c396c55cb876ef011de71e6",
        "l10n\/pl.js": "85459e6d3bf4af32b07755cf54130e6d3945f7de41fe4cb73cb1388fd793050b6ace3e3d80194c3686c0842b2c1df0a11b4b22f9850c35c905eddb8fdfa37a5f",
        "l10n\/pl.json": "32eadd19f18a1c3cc3062b750bdbfa7609aee9d154aabc84d6be08f870988cb45d15bd05908d4ab99de3b8d0b0b1235b22546d97fa7f001a4f342ab207266db5",
        "l10n\/pt_BR.js": "e028c5c7d4080a92ac40b5bffa19d3fb9efd3a1af71b05e80710f4a3d009b437e48cdb59beef46c8103373843bb698384ccf742e69b3aa496f759fc98cb3c504",
        "l10n\/pt_BR.json": "32c93e23e137115230a247a3267e2e9fa533c28f7fac58d7ddbd4a6290079aa0cdf80b57febd70adf60f09a4ff4e2367e1eede89db0174582a1441f14df331d1",
        "l10n\/pt_PT.js": "1929202cb0fe2ffebe6347cd97c643c823690d03852a52d497a126309980ccdfd1bbe7b70d2aaf2585d4bac1324ea5d132742141ae08d0c8f495de8c887f535a",
        "l10n\/pt_PT.json": "1d1bd6923a8b2eaed83d9060438096dc39f2685f0c293957ead009ab0632e5ac148f469bb04736fc9e6accf5b2ba7ae8a04ab14ecdbbabee758d03357a4e8f18",
        "l10n\/ru.js": "7ee1220787084405fcb09122b93b5ea3932af78db5d80e817db64f7b53e64e0e3efc9d9013322e2de4ba71740dcc654c72d43cb2d68b4f483b9cf29f484e75ef",
        "l10n\/ru.json": "143b625c3b044511c2b2089cbae71537e229c6539711f68d8defdecdc6cc1c1a2ccf91b7d5c586a15fd4ecd2eaaf3aa1ea3e9514cc0ea1e633fed4044224291e",
        "l10n\/sk.js": "d5d6139eefcded31f294cb052278af92c3c65b54815f16594a2d6ded777b503d103577d90d78d4f812815e133e2ccf2a3cb2dad5389a12ae999fb694267d603f",
        "l10n\/sk.json": "ccbad9221f563f2695641cd9004a9439f490c9a031480154e9e7771ce8898768a6f9465e7966260f14781e51d9638e1f92fdc3224abad06515753c2b1d09804c",
        "l10n\/sk_SK.js": "75ba888ac41fbbb43106d9b2c7bc6409b49060efcecd023c4ac202c609b16fe3330da395757f7cc48b0028360f31d645f6994c41390b89e8c393710914faa1c5",
        "l10n\/sk_SK.json": "b8ea808b1e7efbfbbb2bf4517047dbc78a0167f0ca962f813e3fce6a1798b2889ae734ca7d0756347162495d695c39b99773aed1b9b7d757b68b77187c073a2c",
        "l10n\/sl.js": "32b0fb22d4bba2bfdde74bb35227460d8183ed74b3d5407f44a69cb893e074e4b78a67e53580214e711ef19ec44aeee8fd3df6091fb7685e0b2f0fdd003792b9",
        "l10n\/sl.json": "abd8689cd73dbc1235cd9f582b2e4926b2bc468ceba5fb65290d719688e936c0624c64680e798e9d3536816dc4142ae498d141280ef22b0b45377ae0be8b3ff8",
        "l10n\/sq.js": "e80fe55e944497f1681cae305432e84909b384969a649540c7c54854a3bd78eb6e111a4f9b3e16e811e98a63377312ca479317e6517bbf8b66b9b0cdaa769d50",
        "l10n\/sq.json": "1704d14b69a920a9d87931a512e10ed6e7128b320addf21a1fd9b946a5485aeeb643d982a1e2ff15fbf89df891d9193d1fbb8ef074a51e179017fde92870e566",
        "l10n\/sr.js": "bad511f4a8cf7c63e3747bda47ab9725656ef14cbf4233d1027442efcbaa8ade4aa9d4487517f329a820eab402f27beed663dd901dd461af5d69bca328483ea6",
        "l10n\/sr.json": "ce74a2167e27b223aebdba6e8908cba9936dd97585c927a506b11ea735cabde5f2e75850e5947e9775c4f0f144dffe31d5e6a60f52e490271b9607f3e02a570a",
        "l10n\/sv.js": "fc7e5d0f289dd1dbfb2d9075d93427b41f6343dab16c8e292562f6b192e6430ff9122b3c8f1c917856847a6c82a7cd7efcae938a0bf1885d64aaac9fb1d16837",
        "l10n\/sv.json": "e72dc1b9d31dfb944bb6e0058cc702651172606f795ebe491908ec5478b419a8147340f4224112acac1bf828ef0eb46648ae9bd6f08d730cc88188ea17de22e8",
        "l10n\/tr.js": "c7c3d6bcb02ef6b7282a915b3d5f42f189267431171eabdada7d7c0c2a0be41ea92d2545fd3381faafab75b0bb1f1dae24365b14c0580c9140a916909f297124",
        "l10n\/tr.json": "f3ac1f53a2a6767327e035eb94318e7924f7b2b3988dc0fe0ba433321c7ac63e62e2174f7b7ea18971d5e0f732de2e4b9e25c14ff5d2051256a1569cd44644f9",
        "l10n\/zh_CN.js": "0716f803f1a46282e46923e24f00d6952af2916e86ba3fe56e4ef21ac5b49dcc3647b5827a6064eaa7fbba1916afff99770c604ae1e745b6e8dd80bf5d0a3ee2",
        "l10n\/zh_CN.json": "af3013b126243f45dace196f8ccb308ab466093f56118c70232c697c1c98ad6e3578edbc3243195e1a7339cda281e65032c81786bf7ce66e2ff1e8ed57b98f21",
        "l10n\/zh_HK.js": "9cfc10d3d6ddea1b0cc484840c146865e9451e1b0e5baae81e6b1e9de164716c4a5332d1b8fe652be8a5adece84029760be379668bb3667cbec1d7eaec9a98a3",
        "l10n\/zh_HK.json": "c6b9367fd5e790aa4e77dcc4c74528065d0a6047319f4e3213fb8699648accbbd62d27f82d292ee65f6372bbd3898b3a7412d77d3a4508b2347d6943eabe5a06",
        "l10n\/zh_TW.js": "cbf7b8e57a6e43ad206e747f76f85d913a1f9bfaa8549c5239223740fabe17e8c8900bf0a4734c33a4d017c405a629a8dee9969de846adbe69c4b95571737f8c",
        "l10n\/zh_TW.json": "c39580db4930f0b86153f0f4b3cedad39a1ce0f79564677fd64c156c8f4ea9e50d1e1eba14efb336dc440d800096aedde2f8d58cc692998c17fee070eb2f27cd",
        "lib\/AppInfo\/Application.php": "8585c7afa3384acbfd85c0925c46f8c1c510d4841b376ce79748d178adb30cede28567ce23c5128d0995d677b38ac00e2684f58be7be5cd60e8209498bf3a1a8",
        "lib\/BackgroundJobs\/Rotate.php": "0b939ff9928846232f03c3f75df0384720eff81d54efc6eced33cf57636518c61bcf0813ae618a32ef38ce9eba95f7c3b1b76fa7f6386e9c26f0df26161f79be",
        "lib\/Check\/AbstractStringCheck.php": "ee49adb2abe79da1209828076633bfd9bbbbe139307ef572ba288d291a3d7cd47483e392a801b6f64503fa1c36ae174bece7624728c5f9d4d9e889172635d659",
        "lib\/Check\/FileMimeType.php": "8cb41055afb93d7566e768c1d3b400054955a8cef5e45ad36e50c7cabd920b3863497a20d226787f26f1fa61e2a760d5668ae932b9555cb454d90ffe80f9ed0e",
        "lib\/Check\/FileName.php": "384bcd2b05d213fb2ac7bbe3000925ffcdaabb9ddd036fcfe78849c777245b52bc50ee8a2638a60065bcf94a4adc29f4f2c1a12343849c898c80bbeafa7366c5",
        "lib\/Check\/FileSize.php": "98be01dc6afcd483836f57ebcda204da0651eb56acb776453ed10ca8294f853a191fffdc698d04bc1adcdcc6520c0660e722160bbd8419e9ae6dd877e5f3e15a",
        "lib\/Check\/FileSystemTags.php": "f79bca5a6c05831fb6c987058e3b571b8ddeeb385534e510249ba7729e037300c96eb53b7994cf0eaa819d366a1570ecb5988ad77c8e0d56537de02f61521a90",
        "lib\/Check\/RequestRemoteAddress.php": "ba5718f04fb0edb492c1a536cf1a59cbddc97b1715a25d9040a7a6d8553794768289fbe71458438bb3ee4942765e02fbe13dd07181e2f263ef2eb0e842d1d172",
        "lib\/Check\/RequestTime.php": "7743da96a4d611d75866a619a007f691e2372128309f60f05ffc384b89aae254990d3b128cd369d50d0c5991cce0f00e9e835065a63ef42f5ff0ac78cca58549",
        "lib\/Check\/RequestURL.php": "50876f61eaa0883b6054cb0065933b9e2e8dce98d954732abecec77c8418f293b3481ccbef81e9b6bb8a66d16d2f29f18f2c130768061cb82f5162c2ae6eded7",
        "lib\/Check\/RequestUserAgent.php": "3c0e7f576e58ffd7659eec8c297b6b2d7c52cb2bfad0c4eb900737c0b7fe52892e1303f20d518c5ab6a70f9280c9f6cc191f0da66668f2e0c8202c14f28963d4",
        "lib\/Check\/TFileCheck.php": "ffa35cad76d432f3d533f45c45b795e2b4e7f595bd2285c979ccc514f0a8bdc01e343ef82fd7775020e2ad6b561342781910b53702b72d115306ba06974a471a",
        "lib\/Check\/UserGroupMembership.php": "776870463651754b0f26c5bb4c9cf5f04467d4a2bad51f34fe9d4808d84519dc44e9a53dfa4269f72535136b38c29f0aeb25e78cb993da4bd1e9c11dfbc6109d",
        "lib\/Command\/Index.php": "d26ca6e2cea00ef0c76734805f85b3dd58eb43d9a06c9b3e21be90d9fa426627b7945641506e4078a90f01d2404904bde3c25dff1d5e06204cbfbe79f9f173da",
        "lib\/Controller\/AWorkflowController.php": "48912b139c91561ac190015825da172e4eede8e347f1ece54a8ca9c942aa2b43a454bfb5ba7efad50d11dd1ddca1a7964770f73743991530c369e5cf3e3ffbdc",
        "lib\/Controller\/GlobalWorkflowsController.php": "d82e63e532a1fbb6c0f34d81c296e1a7009ef1713f7a1c24f9497b3b9ca0367581f8640408716a2f4758cdd3759b40af919bd218d440c5ed49bf099a5cae7f7a",
        "lib\/Controller\/RequestTime.php": "9beb5a38fe46f7032fd0cae475da519a90932d1f35c1336cdf6ad955c99e18802f3cfe1bccf1af6b832d8d5fcbdd4faabb277629fb9ca82a78ee8e88aafd0d71",
        "lib\/Controller\/UserWorkflowsController.php": "dba1b60848254f6d729919c02317f9cef2b451d69715f1723b9cb077db0da22938c6bea6e9dae089c447c804beb35c096f3e6ed703662315cdfbd9e8d702fb86",
        "lib\/Entity\/File.php": "7c5e7ddbd1ce3cace3b0a6c52eb515605bcf0ff9d373ce358834d2d866fed1cdc696ce8ae7ddad00cf6df6b9a2d61b1b2c82c451bd3d43a95a718ff1951187dd",
        "lib\/Helper\/LogContext.php": "76cbd6f58b30eed8e9824e15ac5b11f0571276b09e2d303455741972cfcf38c0a9125110f4fe2ae1f740a33dfc5f40fcd19fdcb3c5dd6f22025389c64d532665",
        "lib\/Helper\/ScopeContext.php": "d3c4e1c0e7b75958bb4971e5806001a49a9f7ae982b3d4439abbf3b3db81a4c86a55b3eaaffcc272624c8d7c1c92ebc4eb86950474a9de3d1f9fb2929cb19153",
        "lib\/Listener\/LoadAdditionalSettingsScriptsListener.php": "bb790bbe123421ada3196447b0d7a80d8d5f295466d49f679c1ed0461922b8a8ada2680b54d8db38b5ca8909be52201b9fe7e7b0033ace9395de02bc54b19633",
        "lib\/Manager.php": "cfbd00dda1444259063c8e0d4cdf7a54b98840cb268bb712dfe8d45646fd951dc28dfac9768475c44d290a536886815c51bbc2b92c5fcb41bd1c013a6c865469",
        "lib\/Migration\/PopulateNewlyIntroducedDatabaseFields.php": "133816b790754c667c7995b91504228e662425ce5604d9b40ae32e8e72290318843631cb9e3f9f4cd690116368e945ea6140579144ba211dd34424f369eb4208",
        "lib\/Migration\/Version2000Date20190808074233.php": "59438318e6a38956b36b5cf77d226259f090c1e04b943fc13004fa9e4f8e824454dd806ef5e38aec265e3cc1d72c1d74f42400f163dd81041087db10d90bf888",
        "lib\/Service\/Logger.php": "4191f51f03804de242d3b5bbab74de5226bc015a89c60c05791d7ac8b539ece7c02e9d432864189063b8077fd8e0780ce19506cddeb12929d82692251c405195",
        "lib\/Service\/RuleMatcher.php": "70e9238e74c4ed28fb3c69a7173e644b50423aed93f8e0fd6084e976a23611b6cec7530365be9120c9fbfcb24d9e10f89973bdc0551206bb136e41accabd7230",
        "lib\/Settings\/ASettings.php": "a00ba629f61ccd2539e004f6e164395a543863a93bb668f38c7c849e141d17fdaf1537523a9508b1f499fc5b05183a7e5b15186f773985c328336692c97a70aa",
        "lib\/Settings\/Admin.php": "f93ed9649d35a5c325863587569e7c7f574f41c9965691667f42d197a80df8785165c40a78c8ffdf5c316a8c9cf18f3beefdd31355630dac939d4fa9ff4e9959",
        "lib\/Settings\/Personal.php": "ee843c2720622060a0072cd21240a6ca7f6119ba1f0b9d36b58dafa43a727ddc9aedd596624547a140c9d68fa462094429cdd55202b31332b20e314aeeb3f6e0",
        "lib\/Settings\/Section.php": "9fdf4901c66441442fe01d3f2383abef4ee44b071b3d8f256143ef1987d6afffa958bf9f5d0428ff0f15986a7bd3eb987cc663d54116a3bc965480579f97f1e1",
        "templates\/settings.php": "2a208e9344776fa22604f06bc429e87f3d476c57cd3d02eace9a7cafdc8c75021ab439a628838a79171024b1742c30f9f4b4cecd27b0e4f9b9093f1efbdb5d2b"
    },
    "signature": "mq8IIebB\/fb4PUXlEPNUKm3VCTZZieWoHt0moV9Rg1AocKodUBXUiJzbA1Jp6s0JvJ18gywlPMn29q\/VtRzuPsgXggKxZUonqYVSt4GDE1PEoct4TUNMHRS9lH0EaLbmYDTqJk7IsD\/HHrdpG+q\/oOeqVPfs6T5GsaUTi7IryuxwOdZjPc4yw5UjG8MjX42mSE9fEAEU4pQwpx3ZPsoY1RqZ1HAyNcVJHl8T2lSShUcVu6x4wUWATwzG+llXk1bnJXDrLO6NcQtImWC1Qa7qMiVXjHkS6sEE+obUUfDjJ6SLCPsigeC\/4y1hg3kn\/9XnxwOVxHVOGF4We8Ad29AxLg==",
    "certificate": "-----BEGIN CERTIFICATE-----\r\nMIIEojCCA4qgAwIBAgICEAAwDQYJKoZIhvcNAQELBQAwezELMAkGA1UEBhMCREUx\r\nGzAZBgNVBAgMEkJhZGVuLVd1ZXJ0dGVtYmVyZzEXMBUGA1UECgwOTmV4dGNsb3Vk\r\nIEdtYkgxNjA0BgNVBAMMLU5leHRjbG91ZCBDb2RlIFNpZ25pbmcgSW50ZXJtZWRp\r\nYXRlIEF1dGhvcml0eTAeFw0xNjA2MTIyMTA1MDZaFw00MTA2MDYyMTA1MDZaMGYx\r\nCzAJBgNVBAYTAkRFMRswGQYDVQQIDBJCYWRlbi1XdWVydHRlbWJlcmcxEjAQBgNV\r\nBAcMCVN0dXR0Z2FydDEXMBUGA1UECgwOTmV4dGNsb3VkIEdtYkgxDTALBgNVBAMM\r\nBGNvcmUwggEiMA0GCSqGSIb3DQEBAQUAA4IBDwAwggEKAoIBAQDUxcrn2DC892IX\r\n8+dJjZVh9YeHF65n2ha886oeAizOuHBdWBfzqt+GoUYTOjqZF93HZMcwy0P+xyCf\r\nQqak5Ke9dybN06RXUuGP45k9UYBp03qzlUzCDalrkj+Jd30LqcSC1sjRTsfuhc+u\r\nvH1IBuBnf7SMUJUcoEffbmmpAPlEcLHxlUGlGnz0q1e8UFzjbEFj3JucMO4ys35F\r\nqZS4dhvCngQhRW3DaMlQLXEUL9k3kFV+BzlkPzVZEtSmk4HJujFCnZj1vMcjQBg\/\r\nBqq1HCmUB6tulnGcxUzt\/Z\/oSIgnuGyENeke077W3EyryINL7EIyD4Xp7sxLizTM\r\nFCFCjjH1AgMBAAGjggFDMIIBPzAJBgNVHRMEAjAAMBEGCWCGSAGG+EIBAQQEAwIG\r\nQDAzBglghkgBhvhCAQ0EJhYkT3BlblNTTCBHZW5lcmF0ZWQgU2VydmVyIENlcnRp\r\nZmljYXRlMB0GA1UdDgQWBBQwc1H9AL8pRlW2e5SLCfPPqtqc0DCBpQYDVR0jBIGd\r\nMIGagBRt6m6qqTcsPIktFz79Ru7DnnjtdKF+pHwwejELMAkGA1UEBhMCREUxGzAZ\r\nBgNVBAgMEkJhZGVuLVd1ZXJ0dGVtYmVyZzESMBAGA1UEBwwJU3R1dHRnYXJ0MRcw\r\nFQYDVQQKDA5OZXh0Y2xvdWQgR21iSDEhMB8GA1UEAwwYTmV4dGNsb3VkIFJvb3Qg\r\nQXV0aG9yaXR5ggIQADAOBgNVHQ8BAf8EBAMCBaAwEwYDVR0lBAwwCgYIKwYBBQUH\r\nAwEwDQYJKoZIhvcNAQELBQADggEBADZ6+HV\/+0NEH3nahTBFxO6nKyR\/VWigACH0\r\nnaV0ecTcoQwDjKDNNFr+4S1WlHdwITlnNabC7v9rZ\/6QvbkrOTuO9fOR6azp1EwW\r\n2pixWqj0Sb9\/dSIVRpSq+jpBE6JAiX44dSR7zoBxRB8DgVO2Afy0s80xEpr5JAzb\r\nNYuPS7M5UHdAv2dr16fDcDIvn+vk92KpNh1NTeZFjBbRVQ9DXrgkRGW34TK8uSLI\r\nYG6jnfJ6eJgTaO431ywWPXNg1mUMaT\/+QBOgB299QVCKQU+lcZWptQt+RdsJUm46\r\nNY\/nARy4Oi4uOe88SuWITj9KhrFmEvrUlgM8FvoXA1ldrR7KiEg=\r\n-----END CERTIFICATE-----"
}