{
    "hashes": {
        "3rdparty\/.gitignore": "cf3caeb83c457dd694cdf0e0d0b3ab618f7743cda33c3f5f5e59d2b201ff6fa5b024930a12a09d1e9c6bc938da96cce6dc1116151b13343d882a4659ca6d5bfd",
        "3rdparty\/autoload.php": "2f0278f8d334bd9b1cacc8c6e8480178aa46e2de4806fad8e54ec7bb5f7f3c725618f4c2f252b95a0f9d568cc26133392a5e800753e743d0e0e62ba5b2f9de4d",
        "3rdparty\/composer.json": "415ba73ddcc9b1d1fb346623801da610b402fb67e84eabdf05f107bc3ad7534ffa32e4b13fa6ee241b70db30a85d657d910241ec47218da579c6035fb2293be9",
        "3rdparty\/composer.lock": "e243509bd5ddc52672c3cdceec26db956db7f80e9869670561c3e628b51aec063af94f3528c2cdadbd244b014db10c9a52cb7d10273d3016894c75ca8edfc0f9",
        "3rdparty\/composer\/ClassLoader.php": "6d630ae5c62bd43ae490e02b0e1eab6f9a4b92364b617e0dbb4404ff11bc33db238568dcc3df9d8de616f191109853bf9d9a408030f1252fa7e420e5321227af",
        "3rdparty\/composer\/LICENSE": "f3bb64009f41a425df5a9bbab53490f0eb9b74fa8d6aaa2f57efb928edc4ffff330260666edeaa04a91fed708c3663371cf01b284f3a08d6698aaef7a23f355a",
        "3rdparty\/composer\/autoload_classmap.php": "b68362a4ae03ef8a995a1a26141dfb5ba75ed1e29f77b4976c7eb72ef82624e8a230c888431abf44797e6cd4ff295effe2b93da68f56eb1a09baf295b7517f8c",
        "3rdparty\/composer\/autoload_namespaces.php": "dd8ee31d2faa9014fe567e1f954b5e7f450cf06feacbb96d4df663c59b1a36a0b7d26ad41b46354bd14f282fa7899298137208d1851099cd3ada285650efd90f",
        "3rdparty\/composer\/autoload_psr4.php": "c896761f4ca68da0ccbeff43f78f2fbca2e70cb7697dbe3f884d6fc57de3f038ff9acecb2169e8f17dfe70de075f10d97dad16f2c43afeb34004e193201c5af5",
        "3rdparty\/composer\/autoload_real.php": "68b0f5fae45f3bcf3c26b69517e59b9f9244a85d42815262defd1357e2ff6459569f301e7655cf91f4c8627b655b2c1232f9cd2884cf79d4c8fa09a723f0d407",
        "3rdparty\/composer\/autoload_static.php": "517ea6d414300878d79c612035d3b93645fc81b2d493a1cc47e594b337f00cdf687f20aa8ff26bb3229572b64c56e957ab3809cc14841e20f62d7fe482b5aab6",
        "3rdparty\/composer\/installed.json": "1202358a9cbf8e3bf23d9c8e003adb74322e997ec7e9ce353a3d92762b946e09abf2570c681ea4fca02e55421e1f07d68a20515a1536a9a3989e436ce71509e0",
        "3rdparty\/icewind\/smb\/.gitignore": "0424e912b36759b9336c3ed99b682c475a60f3f379661918b926c3bf542aa353a2f44143fca5130cc5495c14cced352cf95da1ec8e44ce52f31ef6202a4c3486",
        "3rdparty\/icewind\/smb\/.php_cs.dist": "815c28056f1ef8e467f5d834973a38bbc6b143e3ea6ac89280582fb8d7786428e5583f2be44c01e04578d56321efbb4add0936b6152ea1d4aab2dfad74b4684c",
        "3rdparty\/icewind\/smb\/LICENSE.txt": "b4adb8e3a55a9fb884fd75685a23a47db77a088d0c1300b1bd58ae77d6b09faec63ba0e2a0bb4baf3c3a15973fc64a8d2d43e73dc136e0f65cfbd600355aefec",
        "3rdparty\/icewind\/smb\/README.md": "01a9303d87a5fce2785379263707e5978ddbe5870ab2366af19f46004b2eb73dcb051be72ede542b9e163e9babe3c5ec0a6142f6a721b5ddd0e5365e18448747",
        "3rdparty\/icewind\/smb\/composer.json": "199faaeebea0aa8720398af6ee33c9d2b34dbef61a02721561c162e38e1b83b1fde926bd843214172db9fff8fc5fc3d9ac187b3b2141cce81a6e93cfc36db02e",
        "3rdparty\/icewind\/smb\/src\/ACL.php": "935a8a08daca221818aff6e5bec02983eb9cf5e5e9530202e3483572d7dc99bcb10cf8b387f40b074c947a70346563a0f2055c3f433cf01e7f584cb99a630fb9",
        "3rdparty\/icewind\/smb\/src\/AbstractServer.php": "4548e65864a5e165c44439153153e65189ae7f4724b01a13e46a291b6570b3d13dff0861d94101bcf88a319bb69c0c2ae749aa5a690e16908a18b56f81e31db5",
        "3rdparty\/icewind\/smb\/src\/AbstractShare.php": "3d3cc63546118292ea02db7567c56f7f4d093bc3d07aa324fa83b7ef1f81a35c034f30d802460a7f37426409ea8d0e1d3f21615fe16ece9b9d26561cc23686c3",
        "3rdparty\/icewind\/smb\/src\/AnonymousAuth.php": "4094fa1dece8d7c1461718f16d3492e4adfc35ec29de25fc7efc2cd75ac7996fcf4637b23b15dd4bb98c071a4cb9e4710dfd62f6a6bdc88071c0d8426748a271",
        "3rdparty\/icewind\/smb\/src\/BasicAuth.php": "b20ff7fd00db20115e984fa4a1898e17e4ebdf078ec7144d2c2051bf9247d3529a56938b1363bca0ab83fed10d841e2b5335978fec772c99fa3636d430cfc789",
        "3rdparty\/icewind\/smb\/src\/Change.php": "7604b041718c76bad248597338b9f2c6ddcce79e76a68e7d8fdc642055e8b56d1685614da1015f9b89f48005cecfc340e11a52bec62d33be9c31f6f2c1979df7",
        "3rdparty\/icewind\/smb\/src\/Exception\/AccessDeniedException.php": "0df97f8beb93ed40cef79ac07cd85030be36995bc706a37e49b5ab0e2a7f86922bf5c2f67c3d7395930eb18fd3d5ff2c4bdc09983a7dbb19ebd1c07926e05b77",
        "3rdparty\/icewind\/smb\/src\/Exception\/AlreadyExistsException.php": "919c367752f84992afa610a4623efa365bc0aaacc4232e86f7e93f79b9a92601ccebf7e26423a56eb77c9a1f779ea65cae6082e1d82c5bd0cc6be04296a26a13",
        "3rdparty\/icewind\/smb\/src\/Exception\/AuthenticationException.php": "7f49330e63d98ec8fe8d23cff863b36c84afa380e88e6ce074604546f7a6f5402f9dfc3256a6289e4161cf984e46f4dd023c51e3650cae764715f9186dfcf8b0",
        "3rdparty\/icewind\/smb\/src\/Exception\/ConnectException.php": "d885b63b55b639983f711da74da28184740a59ec410a1f77fefb73bb78907615145b7d615b67ceca36f762edcf5895339a8ebad089ee74e9cadd6d7e14dbc441",
        "3rdparty\/icewind\/smb\/src\/Exception\/ConnectionAbortedException.php": "a9cbb93c94d2f29b97d7c335f15f43ce5da93ea5066a0bcef5563ec241942e33a93e6ba2706d1eedc7377f3b01ee3a1ae4e7204e6296b5d2558117e5dc1cdd7d",
        "3rdparty\/icewind\/smb\/src\/Exception\/ConnectionException.php": "b1d860c7411e64d43ae364d410ce472580153b066647ee5784993a138eb3092d02c2b55207a3160feb2e71d245ced17559b21f245228de1832589f318a08d960",
        "3rdparty\/icewind\/smb\/src\/Exception\/ConnectionRefusedException.php": "3e4d7670001463964f5e9357fc90bde8c653ccd1ce2de44c6adf03af79e4c9617ffea3b9b7402de277c3c4f3cf852b49d159266986a8b7ba84eae012b87df589",
        "3rdparty\/icewind\/smb\/src\/Exception\/ConnectionResetException.php": "71e3465453f206bce9bb1d98a7ce72129eb4d84cbf4fda9bfc094043afafa0c398065aeac48c3dc2834817ef35064e16bdea1b11be7d588696ce7835981a2ad7",
        "3rdparty\/icewind\/smb\/src\/Exception\/DependencyException.php": "f82d329912b5a06027e2eb5092bf96289a82944dc2cbb45df74ad07cba36ce0de175cb4e3bb50570fe5ea4a62054479b05cd8d159636c2624a5cc2f143f0f61b",
        "3rdparty\/icewind\/smb\/src\/Exception\/Exception.php": "d6cbf6656fa3034c55c6ac79ebd4270864581ffdf3994886c2676a02864b3b846e95fee4b2332dce3240bc8f81f415610672a2a98ee05a1196684689a0de2cfa",
        "3rdparty\/icewind\/smb\/src\/Exception\/FileInUseException.php": "444607b46bda7fe686e657097880dad928290281d0c98a44ff83c79794dcd396d87f6be787a44b66d71b1d39424fac8aad10ad539e1d62227a3cc226ef47d161",
        "3rdparty\/icewind\/smb\/src\/Exception\/ForbiddenException.php": "0331401ffc48bcc6218cfbae0997a678275e1fee9333d95d1033f9c6ecbea483524175d5ee4f0882531d3d2c504f87ba9ffa70326571a111b7ddec0ad053a532",
        "3rdparty\/icewind\/smb\/src\/Exception\/HostDownException.php": "6a57b02332534e9ccd8040e32e12422a7976039d1ad8225dfe534c5f52b54d4a0e78ff8e15fe5df9b8ba85c7ee565ca0968186acd4a5b21ff244d3bb831c9ab6",
        "3rdparty\/icewind\/smb\/src\/Exception\/InvalidArgumentException.php": "d17e6e1fdafc5c5256cb32df638c333573eaeae5b1f9e7d392e6e2403c3cce4f8808d7e8ee5921e70ddfc3af237e5959b4b8873c6e7787940ad930881278b33c",
        "3rdparty\/icewind\/smb\/src\/Exception\/InvalidHostException.php": "12322ac98bfdeb09051c3b92bba85b89e13c3ca65993a24778f36c52733aa93335e5b6a6f00c9a0855a7c99907f336b42539315750628831a1b0b2894e3a8c6f",
        "3rdparty\/icewind\/smb\/src\/Exception\/InvalidParameterException.php": "8f062fe939df690e7666ffd6318b8b251f0e16bc113459505d0add327cce2865c8dd06716bee164f1e449f49a3dea68caa6f04628051822abc7837ca975f5dc2",
        "3rdparty\/icewind\/smb\/src\/Exception\/InvalidPathException.php": "e72b302a736e6bc4df1a4fdc63e254f20654aef1b5717cd7e814e03ad91f6b24a0d505bbec512d79f02d668978e8fee861a2a499a1c7ab42f98013b14524cef8",
        "3rdparty\/icewind\/smb\/src\/Exception\/InvalidRequestException.php": "f2159aed66005f97efdc3428948756b64579f28fdb6844b41a344cd28c710e21b500369a98725860a544b972b51538f79a4ac7e7b110f9c3aa0bf07c12f91d51",
        "3rdparty\/icewind\/smb\/src\/Exception\/InvalidResourceException.php": "cdb6908b556f1b701871e2997870f1e7e1ae1fcff98bcb74511929a3544a7d372c24346286025d4bdf128d81268ebdb9fad794f4e3e66f12e782836502c87ee2",
        "3rdparty\/icewind\/smb\/src\/Exception\/InvalidTypeException.php": "08f113b2edff144a9478030efdd17d4c91ae92522a86f063c5cb488db8673b67ccd4070a83b0e73ae007c126f0d1df527edad94dea247ac9587f35be177ca549",
        "3rdparty\/icewind\/smb\/src\/Exception\/NoLoginServerException.php": "677d06905f87fc7d70c0c1a9b721ec8255e3c8d7d58f9a522d92478d2c7916626b023ce111c8ecfa93641be5d846ae8d2e4f9e3a1eba9a4a2fc4c84fe925dd82",
        "3rdparty\/icewind\/smb\/src\/Exception\/NoRouteToHostException.php": "94ff2852315b5d952f6ed4831d48e4e30d0c72d0e485a6f77a213180ff3653254ceb163120c32b577d3573a5665295807e72f063e97f0dc3a823b684550e2295",
        "3rdparty\/icewind\/smb\/src\/Exception\/NotEmptyException.php": "33828870aca45257ca3e5cd580c5ddd8652c643fda9949a3b032b37595cb019ded513ceb7322d379be78b09286d343659978133cd4915efd382bde2178c99ebc",
        "3rdparty\/icewind\/smb\/src\/Exception\/NotFoundException.php": "761c0f45d7bf3837c7fd047d9249ab0219dd8d39b8aba948bc1ee2f777fbe1e47f26ee715383ee6ed85128088759918e0f7c70b851cc33645f0f59f5dfcd7441",
        "3rdparty\/icewind\/smb\/src\/Exception\/OutOfSpaceException.php": "b1ce08dc92f1ccfb1d242b28c5a22ef0d7ae65c722b573171223ef3971716001b0c91f18bfcef0ea7b9c1997ad78ed8224abf7ee2d0a9a2853a125e4763a65b2",
        "3rdparty\/icewind\/smb\/src\/Exception\/RevisionMismatchException.php": "24f525e9dbbd9936f67f3d0ad7122e011344ec9f72fdc6794844d85217a2de5787f5e5dfa43f0e96bab52670f2ee000a5e53e480595c47114ab50d2f23d9d51a",
        "3rdparty\/icewind\/smb\/src\/Exception\/TimedOutException.php": "c7130e412790ea0fc313ff5c8f8ff02020e9f64a8a369b03af89b71b1f0396e68162c1599bcb8444c9e93d85395e3e0a758535ead1110e67fff6926a7388766b",
        "3rdparty\/icewind\/smb\/src\/IAuth.php": "90dd7b765c17a8e5f6adc4e499bd124cfab7329687a358795e2b765839c626721874dfc93942cf245df7e8df5916ec7020793d0b985b6703a55e463cb68dbc09",
        "3rdparty\/icewind\/smb\/src\/IFileInfo.php": "a76aadbd78bd8ac47f2a71af37fdc648e4a812d115285216861ed552ed51ab9068d3c1def59037b4907a25caccbcff280c87e7df369a2662b4ee05e70846e38f",
        "3rdparty\/icewind\/smb\/src\/INotifyHandler.php": "cb6c09175e954673cf2b04e3bd6a56658617603ad3fccabb47ccf4e7ee509ab023bfe13a331cf81044d65eaa68638ab5019188c5fd6aeb4092b1f84940fe27da",
        "3rdparty\/icewind\/smb\/src\/IOptions.php": "b677f21e928cd1fed50ca15d1d7573da1ed459d375d8c96aa18c365511d31da68c30a0ae2f767a29f994961cf8917c4ac81ca6e0a12b8f5539c41ea9439081f1",
        "3rdparty\/icewind\/smb\/src\/IServer.php": "01574c8364e5e59eba4d5331ec3d93867e3572afd0929a445622a6a8077583b9b1f4fe933bfbabf30ceaf9b1d64a0a76481cbf6694e04054a1683a96d29a7ee4",
        "3rdparty\/icewind\/smb\/src\/IShare.php": "c749de75495234788fb056b67fc33edd5bc9f9d085edfd290a871aa45df88c77590d01ce4e02843f1f7ec41f1ebccf738e43b27a62f76d560786c3a32dbcef6a",
        "3rdparty\/icewind\/smb\/src\/ISystem.php": "e64d2916c3547b640dc2ab8a475a5fe36ac375165a41ab267d7edfb2a60204bd103dc9c719e4094b3f03ed403b088161a3245aaa6ec86643254de8e27ff0dab9",
        "3rdparty\/icewind\/smb\/src\/ITimeZoneProvider.php": "cad9cd6edc4bff85dfe499e72cbf25e676f39ee47bea39462215a04f02499a9b1fa332669528e3ebfad32f9c64821574ef99f28abbaf58e6e0a977880f71f9e3",
        "3rdparty\/icewind\/smb\/src\/KerberosAuth.php": "5fdeea5965b7d141a1ce2f34799e5f394f25339f71570c2796d8a5f3426b391615d5ade3512a9a47e17dca3b9fff7c655cdfeb0e5b78c6544c63cd582ca77aa7",
        "3rdparty\/icewind\/smb\/src\/Native\/NativeFileInfo.php": "7291e65dabcd12f7b49ab90d21816a2bf49c6b28d6152d2250e23cfbdb410c5ce8d17308a7f299619177bf2e513ab7d917434dedb5c2f62b9e27f1af6bff5fdd",
        "3rdparty\/icewind\/smb\/src\/Native\/NativeReadStream.php": "da4774015a514b01f0f13579d32772aeafc7f10135119d84bc95a19b2c73b02cd194793b1d4cc8567b42ab43013475bfe276929da8eac13774cdb028fa9f2c9d",
        "3rdparty\/icewind\/smb\/src\/Native\/NativeServer.php": "4df47b99f80e09118b6236d0c85aff7e47f371ec8557c34387cbb2db72319fa636e01a904bb620d9adc6ae448b454ed15f130b83582ac9eb15b42a3a1e628449",
        "3rdparty\/icewind\/smb\/src\/Native\/NativeShare.php": "af16bb3b3748a1fc21bd8b89b5eaa7bf67d9bce7bf279c464ed76b39570baa424e9e48c3d42dcf29e5a2b9d85fb2e282c635b04b4c0c9b42a6454da592b62ecb",
        "3rdparty\/icewind\/smb\/src\/Native\/NativeState.php": "27b4baadc975581f77d3e348363ddc9db52a84d87a6d2e662646677978b006df89af827fa2b84d67c71110616e022ec52a463aa8c2846d934425a3e8bcda2774",
        "3rdparty\/icewind\/smb\/src\/Native\/NativeStream.php": "7abf2f162a5673ce99d3290b6085deb5fc91a5ca6f3189d762289b24a8a27aaadd8759f06d5070865f7f14c245cab44cd01826f20f820eaf895ce81f7e79bbd9",
        "3rdparty\/icewind\/smb\/src\/Native\/NativeWriteStream.php": "a0f97838cee2b94fb228bcd5e9c1821a32f25745413852f5c7871f505e4a0cef1ce2aadd381c25e58578b1f6cd4141a84bcf6509b0d042fab1307ea29ad44e66",
        "3rdparty\/icewind\/smb\/src\/Options.php": "2da521d4f42a23b462977955349d398adac50ac46e971b92635ae1c9609c46f2210928d705b12b0658b184d7d12373658749b02bfad7b8e9988e6205a4eaef08",
        "3rdparty\/icewind\/smb\/src\/ServerFactory.php": "be20ba44bfdb8047359c7977791119c333dcb74bd94fb4563d589bdedd073d61c3b06be16707573ec22e87c9ea858077ba07bf863bdf52b725e7618ca64d0c98",
        "3rdparty\/icewind\/smb\/src\/System.php": "95e8864f81f6a7f0c8802f07a0ae4c52e6dc0c29c6159b4fa3c088a359110c7f38dbb091195da2ceb22bbaf918d80dd704bcddb10c1c4d1dd6e332d5e4230432",
        "3rdparty\/icewind\/smb\/src\/TimeZoneProvider.php": "2229505eee7aff7e2b050aa0f483818914e9dd05732991266ab4586e0678b3e16bcdb83bcf080aca1a32e08ab753417fce1905a04c1b42ac91ac2f96c1d7ed1d",
        "3rdparty\/icewind\/smb\/src\/Wrapped\/Connection.php": "e55e3cfc9280dbdad14ca024ecd3d92fae7cea05265cb145bfbd2e6614dcb3cddd518bb13140072c1d3221d3d921a1deab5d593a4aa69448f8852185dd753708",
        "3rdparty\/icewind\/smb\/src\/Wrapped\/ErrorCodes.php": "f19130ce656c09d2f03b07d48e03dd3b50f8e6c018008c7472ec26e561492082ae6b5a9b47fa0ff78f5f41c192e7b21b16450914759fb0a6b074158699570240",
        "3rdparty\/icewind\/smb\/src\/Wrapped\/FileInfo.php": "cbdc65ef1a77795b9283e6fd921f400d08c250a1980752d978aa33e24910be34d82df00481ff1761a160037e44dfa61bf8c14f1dad4eb2f4852e83b523fe6f85",
        "3rdparty\/icewind\/smb\/src\/Wrapped\/NotifyHandler.php": "2a9f2749554f803a33c208c51ace8ccdf0fc9c0d0bedfa703041cf99154b0228618b7fc6b5cfd5d75ad4e4e42f00f06165cb862bb1563004eb99881177a3860f",
        "3rdparty\/icewind\/smb\/src\/Wrapped\/Parser.php": "13afceaba379f96480bb2d878230f30fc1851052f57a451642cc46028de72dafbad5fc596304721d830e9eef4d9a1fc92aad68a0911a57181353f7180b8b5487",
        "3rdparty\/icewind\/smb\/src\/Wrapped\/RawConnection.php": "55ec3e95571714a0cef6e21eac0f5805af5b96d7fb21f0f852fdece45414ec7f2e64d715a25a82e37574d565d3fb8251c2fcbf83a39ec7dc6baeb1fc12df9c04",
        "3rdparty\/icewind\/smb\/src\/Wrapped\/Server.php": "b5ecd1d29a1782e7cbd1007244d14c07c1ae8d512f39c060ef103e450a6e0582bb84e201eae0518d02c6ab61bdbb440c4213bf15d6bba98f464fb925ffb4fe1d",
        "3rdparty\/icewind\/smb\/src\/Wrapped\/Share.php": "2b163000a82cfa202023e60d7e0a8887bfbecce085831d73463b461a654de9e0a71069b6f7ee4d0fb5dff15054d2c205764311715957df43a43762c995f03cb7",
        "3rdparty\/icewind\/streams-dummy\/composer.json": "f0e448892b9e4a3b5909114cf699d42b2becd907b6d31134a2bc4755a885b3dd8ff7abeaf5c2245ccccd11016f06c0ba6da09e1f32592cece4685f3cfa3e1c45",
        "3rdparty\/icewind\/streams\/.gitignore": "baeb9111886481c4cd9576bf876176426e9c067b8a24de6f78b98b496ee3c2b375b3f941b2629f26a4ed771566f131c6daabbeefb9d65be49b8bd71bdaaef0aa",
        "3rdparty\/icewind\/streams\/.travis.yml": "84cdacc0dd4240a1f54ec307585849ad10fc9163b3bd2f0ba241b2b4f6f91d4c862b67c4c11f1f021eb49392d9a28f5eb9f2a1ef661a207b6c5c22160e1cfcbb",
        "3rdparty\/icewind\/streams\/LICENCE": "863fb36eecfe65472958fd3d137a503e21889f04e4e19860d72704cffc4fe55227c71cc414cb9d48194d3a342af01acda8cc3c1f58514c210f7e1396bfd43c2c",
        "3rdparty\/icewind\/streams\/README.md": "fabba1bbbdcf6d169d663a5d80c1e586cf9bea45ab4c97955570ae84f5f3059df4772da581a2dacdee2e69dd49acfd7c7fd78f66b2c0332517e957917e86e5a4",
        "3rdparty\/icewind\/streams\/composer.json": "af67fb3322fa4e2b5e73b45c74bfe3633c8d08550b96d6045432f8929699feb25a092333d5f650d32720c11169a08235d6d13fea7f8905b01741ae2a291f77fb",
        "3rdparty\/icewind\/streams\/src\/CallbackWrapper.php": "3a53f528025c2b486839f75e29c1a6edf2d234629fc548a82ec4bc915dd2fdb2f6c838844eedd0dabd694eb09e5888d1e47a9f83bc55733e362bcccb3fdda535",
        "3rdparty\/icewind\/streams\/src\/CountWrapper.php": "8bd5f8b750f6a323f9f945839ad9c73261427e0ebc3c4d4476941ccb14f23e1abe1cee1ac2486c34e7ae073db1dd44ea5c58431e12d1d41d12ff72466c654009",
        "3rdparty\/icewind\/streams\/src\/Directory.php": "ac2388909ed94e2db3df2b0acccb4d0136b8d6f6b3d5087b40c9d601dd1ec3761e83e488ac4c916cc838c2e4ada75a99b5e73e36e2d2fb0703d8f21dcb444011",
        "3rdparty\/icewind\/streams\/src\/DirectoryFilter.php": "6d927bc6597a91de70dee7e488c7530ce331d7a18ca68559cfb0e036006063b22559694c83200f7335e5b166fb83487bd85a6a44121f45792f3a15da26bb376f",
        "3rdparty\/icewind\/streams\/src\/DirectoryWrapper.php": "fab56240b611a22d8530da0179b0b563c0e24ccee636022d30ec68558fb029812012bf0e29d0b14783f81083fbbffa59766614bec01288808fbf18ee0f261bc9",
        "3rdparty\/icewind\/streams\/src\/File.php": "1428e99010fd3ec939255f505b6ea0c37b284c6882d663c1234982b0f6fe30afc263377bd2d81837ec9e6e0e121b4a27c09891a87d35be6d0dfc4f694e5fb9c1",
        "3rdparty\/icewind\/streams\/src\/IteratorDirectory.php": "d1557602b330009cc2120df8d102c50afae8c929c50a25809c574ad12059ce20e42955bf16f7c76d79475af749714f7d200dee1479007d6cdf25e37e69166f0b",
        "3rdparty\/icewind\/streams\/src\/NullWrapper.php": "828c3df028c83154eabef6b6235232679fcaf6bed262f7588c1024ec649af4e7dac4c1a80cae5130c7966fd448957f97760ab3bd6e2f26fb00b3e6ace29b9746",
        "3rdparty\/icewind\/streams\/src\/Path.php": "952f032d97a1be5771589288939b9444b0fad849933dd432d46d371a345a2d2a5a9d668e871514b124d74c24f7d62f37f3a3cb541b6c7450c1aa35228b107674",
        "3rdparty\/icewind\/streams\/src\/PathWrapper.php": "0a672ac56802acab916ac4bc6d15a28f1944510dda6b3dd7cc0de6cfd1d02446fd838bd85508068a3f1c5d00920a3acbfb4c7013e964da5a7bb1b9cd25aa9201",
        "3rdparty\/icewind\/streams\/src\/RetryWrapper.php": "4ce030f33ea1b72ce0b3604b6d01851eaa48582e586b322d51542a395a83f5d50787db7418cf47c697d9e23b88361a8007a7c54f9af4df8821e81d933aff011b",
        "3rdparty\/icewind\/streams\/src\/SeekableWrapper.php": "aebbf573646de8e3da93929c720e2158bf3e906118a8b291671b37c256bb691eef7ee11f11014d98a939d7d1e19708a32f2f2a847543cd2b77f34b192e32898c",
        "3rdparty\/icewind\/streams\/src\/Url.php": "87425f72a9be10a65ac89257eacc7aa4892640221976d467f25d29e38e6fe5a419ca469242890cc059403302ce1db87ef296bf3fb8e00e0fba7c06c7cf83ab74",
        "3rdparty\/icewind\/streams\/src\/UrlCallBack.php": "4faeb57c683c20b77f6d0dd5929ec029be7cab3a59f6586fdefea213aba50f96a810ae4265287ce7ed44acb85e919df492d3f99bcd018171d1b148ca405c7baa",
        "3rdparty\/icewind\/streams\/src\/Wrapper.php": "75fa6bc28d540ab66e8d53cbc0bc581dc95944ee6693b675699bf19c9c89defcd5b5a4c1ce78d85022380b49c6b76fa3d80707111696e47312daa1284ddcfbc5",
        "ajax\/applicable.php": "4b43e7fc782f8a63e23821d4b9d3f3808333c450d3e94fb3e20e8aa83e04e60893476ed8a6c4229305909a5542060d5177ce9b40fbacab62653618c14029186b",
        "ajax\/oauth2.php": "a120d7a31e3f65f37eb8565c6772434da1f435f82b4c673ead5902e732da0f5329ad683b61ec862ccb7f7f6a32b94680a41fbc7a0a080a9c7a0abd2a1dfb563e",
        "appinfo\/app.php": "db9e8ab89bae718c2f41092a078871a78785dbd886b552a4f4047e76c7ba163d2122513723ff6f2e44e093afed75ce5c584455548b114a33c80df34dc7561316",
        "appinfo\/info.xml": "b04e44daec6899d9c994aa6e19f0f461671dce4f348fabb812cfc6a1fde660e13760da3ce088fa29a32f6126802571f3b062e92050bd1b3e2fc2f649354f929a",
        "appinfo\/routes.php": "15de6e514a5185bb300314c126ace3403d1e6cea6bc5e51489ca09eff9269b3cf84cee2fab1fd5015b884e66610c84fec2dbe9724704564e7dd4c6d0a575946c",
        "css\/external.css": "9dfa09aea71495ceebba2cb02678902ebee2c2c4ed6846112d3dc9e667fcbd92433dd27b385ce4360067c650da8cf305c977fb7864d3a694447030ffdf4aaece",
        "css\/settings.scss": "a3d7d91c9b1c3f14722d9e56e0becdf56274981c36d416925ceb3da00603c8ede9ac83205f2781642d4befdb4da1061029e9d983e67ec584986a43fa9c5df56c",
        "img\/app-dark.svg": "834995353bd6192ca59492f42060cd884e2c33c38363d96704de15dc7538f007215181ed5de115d510028efe0b1b4027eb05ca1a593cd4fee101d0aeb324c942",
        "img\/app.svg": "8a2a255a487265b48ed5f327aee60049b5f89ea45fe37f0e577d78cddd3b1ae3d4afe38d779df5bedff9573b7f96e7cec8e671eef82b7225a49af432ed0a3135",
        "js\/app.js": "a8c3f9c153b7b7a855c41e43c933c67b7e3a0d04beec3ce9c174d9dbcae17a7553eb951242c535619229559419fb962ba48deda409faf27d78fa75ddcce716f6",
        "js\/mountsfilelist.js": "6651cc01d086e76b21b3114758242cee51d3e18a93362a7285f7cf4851de0ee74ebaa735287e9e93f91e7438a0f21531da48934c8e49a687b9baf133cc542928",
        "js\/oauth1.js": "dc55468552f25546066eb04405ee4d2c1c7e902e4858b40a62210b8e33813221985cf4afb0bf9d1abb592699711239767aace1cb920f93782efa0d8f792328e1",
        "js\/oauth2.js": "08f4fdd46f91239bc997b84adf09825565294552b1f2cda59620c43676d14563d16e44a52a3fe7db8fd8be4a3125219d1972649b76f7e58ceb6ec8b2eb460009",
        "js\/public_key.js": "b45300c804b4c632b7b7f43a52ea7b3d3e92859af1c07ca018bb8dec9cb23db350a8797df1e2e291aa23449cdc4e10baa09f12d193c0dd72d1b32dabe0162472",
        "js\/rollingqueue.js": "08877347837729c96846ae515a2774032709beb16765632e89fa147a28205b8f704564aedba27e2c6594581fb30f7c834c312100a22d1b9ae442a15c9151c37e",
        "js\/settings.js": "a445837d7494898943468dbb3138671dd5c0744ad80057e80b8a24a3e046fc69dd7d0ce426082308aa8ff13298a05c0c692d2a7b8f10ddf22b9f30926f607dfb",
        "js\/statusmanager.js": "c90d14a3c05dd40270f946f60553370137753caa14dc757277c6196993ebaacf6218a446403a9f6bbb87e3781b3124e389d8d021cb7e77e262f725c2246ca702",
        "js\/templates.js": "8e9e452dfc4650f7bfae4e1f81e10bc1d98d6325aa8647c1d98ff29c23b970425365d09b9d0564de38fcabf54e65d61e01dd6b765a3bfde8dce3b6e68e17284d",
        "js\/templates\/credentialsDialog.handlebars": "d0a792564012b6675b24b4587b61e73a2138d3f7d862ff383986a1a484d01f2a392a6372171176dc983a65f5070cf27a404d1321283486b51925df8aaae04e6d",
        "js\/templates\/mountOptionsDropDown.handlebars": "a20a3996673005d17123aa929d4fdb4c9e43abf999d10e34f5eb3bd96a057f1ac2ac87f55cfafa9a4b1d7c57860fe4758be02f14edb8d771b8ef7e9e5f35cbac",
        "l10n\/af_ZA.js": "8769a97813c3c5209f07a225109c4294dbf74f35a3d658c0c6625bad004ce4c1637da752dac1725ec2e7e7e03c69949096342cec863890a8482d948c32b834c2",
        "l10n\/af_ZA.json": "bc46563eeed1a69eb1b3e7e3d7482353e179c3aa60dc9881338b48e7263c9ba3fb03c2261eb74adbebd6ddf4f03c78db4b27e9089d3541d14f6cd532f7bb2e09",
        "l10n\/ar.js": "1f67abc99f7bc83cba85bff006e2732881304122cff12db8f8ef2ed4698557c6e621cd20768b9f67fa7cdb8cba9ed64100c19f38c631fe8da49bffde6391db9e",
        "l10n\/ar.json": "44839f406e932804d8ff4ec6483d88adb4d363b98e444a9d3adf10f7764faf7e904abcdb0f685e99cafce7264be0463759a816f73cfca433e28c01bdb145dad4",
        "l10n\/ast.js": "4e97d773bad9335c3053dca2e7c37cc0165fafa11e829eb4918a182ee26f958c0218e02ca0bac7fce93ea3b932e4eadcda00afe7728f60eb49096635117f74df",
        "l10n\/ast.json": "546366e076d629d91df9a2096d8561b853007e2ac52d36e827807eff7a3386a80e009c7a8913e93a36794d4ed14c213d5081c140f8e07a7e0d13a22d4ad0438c",
        "l10n\/az.js": "801130277d5a684e2ce4cb9234287a302a181bf7e10e29b5a5a2d1e0f7a33949a759c9989c45e0140c4a62d9b6a60d616c0a42aa33d6be17c83693f1852207fc",
        "l10n\/az.json": "b1d41df039cc6110caf8561515111a5c516361237e27f1bba656367183f86b9966e8df8e5d0be79b79222d8fd9f9aab112b92fc8a5e2bc20e43fb18c6038f99f",
        "l10n\/bg.js": "ec0646bd2cfdc247c2165db6c1583eed7d4edaff92243b958ca6d905a13f9126a9a44585394169d3a96cced5b628f48f50f89c412837fb186783a5d8b7621175",
        "l10n\/bg.json": "4a841966e069dbb9c207edf38a29f62edde9fcc08ae21983f611a297ec1e02cfb709de24945444822bdd3318c2a1fc81f20138f843a316aa9cc89bd84bf77130",
        "l10n\/bg_BG.js": "3e08ef3f2c4e1f9708a41672bee0c2cc93d984ea365d87c9d4f0afd7716d21de9aaac643c65e67e2b5ff5d5b96bfcfc6b133fa1bebfe9cf661833649f05fc915",
        "l10n\/bg_BG.json": "7ae6a02b2d83f4371775ce19a6c83d9fd4a46f5b86ccae12a824c2d9223f1e74205a6204cca36ff28a3664929160d68eae338551412825ce7b2e28eec7bad589",
        "l10n\/bn_BD.js": "94528e5b1f2ef0ab0d0405ae162e4050615eabfbb6830fa2de4fefd5a7ace43364565cfabd8470e53bacbfad2e0fcb0848c57800eb7e82704c57faa39f1e19ca",
        "l10n\/bn_BD.json": "80430723cf379402db1b0ae3799e21fdf1c7c6fc0a2ede8ae9a35eed0e94107ce6352689ac9076d5bd3c103e3c5382bce1dc81efb0b687da3c92049fbb09f01e",
        "l10n\/bn_IN.js": "317100d807a12edaf40c4402cb38200c9fd42f78bbe07214e1dbcf1c44d2c565cab08c5b4975160b4d86bb0b7c64cabece7b7d21b4a7b63cf211a1a5285873ef",
        "l10n\/bn_IN.json": "8bb454aa60597698063a026f76dd9f480b72594c78ee0e94771e326319867d29d1a160682c9d3fd40e95f828b09487328b81ab4f23f59fb67ca0d208882d5fcb",
        "l10n\/bs.js": "c0ddee83e2ef3c2802b798d5157d7d89df37d97c63a28f916e2db4a4a10c8f1aca7f5517bbf29f50acba99ebcb848ef894a1c1f86e5439089a41372e9f7dc9aa",
        "l10n\/bs.json": "38f26dc7c6e32e7ba5b16ffc1928becc63e85e03ffee984222ac22847f425542734b6a40301884a8f8916524eff6eaf476a41e40d4cd73d356a4769cd67ba546",
        "l10n\/ca.js": "9096bd7e0796482c6e87e7a9c73a836559c04df12604ccc189f52e0161ed240e7a14d0dfe3bf1d9ae46220c1201dbbd948a6f8d637b3c5742c9f072c7dad6ce7",
        "l10n\/ca.json": "f5b7355517e0a1f54a4b8a7b51269aa8073b6baca5cf9ea7a8551670a480b335b8ca07b593a6f34db428feaa6dfce0d14a7e32c1b71c580d67d3268f204c5f5c",
        "l10n\/cs.js": "75c0e324784af661365ea695d8fbcda2316c825787b72fe4f885afc29113319a82940f9ecd154d51cb21d7acd0af545e56e21948ad71e556fa1ed1974e34968d",
        "l10n\/cs.json": "e407e92a11c4554b319056a0d7f2bf72e3a08382f01885c45cfe083471e65bbd018ededbf0f01c624bfd7b201b6f3f9aef29f76a51eec6999c8a873d41dc62b4",
        "l10n\/cs_CZ.js": "a1f111d9bf3c6544b29448e76903bf7f71b2e3ab28df51462e387bb3fa2a978374d98f427e8c527bfcaea98ef56b35fac5dbe76b6ba249cb64a8044fa98f3715",
        "l10n\/cs_CZ.json": "00d380ff597f3a8f9a30417f85257d5950ea9a3f0c153d7386aba2405719696bc22b2d858b3483855a3c0f64e32993c2d35b01cbde33e8e437eeecd0e372d71e",
        "l10n\/cy_GB.js": "857f9ca36c06e55645d7da758ae752a9420b42a06d253e4da036af3562c4cde6468d90739590761642eb66f95f8bf2f6ace19ace1d260b9de4f6c0be2b1486a7",
        "l10n\/cy_GB.json": "1ec3ce7247a659eeae9cefa5c6f3eaa0f8883dc61a3143107aa4aa62c5b90a5ba74690b8921d7fc06962bc5e0b860675ad45e467195634572cc5dfc52da20827",
        "l10n\/da.js": "42e5013f6ad8ab45760093268684e583659c433f1a6d342e12943157f898d41478aa28de245f69d34db34bbf45fca4e5664400f6a7820885151b8bf4555b4871",
        "l10n\/da.json": "0e674ebd0a0346ea4ae5a7851a1315d19680bdc033139992cdd9c8fbb5a613cd6b372b3b93c51ba47f9b5d743816aea6d148c97e2ec1cda3ca3d9383843bee37",
        "l10n\/de.js": "112357ba1fd59e5d6217c576be50bc5e002b7bcabb3de30867b962c7ee678143572e27f793f4c3a87d3187b0cd9030b7cf2c022a2aa214a8d34f1648b98b9e40",
        "l10n\/de.json": "95f654fab3ad42f93c7712a97477da7172f4e7c97c59b13834bf92a13af80e107d068eecae1d3d1bd9d2f19957ce99cd5f313f9a340fec14f5755b3bdd7aaeaf",
        "l10n\/de_AT.js": "dc9d636268b715ecbdaba3fbf056f001291f0803441f6b7e653d0d5783afef304b5d98381a0ff725467f4d412d75f51951ac2024e3f8489165da65bfb9425f3d",
        "l10n\/de_AT.json": "b36bcf8ac73ddafe7199c6367eede1226ad708674089c1330a396d0ae2615ca79f5a5b64a81ae3dfc7bf5a3e7ce6d485787c0f1861757ed3f77acb0b755431e6",
        "l10n\/de_DE.js": "a738374eaa5496a74156ff63cba0989238a7efcb63278144f087866cb31e7693f56a3bc38b5e0d987602612dacf4604f05b889286934a8ccda6cf76382d708b4",
        "l10n\/de_DE.json": "27f0bdd58333a7f83a52623fdcb5ad7907ad4f6c1412558b9901f8eecc580fb5f219408acace5b51763191f3c832ce2bb8090ed3b605008291fa948545f853d1",
        "l10n\/el.js": "842ccc5796fad4656df1f1142d09f711cf115c985a43d1b74733b47f09c12ba386669c36552a47a242584b7ec8e6d266fb875d65ab6a2a42bf2de2763be16b97",
        "l10n\/el.json": "3980d0374dc224cc52b1df63d69e910ba8c0a6881b53f803ecb9cc302b0d3afaa2d57bdc5c3beeaa17b57ff7c45e5d787dcc6402899f0ba3f6909260b68c1794",
        "l10n\/en_GB.js": "54944d50a0f1616db1e234a5ef94e4b649d2c1e74e6724435c16ec6ce1f64b60f8cc727cb8ee6c0bc66065c8bc750fe4a3bb62264524326a0fe821ea238d9434",
        "l10n\/en_GB.json": "2ab6165ee33357c0b24ce24862b75ae3cc063c42a8cee0432d3f99b25665c98bbba3fc102946d6a70f0d9a6b9c386083865390378153989b0ebbaae06db6b6eb",
        "l10n\/eo.js": "3fc1334dd8f0cc134f3904b90ac7fa2ed2b443af271cc25b79d38cfdfca7703f5174bd90b04055f386486352213207cb15b96eaec07990062a9e95a5252d9f26",
        "l10n\/eo.json": "d05edbcf217a25a9881dba06a8ad728b49049791499bd994736b2ba2ab7060b2dc369dfc25e68f6defbecfb09bf6fa67fa5d99ee5d261bef79b6c23515350732",
        "l10n\/es.js": "6849a88f1acfeede74c376d25d241a6b9ae0597a68564aa73e2e469c4545688ac644e40dd77aee4a6b6ebdd3f8ba91c2b4d2d1ad97451abbf3f183effde4f86b",
        "l10n\/es.json": "7636e0749e4c89750edb78102ba3ad2518cf0a4aa46e80168f4f6c87c14f56fc0610152eacc3b175c1db454add1fca187ccaef26836de5dda8b66efe123229c3",
        "l10n\/es_419.js": "93828005ff61fbb0382bfaa6f79d5e33c75b4519c7fe76e5a83c8fce6bb9c1848eee8bd088dcaec75bcc8502bde21ca83db304631d21739cd8898c33cf80cc18",
        "l10n\/es_419.json": "904dfb1a688c830d12f7c985b1412d155ee4676adf87b10660c99a0a7073ab0bd456dbf8b7b2e924bf3a1f31f57560c9a5b4e39166f2163b4bb5d6598f6d9ade",
        "l10n\/es_AR.js": "b82ed2fb06ed06d25733f696a924ef400b4db3530fb9d06ec31d7d6eea3f4c785edf3bb954d30e8836f1e3375649d50788b1b45f6add56f44a47fff633e724b6",
        "l10n\/es_AR.json": "a4f5a1e0a739e4f8a007100f2826abec849b6183d5871056892f84f9831c271c78363eae1e99cb1aa05efc25c375cc00067af2a0755ea3f3eefaa4702f75ee33",
        "l10n\/es_CL.js": "11f5a21e9285b358236e661e3763f857694e69cb2c58d767fa75e7b55e459c1d323bb6985034fcaf3100ac4bbacd3a75112464adefca42c2df268868142db73c",
        "l10n\/es_CL.json": "d5d09637d875c60b6d990414875e6f241077e1c668a6e63fece5a89d9ee42ae6bc6366a649a989bf3481e4f13ed9a5cda72803b1c486fe2377d174500e0782f5",
        "l10n\/es_CO.js": "11f5a21e9285b358236e661e3763f857694e69cb2c58d767fa75e7b55e459c1d323bb6985034fcaf3100ac4bbacd3a75112464adefca42c2df268868142db73c",
        "l10n\/es_CO.json": "d5d09637d875c60b6d990414875e6f241077e1c668a6e63fece5a89d9ee42ae6bc6366a649a989bf3481e4f13ed9a5cda72803b1c486fe2377d174500e0782f5",
        "l10n\/es_CR.js": "11f5a21e9285b358236e661e3763f857694e69cb2c58d767fa75e7b55e459c1d323bb6985034fcaf3100ac4bbacd3a75112464adefca42c2df268868142db73c",
        "l10n\/es_CR.json": "d5d09637d875c60b6d990414875e6f241077e1c668a6e63fece5a89d9ee42ae6bc6366a649a989bf3481e4f13ed9a5cda72803b1c486fe2377d174500e0782f5",
        "l10n\/es_DO.js": "11f5a21e9285b358236e661e3763f857694e69cb2c58d767fa75e7b55e459c1d323bb6985034fcaf3100ac4bbacd3a75112464adefca42c2df268868142db73c",
        "l10n\/es_DO.json": "d5d09637d875c60b6d990414875e6f241077e1c668a6e63fece5a89d9ee42ae6bc6366a649a989bf3481e4f13ed9a5cda72803b1c486fe2377d174500e0782f5",
        "l10n\/es_EC.js": "11f5a21e9285b358236e661e3763f857694e69cb2c58d767fa75e7b55e459c1d323bb6985034fcaf3100ac4bbacd3a75112464adefca42c2df268868142db73c",
        "l10n\/es_EC.json": "d5d09637d875c60b6d990414875e6f241077e1c668a6e63fece5a89d9ee42ae6bc6366a649a989bf3481e4f13ed9a5cda72803b1c486fe2377d174500e0782f5",
        "l10n\/es_GT.js": "11f5a21e9285b358236e661e3763f857694e69cb2c58d767fa75e7b55e459c1d323bb6985034fcaf3100ac4bbacd3a75112464adefca42c2df268868142db73c",
        "l10n\/es_GT.json": "d5d09637d875c60b6d990414875e6f241077e1c668a6e63fece5a89d9ee42ae6bc6366a649a989bf3481e4f13ed9a5cda72803b1c486fe2377d174500e0782f5",
        "l10n\/es_HN.js": "ed384047a3ce7369472d011a784e31e4036acd9a029d215cadb3e75da3a02a4a17a57b3514ceffdb2f3b1babbd654c5562a777980a2efd56669e31315cf03ece",
        "l10n\/es_HN.json": "e6f59b2e11aa3016e60fcf8463dad5278470ae4adef1831da2c5f5bdcf67087f1c02558d5fdcfa5916b200511c650c02be9fe491100b5cc1061d67c804b33695",
        "l10n\/es_MX.js": "197ec8bd860ae61c4a9fa3f248dba3e4dc278e1462cd0ebdb89a2b098b0b85f9535b85b8737f95c7886b5132b028906387059e9ad533ed09855c5b6e770b40b1",
        "l10n\/es_MX.json": "ea6548796fcb480933410a4e4bdb32b5f833b518922f6650161210234f12449f25ab2a2eca37813f2a6b9f3cba0a71cbd9105c5237ccfbdeef2d11adfa254e5b",
        "l10n\/es_NI.js": "ed384047a3ce7369472d011a784e31e4036acd9a029d215cadb3e75da3a02a4a17a57b3514ceffdb2f3b1babbd654c5562a777980a2efd56669e31315cf03ece",
        "l10n\/es_NI.json": "e6f59b2e11aa3016e60fcf8463dad5278470ae4adef1831da2c5f5bdcf67087f1c02558d5fdcfa5916b200511c650c02be9fe491100b5cc1061d67c804b33695",
        "l10n\/es_PA.js": "ed384047a3ce7369472d011a784e31e4036acd9a029d215cadb3e75da3a02a4a17a57b3514ceffdb2f3b1babbd654c5562a777980a2efd56669e31315cf03ece",
        "l10n\/es_PA.json": "e6f59b2e11aa3016e60fcf8463dad5278470ae4adef1831da2c5f5bdcf67087f1c02558d5fdcfa5916b200511c650c02be9fe491100b5cc1061d67c804b33695",
        "l10n\/es_PE.js": "ed384047a3ce7369472d011a784e31e4036acd9a029d215cadb3e75da3a02a4a17a57b3514ceffdb2f3b1babbd654c5562a777980a2efd56669e31315cf03ece",
        "l10n\/es_PE.json": "e6f59b2e11aa3016e60fcf8463dad5278470ae4adef1831da2c5f5bdcf67087f1c02558d5fdcfa5916b200511c650c02be9fe491100b5cc1061d67c804b33695",
        "l10n\/es_PR.js": "ed384047a3ce7369472d011a784e31e4036acd9a029d215cadb3e75da3a02a4a17a57b3514ceffdb2f3b1babbd654c5562a777980a2efd56669e31315cf03ece",
        "l10n\/es_PR.json": "e6f59b2e11aa3016e60fcf8463dad5278470ae4adef1831da2c5f5bdcf67087f1c02558d5fdcfa5916b200511c650c02be9fe491100b5cc1061d67c804b33695",
        "l10n\/es_PY.js": "ed384047a3ce7369472d011a784e31e4036acd9a029d215cadb3e75da3a02a4a17a57b3514ceffdb2f3b1babbd654c5562a777980a2efd56669e31315cf03ece",
        "l10n\/es_PY.json": "e6f59b2e11aa3016e60fcf8463dad5278470ae4adef1831da2c5f5bdcf67087f1c02558d5fdcfa5916b200511c650c02be9fe491100b5cc1061d67c804b33695",
        "l10n\/es_SV.js": "11f5a21e9285b358236e661e3763f857694e69cb2c58d767fa75e7b55e459c1d323bb6985034fcaf3100ac4bbacd3a75112464adefca42c2df268868142db73c",
        "l10n\/es_SV.json": "d5d09637d875c60b6d990414875e6f241077e1c668a6e63fece5a89d9ee42ae6bc6366a649a989bf3481e4f13ed9a5cda72803b1c486fe2377d174500e0782f5",
        "l10n\/es_UY.js": "ed384047a3ce7369472d011a784e31e4036acd9a029d215cadb3e75da3a02a4a17a57b3514ceffdb2f3b1babbd654c5562a777980a2efd56669e31315cf03ece",
        "l10n\/es_UY.json": "e6f59b2e11aa3016e60fcf8463dad5278470ae4adef1831da2c5f5bdcf67087f1c02558d5fdcfa5916b200511c650c02be9fe491100b5cc1061d67c804b33695",
        "l10n\/et_EE.js": "a70e85225482bea364916c744b917f0bf6f4f47cbb8eb24b162c8a954846546fa7ed0d673d10d8c6c399f182d8d66395c54ebef029b207413863b636647b487a",
        "l10n\/et_EE.json": "627631ed7eac91036fbf74f3f36b2171256b0d810ebe2dc4fbc10355f9e3ef0ab0cb4501d7bc52cc23a238e9f0375b03dcbdfd10b61bbad97ca1071ebb4ccdb1",
        "l10n\/eu.js": "eea227377f02b0f8d43633dd6192ff5490c4400e79e03da627d8ea71fbf1cbfaf9750c5dd7ae3c89826acf85bbac91364e49a9156ec6b4f1294006ba6ff330eb",
        "l10n\/eu.json": "cf794b1aa190575f2ca6e42fdc23cea52adae6d0d83acd3a128b14c4a6a7dc8fcaa533392ca13e941a37480cab3ffe0c7afec2bcf9c19749a4599bf503a3e040",
        "l10n\/fa.js": "bf165d345ecbf54665cec5ff502a8ce3c719095db67da046eecc944c649884b8be2af2a6ce2f333c779a727b9376cd90908fba903a56b6e1e2e741b9cb05b1c6",
        "l10n\/fa.json": "7553b40da96abab579e8ea5bf2876fd583cdf396f986cf0fb56fc4844dd5edb7237d468c6531f39a8a55472c741f56486ec7ce27e2e61b4e39d456fafc777d4b",
        "l10n\/fi.js": "76809678cde9bc32d177c04cad0b9fbd6021e200abc4240287dcb1be9486d1fb06bd0df68862dd48a6af49cfff01d351325ba96c9a2751cced67137d3a278ac5",
        "l10n\/fi.json": "9080b9e1122f74a0850346d2620eaae2bd51597461bd65a7bcd43b81c0c3b486f24d39be760f11e71857e9d406fd0d5dfefeedf9efc3afff9d8218c418915469",
        "l10n\/fi_FI.js": "209c9849562fc9b9cceb86e30b6869bb19986a039bfdfd98fbe97e330865ffc17ab3fb54d2222a49d8e111c50ed5bff908ddc9e93d61ed047687042f8eb4ae63",
        "l10n\/fi_FI.json": "06a7ce74dc661b00846f86d6cf3c50698205878d08c8e3a331fe99be4da478ea04b7620a172db6b7da95990b40e846ec7dd7b62bec8e3e4f16e88a46e9da61e9",
        "l10n\/fil.js": "9da0ff5123e5266da20262f65af9e4ba6435a808f63ff30d12aef754bf63f663ed506bc876af47341e59ff7ce53cd84ec608b170aa98a0ddef0ccb539119d324",
        "l10n\/fil.json": "117c87d99bf3411beb581cbc7e566bd748910206d41263e17dc1b51aef0df1347ea12ba91a4a6d0a5c4d8be0d57724e79f5ecbdac01a13d146965e266c985a2a",
        "l10n\/fr.js": "4ab4ecb3c38ff9c8a2ce79e5bf70c37bbf8fd6d49f1531077be683df6db0a9516dfaa0cdf2e573ca2e122991160bdfede34003b0a21e04ba4b36609673ad99e2",
        "l10n\/fr.json": "3db232d4ab1cc5c5a2a234f5f2c623cab549f2844496e8dbc7c7c975098b533506b1b6b4b72279f86509e17850d7f17806c18e647c3acab7f94c1ce3494d1578",
        "l10n\/gl.js": "f29adb29be79ca262d7b341658092dc2c585f7d1cec84736739824ed00c556a51fbb8e9706a913b6c4d258df56146d37bc65cfc355175656a72af3b10f24061f",
        "l10n\/gl.json": "14289c2ca3d4d8715e3bda411e919667b50ccd2353d44d967c7c57434a4e6d5d91b565b12462415bb87b0a6d412e303954ef1143df306c6f756ee40f12c14033",
        "l10n\/he.js": "0701cbb11ed8212c0b383dba530c37a3ec7e810d2cde3a3f05aa26cd0a95a972165cc7a8b926c3373649a0b1422b2c8a43c095f24559956858641659614e84a2",
        "l10n\/he.json": "06cc93def8d7bf1aabf4097f72ed989875030e5c00a1e561c4f3701401fdcd249fda0abcda561791f547c15add7176ca50264ad5b79184b1d78ddee10c307883",
        "l10n\/hi.js": "f2a02dae98706820961d40a9b6db2e0148ac73bed4673c44b88aaf7b8f098fe4799547c3f371021695bf3c580f3dbab13fc9bebbe4b910a6ee71816ece864d7d",
        "l10n\/hi.json": "581cf9c151c04902263491761e48f524b06cd4e24879b52d330140bbc8aa6d59022764bec3f976c40887748a2bd5c4eb7727ebd5ae305d845f0e1dfef3ef570f",
        "l10n\/hr.js": "5bb2ac86d04f92ca4b8e54862a187a4855c3b4f4057b00e2160833de66e6a41fbce33bf5b79f5281a192d6b1a721f9841f576ca49d88461abaad9c69cceb389e",
        "l10n\/hr.json": "149be72e9c28cd51046a55341a0873a9048cdf89ac03f1886feaff1166b1a34d9fdb6b12520371a53255669a9df8cc9ad0c4a392bb167e184eef0b50c7790a30",
        "l10n\/hu.js": "444dfd76302f5433a88d0cb14de1d493f5b7e69f92da2e7de595f62338d5ffe9d6f9f085c57e2875d4e49454b0706d353fd14673d03c6e422160face2f9d3fd4",
        "l10n\/hu.json": "5966b0c7258ee674e040d9bad3a874e2564c2c30b6d13ee55e516dbfcae15af4b8b1c6c0de1d029b43163d696657af9d65079a16eae6834c6690374a99a21172",
        "l10n\/hu_HU.js": "a685bcb33e174df858a8ba6d65e1f0cc9df8e03baf05297b20967067052420b61995123b65e4182574146c6a355b4fa0bec19fd4877c26d992e814c571dfd293",
        "l10n\/hu_HU.json": "d629036d6e063c43c2f0a49ed6a2164dff3fbdd42995b51463128cf475a4cd1fb2bec5a6db27dc5ab90f371a1cbb3799fbaca92eae742e4a4d4526cae9ec2003",
        "l10n\/hy.js": "dcea4e77320c681416f64be29979a505e952833a636d49ee460de255d77329d6ad17662764fcc88497864b0ab8096198ced09fd4b1cbb26628bb7969dc35d7c9",
        "l10n\/hy.json": "0fd9e628a8ececb994de16ea50a5c0955a7f43f14a56c768c772ea648d12e91f7369dba70f6dd345862099dd43005dab96f1523e8a513c2b34a7816a23c75196",
        "l10n\/ia.js": "018ee1e72fe4b6e6497d2e2303135715cb29cc664e7b12974005cac04965d848b1aad09f1bf4add9082525dde30612862226da2bd86c5cf4f8a9819446b37d17",
        "l10n\/ia.json": "49c322bb61811bf9638bfa371f96afd3b9f47276ad639461159922dd13cf53788c973ac8e6903c26c9a9dc1e1003af4da9e2a84d8d8079ffcbc30f406d034fee",
        "l10n\/id.js": "084d3fcc006c930a02c6fdef044a0a9f6f554d1812ddeb49e6b2c952487da376dc2055569e520a66bebc4499d77d10330eea8d1c876f61d499b21f640735a683",
        "l10n\/id.json": "44c17467379fd81bd4be4350fdf92c4b668325860350deb6b7abd1a00cb0b805fc6d6827800a7873b5b1ed0d4d8aad82a5ca4d1c89a7fac20f8d470ec3f4abc0",
        "l10n\/is.js": "2493a944f9b8afc356b063a56b59e732bbb64eb7f707cdf1f9de34207a4f8a7c7ed39daf978d58381488c6c984d395056432424e7c0e14811787158975b5de2d",
        "l10n\/is.json": "b732bb8af93990ed504b4f28cd93d28f94bea405b5b4c77777edf9bc382826c11515ec6966bf80e3101d6e422e9f02b34e4015fd57c6fef2785fe09b1ba7d9e2",
        "l10n\/it.js": "7783b332b31b05196125475077694d52b9dbc0965d5cb13538047468a747d659d93338b7df63a1dd40d12f1fa64a02f37749aab3a77ba62265b6d7bdd2d03016",
        "l10n\/it.json": "832043303b6cf70c611ff1630f23b75994554f400d64887f1a40bd22f8dc9ccfbe17c5eda0460eaa1a9d89d282ec1affecc44afbeb2d615e6a34feb8ce321f4a",
        "l10n\/ja.js": "6186877cd4054e0695fee986d9adc6d377e63ed4d744635d1067db847f887bda74a8ac4351e918b0831a889ec1b38472c2fe0cf2ee35b83220c39290811933d9",
        "l10n\/ja.json": "2894e56a299c88cd325bb3ae276e97298f2c88b9ed4ec859d123f6f14f06f00aa84a94f03480d416c599941d7992a7ed835daff526e0d832a02a8cde869f740a",
        "l10n\/jv.js": "8c19efb72d9944b39d14d5081d847e4fb3e8dadc0ac500de39c72e639fc1a26a10e5b223009e81060edc4d7280874fcbd83bc3f875c851086beb08894feb5225",
        "l10n\/jv.json": "f069854c788740919884f24bdfddb462f3366fa7d48508a7ed11d386de40c9315d6b1f088d2d752c17115647ddb12e6f718cc71c69bf637c753e5dba109c9d06",
        "l10n\/ka_GE.js": "085bc453df7bdd6081946a9dc8cbebf0577b4fb949ccf9053b87d8f9f2c60fcde4d6a6432794b3b83149e898c8595a0ca6adad2e03f26f7698c0d94bf767ff7e",
        "l10n\/ka_GE.json": "22d93ac3c2a4ad03def8e54b977f51c2a6c62350280ef4c27a5fb5eff695cf79ef1ea7373ad3b160823addd1d2204eb4c6565fce0bfbe4a021987926393cc27c",
        "l10n\/km.js": "da7e6f254be03c0b69bb1c07620d7c2a5672725712942a7276def0275c67509ec8189dea4c06cbc2dcff3573c76bd90ceb6ebd6152ef2cdc41a535098142a636",
        "l10n\/km.json": "be7032420349708e53d6324d4ba5a22e681f23bb1ae645faf46044db80451d4bdc102a341fe6591b3bcb6bad2baa43de275393a87e6a0f4f2b430615ea8750e0",
        "l10n\/kn.js": "e80391d8e5f9a80d0f076210ff13489e7ac21482af3c9f03f683337bfa08519cfb8fc3b82c637ba3f0e8d5d84a38cb9f9a35b9df0d9ecd2648f1ce5ba2150973",
        "l10n\/kn.json": "cf10d3e1d8a32e761d64121e7a3175259ee07a8e606ebcbfa4e026fb09dc32f347df0cf005e4e88c47bc2cc6fe38c52ebb9c1bd27bd0f1ad9f36addc625ee3bc",
        "l10n\/ko.js": "e433ae8061f0d5beb5233acd974d2a4aba77555056446455ed9b3a57a0e130a00f6d0456a9c91c5e4cde64635cbd9ca03a2cea10be124c1d7c2d8b3791bed2be",
        "l10n\/ko.json": "af75adb56db48deac61538f532ff9bec3be013a78d7d26579591139e7cfbd2e91507eafb01260499183c9233ef0842b1f2c75a083faa943ec8aeea473687e400",
        "l10n\/ku_IQ.js": "3da4354fee4c9865236ddfe29ee44f4e9da3f881dbfe784fdc8181481d755cb64314a5ee1b1fa97fdceb50aca4cbb23bd515a4c1686bdf208d7b8b9ef3e0ebec",
        "l10n\/ku_IQ.json": "b0f43d8ac4d0eedb6c3c67b230f5d35167e82dd54941f183657df0c6884486ebfb123294ce22c90b884e1b3b26b6b69f7b2ab92b0c92ca5aa3799eb1c27999d4",
        "l10n\/lb.js": "15ab714f68572f67fb79e9307e41799966223c01ce76635f906eb2823f324799854f8f6a0624f8303b9aa5045230e1aee6bc1f782a54c29b76cabf79e3a059db",
        "l10n\/lb.json": "14d16a9caeb53ce40af3262264510884aa6492e8be87f0a2d4756c2a5201aa4c5787337bc57de1e76beb0c54c33dcb677307d554b10a75ec12d9aa7650a24076",
        "l10n\/lt_LT.js": "74fd7d00295957db9dd42d2a55a7e9817d9f979bd1abf89dd977764965cdf9010ac7a007d7872e3a65aeabbf1b6b504c171ff1013f27dc5a55bd4c0347d408c6",
        "l10n\/lt_LT.json": "cc2544d495e70c6fe1e0c21e5ee7613d37048e154d0fa776cdfc81929883da3caf84843a11cdda8b2f0cd199004c4be57b4bc1afdb602d5744712d55724fa3b6",
        "l10n\/lv.js": "3ce1dd2a3a844704e2445f238bbdc0e77d8772a57dc1f3adabe365b458fa66ca03064a8b9f2244372cc826594ce339b7214326a1ea2634e1d98e9b6c08764670",
        "l10n\/lv.json": "e391c993a81ded23604397e891d53c5c84dddd68010a0306f0c379557ea61c46c5bb2837ef95d5b27f6f2e3982f549f5a64e80462cb069b56a8a7fc6581e0c99",
        "l10n\/mk.js": "de6fa091e3890a5624c857acdae2f737d6aed3f28d0ce23ab335fa26077ff47fe9231f1c54c4f6876e7d6e57b8b22f8fa0f8fff08350b764969af5f928cb2026",
        "l10n\/mk.json": "e3ae584e29cd396e5592417c77e5a57bfb8a3f7e36c5a016df2bc1a1f2506ad123fe2454add3ec5c8c48667a7007e92713b94bf332f79c333db986a70fe07263",
        "l10n\/mn.js": "78e7eb58a00a73c11caaf1f41a5f6902292756b3f9eee99bc71eb1b44bfb235f114458b0d6f824f3b58c621c59e650a09e890d1b95da325e70e988c55e75475a",
        "l10n\/mn.json": "c03ab3267c605a4c7430142d3e343829e4526c05d1dd7135132eeb3a84fa91fa52fa2994f2a0218d77c105fcd63679ab935c14b286a6c38d5f934eba814d34f9",
        "l10n\/ms_MY.js": "e15936f1aeabee548aafcb95cd6419587f9acdfd689993387b8d35199e9d7f34c25cb1245d5de6c98e6e19402e4ee55b572f0df68813fb2132d0db0973367068",
        "l10n\/ms_MY.json": "2c91486296d74a1443d67b8b6de277bd97e27b518bd22f783f2d66b04b46618caa87f4dffb6a30828259f1b4c1a85de234b300ff27abc239576ec6e816147317",
        "l10n\/my_MM.js": "3083367a00008ad27a429e635287d855173a4a879f0b0d8e6948742d82a47ed42c29862598909842d46c31aa83174b658fce25e5498bb9625061fe72fba0c1ec",
        "l10n\/my_MM.json": "706594342a9d9948d9986148d41826a37225574d9cbe41fe07c974501328b301aaa62f4d9ad83ebcf806fc3d5b5f2e9d77276b1994e7933a16142f580c05255d",
        "l10n\/nb.js": "ee5e50e2a5c0ed33a1a86bfa9b685ac76bf8ab50c6b2634cf9a4222b4cf59605d27743b3f881a61a115e9f80ba58e81de1b9cd12b5af8edb8e9f5aefba9e032f",
        "l10n\/nb.json": "f9c95a50cb524ca9a0299bddf0d8b81c1a0cdd305caf2666eca401113d9293dd82e86c8853662aa16469556165ba035be204a84c886900c09e3b8447d61f80ca",
        "l10n\/nb_NO.js": "c51b66f3c241e06f883e35d1a020d935ee192fb3508068f187dcfa0a431dde89f0a217ffb7fd45441cbe67e75d8992b4ad2dd0b24b69c8387813c9ef427825dc",
        "l10n\/nb_NO.json": "c2ed24f1f38620c54ef549b81a9941be37d624beb4325728511973ca68f593bd95b1270402fb416b37ff79abfb31026feb8f9bb115af023f8d2eb79b727133c3",
        "l10n\/nds.js": "97080c94240b10e681ab2d475776accfb5a1e2cff2f4bc57b830931221baf6d4e5252797c65bce124c1b74a0158b51acd899dc4dcc4b21e05e67a023f1cf0625",
        "l10n\/nds.json": "9b3e6c2c4e49a6f4de08239533a21b49db0fd6004a95191c72df2170bbcd19b4fb24e14f1b0a8fff870edd10f8c822f226646a9a7f7f0f4abdaf31511b8bf098",
        "l10n\/nl.js": "ac8a148e9f92ede87cf365a1b87245c662b3d8b62375dfcd85d6d1e4e1f17fec762f77f53ee2e39f98ce3a23f59b1b129fa1b46b8f3f0a14a6415fbda4063a52",
        "l10n\/nl.json": "11e2d15d33d33eee4f9a8775a52d0b1a596bd7b303657f281030070e5c92cea8feb8ada40faa276bde6b78fb2d4c75d8e883e96c3283ea4da8a577720dd194ad",
        "l10n\/nn_NO.js": "5dd980abb7e399ee565433a8814609725cdcf33559946039227346620f4fe7b68b45fd54f68f633bcdac4952af3d924b3eb23a5244fef94a5f025145d76020fd",
        "l10n\/nn_NO.json": "2fabde606a4b865aadd2e06b05b0aa2bf03fb76f46ed25a8174ba4c0044faf1d98ea1f6a38576fee7aa4a76a0d0b414d279d7fefb864c4a9078456bf8cfc658b",
        "l10n\/oc.js": "585d8facb350ce2262c06724f86421d50f2d397fe93f68e6463f6239dce49308a1c68a7916ca63b32cb9fa39cf28ef01112c9e61a834a2dd8c2dfb144453491f",
        "l10n\/oc.json": "d1876eb7bcaf72970546d485c11645a59cb4948ca7f8bf5d82ea198950cde458e602d55fc7b3af9dc5c12c78cf9614de4a6dd2aeb9db67d4ec683c0d46fe3b7e",
        "l10n\/pa.js": "d56fa31cccb66beca92f8dda9f77a0329fc11f8781b07f630bea85f39e889aeb766982e29974376ae0f30c333153b8b97ab3f002d9298ab95b96cf35227132b9",
        "l10n\/pa.json": "9fb2b14042f1b15458d1573e2f13046760f0a75bfcc733b3b5f207c6ab53cde3d9f87114e95ed475160bc091e899d0ba384a1bfac04ae10f336005bad5400ef8",
        "l10n\/pl.js": "df3891de2447935398c53be5ca28c3f8aadfaf63a392d0d507dc0104f4d0acd9a8517cf88914bc6d0fecdf1effa2cf4cf6e47df668cd4b4b6ea4ca9d70f3bd96",
        "l10n\/pl.json": "70829e0ed29fef715c68a841dc9bc926ce8767380276b7ba2e468dcfdc002d445182463eab4aa3a74b484a91ed36a13af6f9e4a031e967b5af4770b7a6cf6fe1",
        "l10n\/pt_BR.js": "82aac7efa390258a649051307854c8013b3de1e30973d421a4a3d3fe1f87977523f0211a8df2976c9446e3587b55089fec750b90f96c9b91e7628a707af57a47",
        "l10n\/pt_BR.json": "a4d0b9b15f7a887ea95c5f6164237bfd2df677132db02f4012363ef90e2fc06c32aeb79704c6a54bfe13cb4401570cb77f1d542b40da79d864628c212ebddf9c",
        "l10n\/pt_PT.js": "71dab3baf38fb0c692aaa7e438dfa4fb50d1a31bdc3a54fd9039740dc2c20946eae1db34b69d3086c30d389388187e0cfd6850755403de8fc096cf5403e73232",
        "l10n\/pt_PT.json": "e01acf2fa823497bdc981d1c239143ed3b5958f527a44688afce9d5745093052e8154b6c04506b7ef73506ae010db057922a1aa76e15a3c3d34f9afa4e92ace8",
        "l10n\/ro.js": "25f8c6a027f5b37a43372b21900a8b306eba190a45407063ad429198f170edc055bbd1a4bec38c6277b6534c44287f21f12c5f5a136296576554a0458880b50d",
        "l10n\/ro.json": "cc7edd7f84dbffaf4fe0d9c2d5609707669b10e63c89214d4fc6271b5b0e9f8801715f0b547a79f8f5ba81a96be5a70d5b77a0538d9883063a201a6ca706dc95",
        "l10n\/ru.js": "a553b70df4f8051416de75c6d9029b0f4df4a7b30661ae824dba70348ee03556446c1ee28ed86f356464aa2677fb62d6339a5e29da76760034df08cee0df5a6f",
        "l10n\/ru.json": "af9d13fbe0318305dffe9c71655d3bd33afcb281b85aba4a746c7aedd77ff94754923603776876be6a1e6da9b0313ec6ab30a3d07a8f15308981d852990c2848",
        "l10n\/si_LK.js": "841b34feb4701ee2edc21f077b2e115a7ec631cfecbfb59ff0128b33c12e13f8cee0f35f28ee6de024fd8cd8a4df089a6f9149005a2009677ad5bed3a7787de0",
        "l10n\/si_LK.json": "b18128fd335a05f864c4eeae0a28bb99d643f0cfb2990845eddf09be5ed635e9b689f5d3824682e39af063412d4e9568f43812404723ffcd30c3a1226a342337",
        "l10n\/sk.js": "a9a0a065dcdc48f20b57649fe2753955e587ca06257ce3a880fd0725372bbf414642a7cb8dc6c4354225d53cf1420a9a3308c776f50303a19272421029161f84",
        "l10n\/sk.json": "4e9abdb444b24535f8c90db4748de79177920135f3d1e8847a40d315965e0db8ffa0635b2673f37a6d1f9b2d62604004aa8de64bfd517c42147c4fe230d0b8fc",
        "l10n\/sk_SK.js": "425470a318306c5fc22de8e112d307c93fac248f50893470a845bbe336b42f02db77828d08e9c18fff1970cc74b4759a1f9bf27685bf5ec293577764b823567f",
        "l10n\/sk_SK.json": "2dd002ab7499b01ffa8285ff17df846df96e5dc13839078b36a5822122f5c57bbfd617aaa66f8d1823b287c6d51e2247edea86cd0d763efc93edc9852c2dfc5e",
        "l10n\/sl.js": "9a804d755bf4a6d67128b8f8514332192c346ce123e482dd41d1834467a0feef8da28ce4b6d561b61b8ba9d65d2c57e2757d248fae8b128afc6e3f31d0588f38",
        "l10n\/sl.json": "77f4b2436be03480aaab6a84bc1869e2a20989cd4514776991b563d162c300eec0e0c897d87cb9544ae52c8862ccd031576504c2995af77185a95ccbea92023d",
        "l10n\/sq.js": "125131acc6501d30d8a74350418f8c10a6c94c701d81d55836a36c1aabc836b303095ec8efff8164ddd228be21dffc005bb9669cb2c4ae690e6afdc15f2847ff",
        "l10n\/sq.json": "a4498dde943f03390bfa8045e1405e851fc836dc0a2a2b8e7f4e5168ac8baa8279a734bd25b2ebcb3ea9b9688814ee71579b5181f16ea532508518e27665bdab",
        "l10n\/sr.js": "b2e6e2cf3799266633851aa261a56ff36fc5ff124d62cc306db7da65fce6177f27a0a756b6c05efb7b5d0f75d29cc7ef5df1c47d9a94a1c47d82fa1428fdf8d6",
        "l10n\/sr.json": "2676ded5301730984dac5a9630e8a75cc7a5ea1906e32e212992400d9b7f8e7990749713964a3e46a93d10eefd14babe04fb21124bcfdb15faca9337ff44217d",
        "l10n\/sr@latin.js": "4ce080a9380595a231f73aaf1951c2f9f7a8eacf9aa909c3250998a1766747b5171faab8c8a807cc2af5ffcc6d957f88b314908d9816b112241486bab47719e8",
        "l10n\/sr@latin.json": "3b682b4ede6253c504a65b287f57251aad7da3be8edcd8d56e0845516b2e24ab6a5540515bb6846952d38a4aa2c368ea54acd600a99db7d60c093334ec6ecaf8",
        "l10n\/sv.js": "d6daac21fab01c658217812fceba28eee17091f08ad21a7bf8e2acbc2d8247948a47023c0c6a02198efe7a4190464909ac03e7657fceae0fad6d102dd81dbaa2",
        "l10n\/sv.json": "8466202001188385e20f5550abe1c8ea73f6b3407b8ccf0637b6374eae054dfb523a443bb28cb9ee2746a6c2dbd7d9b88f19061e6c3d0c113ae16b24c32c45be",
        "l10n\/ta_LK.js": "28f6ffdbfe9d1e4f3a85be727a19c495f7666bba368e5b3bc5e2167bb05820c02cc11b5b5ee2bb077bb547b11b027d589280f114c3a1fb128bc1c45fd60f343f",
        "l10n\/ta_LK.json": "d8dc824b27a5c9b5784b58a0890c5b9f6aca9c941bc97a715119ebf9e18fc239ef1a19fd6fea9c2587c4f13ffa27d264c5566768c1a2706bcbeb08781d70c748",
        "l10n\/te.js": "9618b476fd0635b5975cdb4c39ef6b141e557c5a57180bc899aa48f592b8f6db3798100c92ecd91ccecf7c1a51bb166d1f2ff427ae038c8b625bc8405f25e53c",
        "l10n\/te.json": "d0b2621ad6b80fa4350c6c32afd6a82d5a5391347c98cbf1870c75025a2116a271cbe5b5287629ca84b70e19aabf0ffd6eddaf18b4dbd9c150c1a21d0f6df03a",
        "l10n\/th.js": "51f20cf9e348f387eecbdf5d1fc8eb42bebce058c47e7b9fc0e39f298cabf461644c2a7980706d0acdabc1776c747b6936421825dcc918d405705d392b628283",
        "l10n\/th.json": "90cd3e4a3f70415f3c416585848c1fe2694cc05a964e77dda92a8d530d1842fe19c62f175f7b20df0a2bfc5649b571ea86f1a586ae07d6e475809990f141fe28",
        "l10n\/th_TH.js": "23d84832754f11dda796608602485d7078d43b1a2c9adda524b9b92ec006b10eb145337f9a7ed94cf7ef1adf790c9cdfd43a580f1b4355e83537d8b29b8f2c40",
        "l10n\/th_TH.json": "5caf4aa878bb865f774cf44417a2302032a2423df49b100b6e9169444c9ca6769e1fa3c6af6c9692740281e4a1f6375838fa85260a9d9a7eaaeda5ec8f6de253",
        "l10n\/tr.js": "1cb5d465a0bdcd582ca4e7f58e378ae31ebea3eeb16c6af25193ac7e477927aa91592753d4ecd5a397c291e206705c5faf1fbbd6cc616af13c0718889167f851",
        "l10n\/tr.json": "598471973c10b83f1fecabe14621b3e8a6de023021db51f7e0dc6a796eb29048f9e4dc670de84413e16fe1d0c287f7eda28c813858e31d2fe3355453f47d73f2",
        "l10n\/ug.js": "8f24ebf0075e5e257254c5b5f961f98fb2a8d131d9c80a899636a31f0dc4e69be2fc2cbca9f9b3c90d047aab8342d1deed0024d06b4b8d558aa3d30c4c64b7b6",
        "l10n\/ug.json": "aeeb300bd9d3880d318fee60d78c9c3a5a523172142748adf5833b4237fab8dea462f9223c9cd650eb5ab31d3d99f88db0786d0108f675b90bd93dbcd828943f",
        "l10n\/uk.js": "63868851e737dd659be842e08938ee722c3e4a12f8f3288561cb7555eca2df4ab7c89f77bd433f26b99495f6f407b741a5db66403cd374ea6b4b1ee6b518393f",
        "l10n\/uk.json": "dec111b4e7ab93fa425421de843dbaa56c9960a2cf33b3a88524e5626d5772a390e6fa631464ed17bd66be6e55711260597768ad076f79a3724a06ef4b10300b",
        "l10n\/ur_PK.js": "790b7bb7095d911adba44989f4a95ce3c5a4bd4e4abaaadf0f21fe653636cbab0837748881715c78ba49187e7ea4409540bc2c92d7e201f9d748485451ea10fc",
        "l10n\/ur_PK.json": "0bc45b802357be3f47986230fc36aa62d80646737f25528ce7c879b19989e99c0c06e375b2acaa437162864322f8c8e495738cc8709a4e7f1824979d2f90446e",
        "l10n\/vi.js": "2483e0a6cc5efacc983a67bfbf535e43f222db436a6363fc149d934ee7d29d342cb6709bcd4fb0ca8ce2b5b35b6b3e9001466d0b0855bf09d1eb2a4b87e8b494",
        "l10n\/vi.json": "93981c81ac86cc57290c6fd896160c1df63539799cd7041e61ce67b13dae6675d21e800a2d6ca518bc54eadb6d05768f16e53c10a7fb457ab5bb11a46409db7e",
        "l10n\/zh_CN.js": "b14d3471f0db4fc06f8d23a9340fccf187aeddbb797bf8a48ba472fc4380a3bbfd52485c0c18e8ea3734aedf8f3008730c524593eb1f0bbf49798202e2673f6f",
        "l10n\/zh_CN.json": "6a96b8b893a94f04753949eeb24d308de91af64bcb23c1bbde69bd80f38c13533aad4c51afb83297e188fb30bd7ab1096a27d363d3f69bf98f8e6bbd5766e023",
        "l10n\/zh_HK.js": "e13dc9bda4744908349aaac70cecef98bc6fa4738c775b28e3060705f96a4d9e69dd4b0162dda7f9c3cce900950d50d15f0c0d6e7ef53f52e472a658444015a1",
        "l10n\/zh_HK.json": "1e2fcdb2002664394daae37357cf50c86e8c24190ca1ffbfc5dab515183c76271eb51d269b2debe2b8a92e4fc8459178709c1f97cd9ba1e5ab509e492a9175fa",
        "l10n\/zh_TW.js": "874e25d78b21f945da15ca210b180a60a6861830e918a3b1cc90508d9616f06fce7306dc2423c002e664461a18d527e25916347482b87e9973ada91b955d4202",
        "l10n\/zh_TW.json": "e3e73a6cb07b29f539bee5b3e0824c481a181229e06b984fbfa02343e17207012a5e4542d0db9b9a6255a2f9acdaaf61c008d336d5edd8235d9a155ce11847d9",
        "lib\/AppInfo\/Application.php": "aa3bb9e937a97c0e4082ff760fae60041dac88e478d2f8bc3f40256ba6d47f647b5931ee474a8064364ab86446a235bd3f01c574459cd448f2fcc89ee512013c",
        "lib\/BackgroundJob\/CredentialsCleanup.php": "1e138ac728bc943f4fd005adf882e54d4ae8610227687cc3f2aed41307671f16ae7c50b45d26dc99b13efd52c5ff0c186611b9e9a2e0bc750aeee3c7891f4026",
        "lib\/Command\/Applicable.php": "e927dfa39ef1bc2426ca026747bb90d791dfbae607037b85a82ce2bd1c2a6d962138f3dd9213dd411513b6297e98ab498865e3bf0e9f4ef4bb6f28244346e73e",
        "lib\/Command\/Backends.php": "150ddacbb0ac7a4fdf9466c7cbba6f2460c707c721f963ad51cace60e83bea66f1c4b1f021a78aaf397cf1ad4c41da1fbc4f00d06c4eae7fdd6edb2d949c6b28",
        "lib\/Command\/Config.php": "98ba93c15dea4b9ed43eae65f3292e18ca2c8975fac5d617c7bbedaa4e03220d25bdd8d49b605afd0fd00c9df9c79afb95d2571cef175bb55d92ad538829c7e7",
        "lib\/Command\/Create.php": "32c12eceee7dc9345bef557c9ee9a229fe39dafd14fd7930a2dce67feebd7b43e4edf0436b91a4304922d840f9b360ceab691b5f5c6c9600bdfc688f992fa8d2",
        "lib\/Command\/Delete.php": "b3e57dc445127d2e734351f6b851c47d4cb8fe36d70cde49bc4d4afb5b1673211bed19cd82c926e8032ff6e406b96babbf60d6d9124de96151eebd58b2e968db",
        "lib\/Command\/Export.php": "d55d853663f35cd73924a8704879c67e772a946e97a6d5f5bff9885bc2a9d422a7a637c2476c90790fadf387659f5faaedc20a6a272741dcacf2c1e7797d31ea",
        "lib\/Command\/Import.php": "3fa35578aeeba906fa2bb424cd53c2673dce2862658f1aafdc4a0db95b4877c8100f50a3cb11e089f22d7bd45e667169bf449e1cdb69e8d0b6af244f951fb4c2",
        "lib\/Command\/ListCommand.php": "21b738697e4bc9bc94d4e3a1aa019b8c00e182ae607f2fbedd1f6631a3c1b855e92e7b7adec7caba0eb6451080f8b5d5dd1fd52365c14e2f43340044e6d4d79d",
        "lib\/Command\/Notify.php": "30f25fc974b1e3bb1b1831fa6292edfa761ceecac0123eb917efeb92e2f8fac3f708718d37f291ee497db042f366f605bd68a72241128b54987f14399c687e97",
        "lib\/Command\/Option.php": "59c678c6c778abe76c5209fff4c3d20e405b0ca65b42cd07cd1d5d2465ba323e9340d4451374d0a2e1b93b3552ad1f39e4446be6300eaab22e90fec3b3310e02",
        "lib\/Command\/Verify.php": "800f18ee26fe8bdca3794bcc2c20ff7b55d2ee0966df55aec9a66c6ae7d74185e64d95465d0b4551afc9ef7e5a804a5e0c1f54f5bb88cd09a8dec2e5f9606e32",
        "lib\/Config\/ConfigAdapter.php": "8a6f452e80e7d6e0a3830ece8e9e33af47c9f353b9e136fb56f6781ef88a187f869df99e046467b7703aa8fa342ff47c8f8ece6b63ef140cbebb42ee0a96f2fa",
        "lib\/Config\/ExternalMountPoint.php": "c68a000f93c89a1a81075f3e3cbefa61c675d9acf8a86b5454f37640549e734fdc071bfefd12ec5dd8800dd848bdf88db54be78c4c94be2167dc79ddce84be5a",
        "lib\/Config\/IConfigHandler.php": "57cf1f7f41fab833473d0d4ebc2e7b027ca1afe18b2add9fc4174f1ee3268e18152a5af79074cef9dd59c39a682847cc5e7a67194778a33d3cd219a4d1fdabea",
        "lib\/Config\/SimpleSubstitutionTrait.php": "29adcaaec5f28c5177a0506ddf7fc4dc276e7f2eddca78ebea6593e440cb50e4cd472659f95ffb6d569b0283fb1122a06fb41678f363027b82add4752060dcd7",
        "lib\/Config\/UserContext.php": "956ecbb28957560b31c3b08d4ffa95c859ab0bca91ddd12caa06104232c640a10239b4d5c61d483e18aadd4e285f5fde1f3250efa1e107538f7756daa34c7ed0",
        "lib\/Config\/UserPlaceholderHandler.php": "a3f8ad357479273e26f2759026a403638364c765054f8215a298fe57bb3a248ca88527cc8fd3ff7a12466750ee24cae84accfc8f75542de78a775cf0bb14fcf3",
        "lib\/Controller\/AjaxController.php": "485758196903bc63ff60ab9a54575a82fcd9b4bb3829cd1110cd7b94103ef4392902805eb63033e9b7c9a7734a4a9cae07cc451a043c90983a3e399605919b7e",
        "lib\/Controller\/ApiController.php": "b6268d3978c9dda3c4bba2370f035e873c7ccc24257d5ad24dee8d99bff8109f6b372def73017570f49ece90b298bb3d1471c27d0fb068197783938dba28cd40",
        "lib\/Controller\/GlobalStoragesController.php": "b572832125895973a199e44a8fe5a880793aaddea3d00bd260c4d3ed1f802810c3c74ea202223edf9e5f4f3f641f9fa7349f9bd5a69a471b17bb89b3bd00f731",
        "lib\/Controller\/StoragesController.php": "5629c9abd985fc0d3bca276a6f41b81e561b6e417cd837fcf0e0b78e079a5e292404aa6140184cf6d60195e2d87561c371e3967640cf62f0ffc0b6ad6fb5862d",
        "lib\/Controller\/UserGlobalStoragesController.php": "4d105814a2d46cfa1460d5c7f10c271e72818101bed6a2e95c2c36062ac4a2af709ba8ae6ea2f5d6a1151d04cea0361e614ecefd402c7665541a1654f4b3a91b",
        "lib\/Controller\/UserStoragesController.php": "71fa063b8e7319c517f4cac204feeb978f896badd851962d0ad7c2abfbbefd0e9c2eb830ac9125bc75009ccfba5bfbb6888883f9e4296d50243501bba5ca55b8",
        "lib\/Lib\/Auth\/AmazonS3\/AccessKey.php": "998f84a670fc236dfef8f27e393f07068c5cf6b3f2bbc0ebb37cde6fa06a729b783c5c6e5ca50d8a632524c456e62a3f9462f526452695b2f71f146e85bc91a3",
        "lib\/Lib\/Auth\/AuthMechanism.php": "6da4e49b936fb36ee6968fb5772aa3ece870cf64f10a14968ac80f9f3744ac4a3807bb4335b294809052d21c2a240258e40af5fb49d764c7fd074dfe54ac438c",
        "lib\/Lib\/Auth\/Builtin.php": "f55fbb8b55b77ebb4da4309e398fb5ec435e3de4027c3f4724c6bf92c00462f7388657c958595ee39281bb9128359863359d0c1216cbe121ab7de7aed4b91be9",
        "lib\/Lib\/Auth\/IUserProvided.php": "fde530e34ad478db9fcf1c201420d09aef94363f1a891bd569eb5f1b40757c16aeebe5c11271c8ab4908fb0f3dd50859ac4853bba1a69928f6c3521447e89472",
        "lib\/Lib\/Auth\/InvalidAuth.php": "227c1b25b8790f3ca71ef6561049bcf54599d60b52db7356d915fb9e558c65d632272706bb010a0e77b00a6f2079e534fe13fd859866e94e16aa6547427bc15b",
        "lib\/Lib\/Auth\/NullMechanism.php": "5a7b025e70212744869a4f6fb38f0466d2824232ef8d0722ac3c2663639a800331e9cf87d0d4dfcf8c5e1c11fe490a57a8a7a6387873cb41cf2b2639a4fedb76",
        "lib\/Lib\/Auth\/OAuth1\/OAuth1.php": "976bcdba732d1900838e89e0b05b4679defef92cbe6660ea19bcc6b4d4286a91672b2b8b3a3b1347f505e999cd69a39020896706e8b9f05d7222e306f918bbcb",
        "lib\/Lib\/Auth\/OAuth2\/OAuth2.php": "47dd62d894c009bef4c03191817c68a076b41a65f5def9a796fdc9a86f0f74b59a83b47acb5b1c618a57b0f89e1173412132e7a18d6adda655224b9141c12b4f",
        "lib\/Lib\/Auth\/OpenStack\/OpenStackV2.php": "969a88b974f4428299ab4807ea9788970ed58eaeb8c2fca243467b5184a69940e6476e39c80e2f859975abb67a83c8e4b4c9961c04f2e17d224dd21d26d0b857",
        "lib\/Lib\/Auth\/OpenStack\/OpenStackV3.php": "dc5849c56af32f430946e3543f4cb8d687ab5ac45e9c5fc4cde17505020868496b5e1c19f477a2a90be56e73f9ae6860764c8d9811c7a904ef509a0f32e1d539",
        "lib\/Lib\/Auth\/OpenStack\/Rackspace.php": "46e3450879a1496b87a22548a30ef5e2c21a6ccabef5384cca11f961c0765c1c188bad26b91a5f7dfa4b0088a5bf595d8e66e9e6fdbc1c6029fd5c3b2260fa4f",
        "lib\/Lib\/Auth\/Password\/GlobalAuth.php": "4fa3a8255498f9d06a24b9f13e6718e594faf11ec2923f36be9ddb4f0cf0bf4224d913c3b4a55e90eda78e499f64c0ee86dbb9bc2b755c9336a294cfe0362669",
        "lib\/Lib\/Auth\/Password\/LoginCredentials.php": "2ec2ade3878fb1020caf977840a5e21f9e9ac0d973fe1f0ce95c8a8111d2fc2354e096c46f55ac23304ea572ff560d851cdf843d88c752e850d7786fddded526",
        "lib\/Lib\/Auth\/Password\/Password.php": "5c93fc98aabd858c75a91e4ee843da791aa1b2779f2a4f3cde980d16ca92639d67b44421a1ccc1db670940f7a84d65fe222bd5ef409d43ada49855e966556496",
        "lib\/Lib\/Auth\/Password\/SessionCredentials.php": "4c4fd8e5ae4b7dd9d19ace0022e61c335a7260e3aa09249cd2c9f6d82b97b879e21e787b37cdda41ca70085aa7d578305e78eb7c0fdc93e6c99752426ef9c629",
        "lib\/Lib\/Auth\/Password\/UserGlobalAuth.php": "2b3a4a11958521345206b40268a26e28b93c12d566152509b2ef69becae6d423e4695d8448657441e5e112aa3d55e0fde807a695e98cc41b491613ebcf9c86ff",
        "lib\/Lib\/Auth\/Password\/UserProvided.php": "60bfd17957dd4e5714df909b4de0c598f11e69d05052ec3bf55daf58546523a59061b115f34130a71c95b6c7de071954a83db7495921dead35c6756b469c94b5",
        "lib\/Lib\/Auth\/PublicKey\/RSA.php": "d79175f888345a13d894b697a337f568a414b0fe6ec628ce5f08d0c626e4ffd4b9a9d71e5db6db1ea8b675f140cb40ba7eabf2cab03196c3ddb88be0e2634537",
        "lib\/Lib\/Auth\/PublicKey\/RSAPrivateKey.php": "d786fc0add685d33b8bfdc43b5b834ad43b93db8f483a4cbaeec7475f3a9df6768683e234961858fd9a76f634ec513d1afef3a4b63f356eeb35f64d4966e666a",
        "lib\/Lib\/Auth\/SMB\/KerberosAuth.php": "ab32ce05a80b34e050dd5be793676f22caee5c677b746a6c28dec083901343f41b46d3af895e288fedffbecb7741b9c943a746aa3f7de619eabbf92c96ac637f",
        "lib\/Lib\/Backend\/AmazonS3.php": "f1da68faf386239c9cd19575dc5ed35cdb54fb4101c3440bf7ebeb03a7f8ce74c43f5ab02767f5d82e84f75b9c88b2f18bb4a3f831a0b00afaa24e2f97191ec4",
        "lib\/Lib\/Backend\/Backend.php": "bda6b4fc36fc87dd1c0bca750042b9feb1fd8e37184d8a20a021c54e383861f2fa5a9131d0bdcd207a0fe020461ddc5ed8246926b8baeed6f89b150e73fd82f1",
        "lib\/Lib\/Backend\/DAV.php": "6dc623aff047205b2614a2adde8550c737b49ad59a39f3c48ddcbc55202a58f455f4062214aae59fa949699b369e75d90791df32e3b069b8dc8daa176f84d346",
        "lib\/Lib\/Backend\/FTP.php": "daaaff931dd2e651a9b7a4faeaa1a5d3f1d28e5dee533593d3f1d14cdad79dba657f53a0ed0f085bafb959580143b7af0e22dbaf76c81e1fc9a75ecfe05925c5",
        "lib\/Lib\/Backend\/InvalidBackend.php": "cfefcb5e8c2820bbec8942c17e29dd0dd1f82eedbf5a4498e4c2eeeece33bca97d40718a5d34f0e198bd22b5188a4a55611d1e22cf5c969adeb08a12f7f92eec",
        "lib\/Lib\/Backend\/LegacyBackend.php": "910abd9e0e34e50d495864af922e3c2917b0ddb7f3580ed87856f6e29a937d007c4272dad9be3773ad8bfaa3f0c7e646a74097511d2d6f7d6d3d056474a5841e",
        "lib\/Lib\/Backend\/Local.php": "c53b91276c2915f7214841bc4a1468a3502a59c97912ae9c96a837f3a912e78862c4ed3550f9a70c305655803fd33b0a3508eb9507f739e9d7f498391a28ad4f",
        "lib\/Lib\/Backend\/OwnCloud.php": "0382f6793ae763077aac5dba96982bb38f6af25c20b5b77baca0fc8a4edbbd2f8bf22eb4df1c23fa567ffbf1e82f1232f2590ffc8c82101c20c6b577e2c4fded",
        "lib\/Lib\/Backend\/SFTP.php": "468b11401ec0c6e25b3091d26515a2a266c04dec88f254702338da39d68f3ee397eb4936ad5654bc801962d21fc67138620a4d30e6f285a641ffcde2fe999b13",
        "lib\/Lib\/Backend\/SFTP_Key.php": "e6877e1065e38ef8c2020f88d0e617e0c28202754f6284ee2700873f34d8d7861480b0c16fcd6ed120daa76f415567139c89843964686ad106f11034b560382a",
        "lib\/Lib\/Backend\/SMB.php": "7fc3f4b7b0f16cd18ebf1a92add22cd282a98bef35f410c427e2a7e30fb08e29e2cf8c92d79d478a421370600e5fd51bfa7fade87f7d54ba132d0efd8c6df98a",
        "lib\/Lib\/Backend\/SMB_OC.php": "2c36fe04f2586666fd19c3a2f28373453d966e684b2c16cb0e0a43b03a0649a9c9d4b9c9578daa1338c521935d7da5dff077aec6476747047a5f44127428ae56",
        "lib\/Lib\/Backend\/Swift.php": "4a35377cfd01c6480d84c44a7d987c31f3316c030e88a36f615355fdb123c1dcb69e7fce008f9869db3e2e8e104f8b05152f98ff5161ba224d0a15f6c512b2e4",
        "lib\/Lib\/Config\/IAuthMechanismProvider.php": "b12076c3b2460c80c154a466dacb02883536659af509c9ac994529307261fb3510b9773608782bb9783d7efb45c05182f46f1c3687618cf0411a76d84c1e9078",
        "lib\/Lib\/Config\/IBackendProvider.php": "904ecee28fd47f2fc827adcaf329aca4a179109ec9aac62c43cab711e3658a816b9733e763a5d2cee3e346e00f52749ea1c5ec60eb11917e20df4a9d7e295097",
        "lib\/Lib\/DefinitionParameter.php": "7414a0b0431fce8482a170f437611121a6a7495efe73e2f4bee1c75969caa861c67c7819efe233427ee1f1c12ba7e908c2d80df161be1758cfe734e639b9c074",
        "lib\/Lib\/DependencyTrait.php": "c697a0f0d24a0741f69b5be4161aa2d3aabe0f5f07b8a039ca68229b37f872f5cda61760d1e1d3226b0f53bcda70ff7754b324f654b1b80bff7fa8747ef72e7c",
        "lib\/Lib\/FrontendDefinitionTrait.php": "ad1a02f6f6e654b9d35a70443e145d3057572202c30ba36c5dd7fa693c93fb943f5cac10ae5e319e332249889d30385d1c0cdbc0f5c701689cfa70afbac1ff9b",
        "lib\/Lib\/IdentifierTrait.php": "4a2ee679905d5f963e36bba52761d81cfc5836bd7c0155ac1c9421c4fa5a1b4c28ca82a102df218cbe90d1988a7f7d38511ef56f52789e069d41f011ab1c0afd",
        "lib\/Lib\/InsufficientDataForMeaningfulAnswerException.php": "9ac74c625447782f966c901aea3bb5c12f0f037b0ac6d864b60b8e323319495fcb607e200a5f3fe6cd1a059574dded61813fc153e26000b300c81e2d2bb88aff",
        "lib\/Lib\/LegacyDependencyCheckPolyfill.php": "549d8da19adb17de7b30aa22e12fffecffb7d291efc899dbf2e4112f1c9f09951c056a9446c57bd8a4fe84e9831a976492609aba250cdd0a25e2d93889f29511",
        "lib\/Lib\/MissingDependency.php": "3dcc951b39618aa4aa67ba18485a62f87dffeadf3100323bb3c44c1b4a7d823bdf35ce38598aae65f8563101d0871ea66f3b6649fb941489ab53265597af862f",
        "lib\/Lib\/Notify\/SMBNotifyHandler.php": "d8bba7d30d3d8fe3f4602140c5c79178182b8e71baddcba7595ec69bf676f6aebec8c29d9122a657d6686398d23e29738fc11eaa74157465675755a68d799cfc",
        "lib\/Lib\/PersonalMount.php": "f70313d773bbc77a6a28c713ea88ee764eb467e21d7ae3d57d789e6a838414a1ee1630bb45d9d00cb3bd8188fb9366a881650db45e81a860e237880482b2f285",
        "lib\/Lib\/PriorityTrait.php": "83e7cf4a3a87f237a26f61eb21fd3c851bbe171850e2b1a841a073843d7f6d8cf19733a6991137689d42e3ad854a0fa19d84ae656f09911ef41f9696a329687f",
        "lib\/Lib\/SessionStorageWrapper.php": "483fc5b6f89e77a9769b09b6806a79ceb4a2086959de44a15d258dccb94ed5a99577f706f70e3c829a148a330a88e1997061d19d070bf6d2f7a3cdf07f5328e0",
        "lib\/Lib\/Storage\/AmazonS3.php": "da3b068ea1613a76d2206642358074b2995212d1c20968401943d82c8eb5830225d965cdb2f88d13b9436d77d4cf3f746dff8e9060783a4e83120f006c3c9311",
        "lib\/Lib\/Storage\/FTP.php": "4a19644202a90b7f9720b6a191908eea020b3c2cc2687e0e5728093156ffd22dd551df79ca4bfb6411d62252f61e839530b78bc90c3278debd5b6a178c0e2438",
        "lib\/Lib\/Storage\/OwnCloud.php": "4365e6be8e1e2f5e70ec165c51c98d67d0444814e71973eb4ebe8d6bacf62d0d6fae737883016d378190e807f12a691293a9165341179c81c682ac47aeea6924",
        "lib\/Lib\/Storage\/SFTP.php": "affe3a2b45a43d3ee2efa737af03217cef5dc48168e81e3813d8b383f86bd703abffbede4d7b8715b8d9a47818dc14bf99e1c210fd8e522a85594f0ab66900a8",
        "lib\/Lib\/Storage\/SFTPReadStream.php": "fdc6cdc3faaa9f2d1100dbbec8afaf723e521947c4656e463c534f5ec58a725452f29fec0cf296e817525a52ae8bc6800d082985564600a102d30bcbf1530f36",
        "lib\/Lib\/Storage\/SFTPWriteStream.php": "698af6affe3c5f0689bb51bfec30201c3308e014345f350ba9fb3a45dabf7fc2927ceab4a01d5380cc8d32beb2ab52fd1e4a03332106217893e42f1dc5662cf8",
        "lib\/Lib\/Storage\/SMB.php": "33b1b6369af239713b6c8ea9c97f96d9177c103ca1ebe632c4531c63e155087f125fece5921c461f480d155c85d9fb5f54e8a7f34ff970358d3d72c5c878878a",
        "lib\/Lib\/Storage\/StreamWrapper.php": "b7d72f04a723ad3826cae46e8df345350fd8673b2ee727c37951b7d303892b79ba9f2f37297496c28305ab86c1538bca4b059e546e94ba55518833d5e7d39b0e",
        "lib\/Lib\/Storage\/Swift.php": "7917332617d615a4c15dd269be162e3379d1aa6050fd93c3cd1afeeba9896bce4fd1353f14479037ef9fd5514289d4cced45bdd6c6966fb4f40e557e17784782",
        "lib\/Lib\/StorageConfig.php": "f4a16bd98557956d2998872c41baccf59f50be4ffc4535461b939608eb71e99714ff96b637603df80dab1f634e7109fbd5e83a77965df8120ee802d3e6acdc58",
        "lib\/Lib\/StorageModifierTrait.php": "b6e9a70dcc07666b9e3d5a1509f915ec2f896bda7c7b00ec0e62fbe0f56c1ceb60f61e86694b346b33bb71eb1c1c8a31b63af8c6fc46dd00ba7501d6ed7d2e7b",
        "lib\/Lib\/VisibilityTrait.php": "dc514d949f12e8b6a98a4761694fab8b9f1c81fd73452f08009663e44c4a9da860e0bf285572e0180bb7a75690fa02d76e7bd9811576e8f4f988b0d8e47e6067",
        "lib\/Listener\/StorePasswordListener.php": "6dc74dd52abd90ead4138e14329ee9606cbf0694224cbbb385a6ccb1522aecad19fd5837c0825953fd075f29916a2eb6b2baa712fd893af8a8435f3768c96f0a",
        "lib\/Migration\/DummyUserSession.php": "5a503001884314355c542bb93d0c217aeb2c8ec579dbf846a4a264094a11c697da65069cf956c00b0d077219bf07b3bb96783925c658a81351f3dc5e07ee6cad",
        "lib\/Migration\/StorageMigrator.php": "97170560b4a533c6362a1668de13f60dfb49cf2d942ae1847327ed0b61aa5b7054fb25fbbbbd9e1d8691e990e392dbf891e30f5e47f6adce915ccb8cecabfeb9",
        "lib\/Migration\/Version1011Date20200630192246.php": "a740738ca6291e806a9ce6bc8997228907956f3171649a840889cdfedaf37f860b0670e2888a13e11b60258d756b87cf3249d649cc9db2e47bac22b0f43f30ae",
        "lib\/MountConfig.php": "e4b419f31e7473c7b7e8fdf26156875010d8cad25183406b96acf1617e8be85e1febfe73752377016e4a938edb87c328ceefa17bbc94c325ce6d0008c8f6326f",
        "lib\/NotFoundException.php": "2502e91c06f400c73db9f113c87685c7f19f8fdac82e9f5d7f2adc7ed4bdcdb863cad28d326a1a9235b7cb2a8904384bd932902c20b0cb8f7a35fd8c5ae43bbd",
        "lib\/Service\/BackendService.php": "7ce068479483cda6f8eb3550acc91a9c8974c5ac8ed7805e6b9f1a751f731b52d9d6ef03aeffd191d92420319f2ab95e154ebc04f4f49ac4750c5e839abb6589",
        "lib\/Service\/DBConfigService.php": "7f5a83233083ecab269e23097cdec64e9bae5f4ea5ba55966a5d6c1dae962b8ed7bb05c4619893dd67de88aa6972b77010098c8ad7330532e157d16fdfaeaed6",
        "lib\/Service\/GlobalStoragesService.php": "2d330237353ad21ebb336ca3142bb2bcf3defe9d92825b4cc7796027113339754085ce8b7f3436aaa4ede99bf2f339c782c37fc753e29f9b5387d2c05a9d2c77",
        "lib\/Service\/ImportLegacyStoragesService.php": "8521a6864b9a69d9ea3a6a6c6e704a2d8e3579b3410947ceaf0b2ba1d0c006594b0251559cb7ad7f18426b788cce75760cbe2d1ebc0f379e0cc7b6ef1f312492",
        "lib\/Service\/LegacyStoragesService.php": "7b4a35f77e51860ae0aef8a0a5039f3ca166a460c8e23749e221cb2d07c4c3c1e37b54761ec941c3b5b20910ee3011e50b457e767d295cfa9f08040e122229a7",
        "lib\/Service\/StoragesService.php": "90eb562f6fcf698695b7ddf9ae7c47da60bba43115ea7cf27dd656010d2afb25db4401846fa07910a5e85b95ccd4412c078956548938bafb8126d4161b35a688",
        "lib\/Service\/UserGlobalStoragesService.php": "c75e6c83d708ce05af41b85869f20e3ea500032f0eca13980e82f6c6a281b8d21c8d31a3a8a2506e522a07c69fe783abf8fd8037da6bc2234df302c612d30fb9",
        "lib\/Service\/UserLegacyStoragesService.php": "a65a746faa62efd26104ae2ca2106d1785d75a39fc8d759a8f2f44e9564f9949199cd04b326692a92ff37b33731c87ab5defdbb437a5522107c7bf4fb31ba619",
        "lib\/Service\/UserStoragesService.php": "370f7cff113060d79c08d4730736d76c9faf2e7707c7493e6653355c33fe194108143db526cbcedc9fedd484ba160b2b685ce0eed176e59a2686c8bb5608573f",
        "lib\/Service\/UserTrait.php": "b1c840c931a65850ee448db9d0d9cd30b50025506db56a1ac67a0cc404035d1a1eb784a7f78ca3622b67ec534a54cc77449a43f3f84a0464be1faa4b7c53f9cc",
        "lib\/Settings\/Admin.php": "69330ef95332e8e955e8626bd98cf5fe3bb64d88d1c7f4f053443fb9e8ffdec632a5503d572a5c3079c5d1c0b3144c735699cbad7dc05cf2e67d29727c5b0347",
        "lib\/Settings\/Personal.php": "d5b5b32f8e3a97955045bdf6aa24fe42c11e5f85f47faf34e0bcc111b619ccf2fc601ae23dde959a851efda09b49b1c590a6ebaf0a77c0980f5e302515cd7e8b",
        "lib\/Settings\/PersonalSection.php": "db36b06eed27de3af90374ece6ccb2a7632a806abfc4cedb32acb29575e208cab9b1ac00fb3f1e4ade08953812e5cdee39c3f3d32f6c73c45bad977f7ed9155f",
        "lib\/Settings\/Section.php": "35f5dff7a813e8884c911112ab2b256cdcab515f8630d8e368a27b05df2d824ec0b674e89c0f073b047d314fc4dfcefe1e1b62a3abe9fe55eb386650b26488da",
        "list.php": "11bb3beaee0d54ad03fd973fa78c3441330c50d961c5d2b10c5dc3ab3649d2c687b678dd7299247b8105ac1fff72651490703329647462bded6ecaaabc0ba76a",
        "templates\/list.php": "9737680ff369360983d90b383e934f6a73987d1e0d56ceb470d6b4a2962f06ff1fde041ea835b0763015a0d9876f1c888d72adf945709054731fc747dd866bcc",
        "templates\/settings.php": "a1e213451f2c13059cbdaf02bddc3f986c97d248977a9a10f02e5a3d1bb97f5f8254124b16453f9df439bd3e157ef28eb92923512b706025dae3540c059be8e5"
    },
    "signature": "twvI7x0Fn8vEcyyrJE8xzaIA7LuMv40vcZ7VXeylv7dFWswZLW\/p3Lkf5iAVWfc2F4YRt0EWPamN5nTMmxta3Mta4l+9yvnXs33c125u7mD4fsL3er5YR9wgMZLsHBiu3+Dzn2eOlUvLFWV6SatRzofCP5fUdb3x0znESfjq7oEpweTUHIYjzHVrFKjtHdvL2csKGglBCJl3V+VKiOuwvsfTBNM1wFtHieJQfD0l9cqcCHdTQUQ3dZuhkyEvstatEZtQ0HiPOnStgJko4QMvkYgtG0VB55TLbmPtoOLR+RALtMavfauiHdmoS5lPRl6hu9gZ6yzMzAOmBhdE84ymbA==",
    "certificate": "-----BEGIN CERTIFICATE-----\r\nMIIEojCCA4qgAwIBAgICEAAwDQYJKoZIhvcNAQELBQAwezELMAkGA1UEBhMCREUx\r\nGzAZBgNVBAgMEkJhZGVuLVd1ZXJ0dGVtYmVyZzEXMBUGA1UECgwOTmV4dGNsb3Vk\r\nIEdtYkgxNjA0BgNVBAMMLU5leHRjbG91ZCBDb2RlIFNpZ25pbmcgSW50ZXJtZWRp\r\nYXRlIEF1dGhvcml0eTAeFw0xNjA2MTIyMTA1MDZaFw00MTA2MDYyMTA1MDZaMGYx\r\nCzAJBgNVBAYTAkRFMRswGQYDVQQIDBJCYWRlbi1XdWVydHRlbWJlcmcxEjAQBgNV\r\nBAcMCVN0dXR0Z2FydDEXMBUGA1UECgwOTmV4dGNsb3VkIEdtYkgxDTALBgNVBAMM\r\nBGNvcmUwggEiMA0GCSqGSIb3DQEBAQUAA4IBDwAwggEKAoIBAQDUxcrn2DC892IX\r\n8+dJjZVh9YeHF65n2ha886oeAizOuHBdWBfzqt+GoUYTOjqZF93HZMcwy0P+xyCf\r\nQqak5Ke9dybN06RXUuGP45k9UYBp03qzlUzCDalrkj+Jd30LqcSC1sjRTsfuhc+u\r\nvH1IBuBnf7SMUJUcoEffbmmpAPlEcLHxlUGlGnz0q1e8UFzjbEFj3JucMO4ys35F\r\nqZS4dhvCngQhRW3DaMlQLXEUL9k3kFV+BzlkPzVZEtSmk4HJujFCnZj1vMcjQBg\/\r\nBqq1HCmUB6tulnGcxUzt\/Z\/oSIgnuGyENeke077W3EyryINL7EIyD4Xp7sxLizTM\r\nFCFCjjH1AgMBAAGjggFDMIIBPzAJBgNVHRMEAjAAMBEGCWCGSAGG+EIBAQQEAwIG\r\nQDAzBglghkgBhvhCAQ0EJhYkT3BlblNTTCBHZW5lcmF0ZWQgU2VydmVyIENlcnRp\r\nZmljYXRlMB0GA1UdDgQWBBQwc1H9AL8pRlW2e5SLCfPPqtqc0DCBpQYDVR0jBIGd\r\nMIGagBRt6m6qqTcsPIktFz79Ru7DnnjtdKF+pHwwejELMAkGA1UEBhMCREUxGzAZ\r\nBgNVBAgMEkJhZGVuLVd1ZXJ0dGVtYmVyZzESMBAGA1UEBwwJU3R1dHRnYXJ0MRcw\r\nFQYDVQQKDA5OZXh0Y2xvdWQgR21iSDEhMB8GA1UEAwwYTmV4dGNsb3VkIFJvb3Qg\r\nQXV0aG9yaXR5ggIQADAOBgNVHQ8BAf8EBAMCBaAwEwYDVR0lBAwwCgYIKwYBBQUH\r\nAwEwDQYJKoZIhvcNAQELBQADggEBADZ6+HV\/+0NEH3nahTBFxO6nKyR\/VWigACH0\r\nnaV0ecTcoQwDjKDNNFr+4S1WlHdwITlnNabC7v9rZ\/6QvbkrOTuO9fOR6azp1EwW\r\n2pixWqj0Sb9\/dSIVRpSq+jpBE6JAiX44dSR7zoBxRB8DgVO2Afy0s80xEpr5JAzb\r\nNYuPS7M5UHdAv2dr16fDcDIvn+vk92KpNh1NTeZFjBbRVQ9DXrgkRGW34TK8uSLI\r\nYG6jnfJ6eJgTaO431ywWPXNg1mUMaT\/+QBOgB299QVCKQU+lcZWptQt+RdsJUm46\r\nNY\/nARy4Oi4uOe88SuWITj9KhrFmEvrUlgM8FvoXA1ldrR7KiEg=\r\n-----END CERTIFICATE-----"
}