{
    "hashes": {
        "appinfo\/info.xml": "eb2259fd4fd5e27a4699842753036fa75c4d5166116297c4c705d35d28fe89de0dc4ba3071e59f8bd5e699f946a04b6b0d310e08aa14932de5f62d0328ba8953",
        "appinfo\/routes.php": "5df68fb7e928f664fe1670eb452d08bdba76cf72564e82e3e5e3e198f3ec79c64abb2445c0fd5c76727f967a0cb9aa1dd7a61210eb9313fac7e9b74ec001119f",
        "composer\/autoload.php": "b38efeb0697bbcb36198cb6ba44bed3fadc21c9e50c41df9c2fed5bcd6b0a3980d488c8e185fd246e09294a1376d8eaa25c12150381925ee6a543efcd6f73d2a",
        "composer\/composer.json": "4580ff7bee9658c116b110c493c8a3954095b1755f98c2d80189c259739821a0751d554ae8f1d14d99843e8a0414a1665dd015075007770df43561ea9af0a595",
        "composer\/composer\/ClassLoader.php": "2b6fa585122ace1ba816410acbd8372cb75329917aae6363dbad48e396cca581452616e1386a2e445a8fbb0e461b988279103f4f89adf704bce7726f761abf0e",
        "composer\/composer\/LICENSE": "f3bb64009f41a425df5a9bbab53490f0eb9b74fa8d6aaa2f57efb928edc4ffff330260666edeaa04a91fed708c3663371cf01b284f3a08d6698aaef7a23f355a",
        "composer\/composer\/autoload_classmap.php": "875c30663b50da343d96dcd8abbe402758aa1d7e96160d4684d8393b9e6ff9f730a539dbd08a9901d12433c40317c9a6290640d6a5f1be53623fb07b275204d7",
        "composer\/composer\/autoload_namespaces.php": "dd8ee31d2faa9014fe567e1f954b5e7f450cf06feacbb96d4df663c59b1a36a0b7d26ad41b46354bd14f282fa7899298137208d1851099cd3ada285650efd90f",
        "composer\/composer\/autoload_psr4.php": "104b2dfe9409a7e32f7d2588d0e55bf07bc26123c887d8f3cb0d9acbc30334f814461c7ea218508873c6e9d4befd90cf1fa8f8736ff2e2c2ee1385a1d15a5d97",
        "composer\/composer\/autoload_real.php": "5bbfe66f357f63a00077f282437f8a93ae1c8831f25006212cef051a2d93358e3908e520c607123e3a5cb5b28b331831f869498a3db39e12e67b0662beeccef3",
        "composer\/composer\/autoload_static.php": "b86f7c0a2d1a70beff52fdde2c91643d3e6c9fbf718fc9ce725708bceadc7dea85cbd6a55b31c0fca420a07886edb57f6a4ec73dc32f3807fa3dff200e42a2bf",
        "js\/oauth2.js": "754173e4ccb2b241b5cce203e38fd1385c27417f3f9b8fb37051adf4106c0f4d1ac3a632757882f89c4a6491551fbcd7d4944963f1665ba1b0d9fab2a4cf5b37",
        "js\/oauth2.js.map": "8ca10328c14fda1b1e3624c76d8593a348b0b5fc4911b7d11cc34f5af541cd90030517956a6f99aeb1d865b44b85068193659bdd2f478823eb54ceba6134fd43",
        "l10n\/af.js": "749c8d0f314985b4940b1446ffc457916981099a33c8c35722347f6a16cfc26a60105163ad62e41c6cf118209a73383731d31bc880309a60049663a6204398a6",
        "l10n\/af.json": "6130d626ebbd7741c1850d863f12ce5f6687be3f0c6a3ebde243001a9ed1de6462f2c525d130b89258e9966ee4275a9544d32f2c3c60ebc828dd5e7b380cc046",
        "l10n\/ar.js": "df8840c6dd160a04f9a7ba6a2b9571caa6c9a51db8b6c5b7a81433bf312302304f3fac9c35d4e3bb4fc02c54df63157d5c3c6076dc82313bb33651cac3cd0fab",
        "l10n\/ar.json": "e1284148054d6d309637fd659cff90ce6277a4124583e135b32256be8a5f5bc921e735672376eb9f3a0a82c3b59bf884638ca763d1b3304b673f6316055fceeb",
        "l10n\/ast.js": "01729c14df181dbabfe4489fbd95de073e0a97bc904065e9ff827f5f70fdfc109bd7639395be51938c8df2fc6a75f1cd4f0ed6629675f67f6e0bbf064a4140b1",
        "l10n\/ast.json": "87e9bc55122c0fe5fb83b84b934969367bea9119b81eeca884b9b94a1ccd1731d549f13f036d58b01f3d0a3009e7bc8007d4b2b1313e59a5c5ecbd9f803f1392",
        "l10n\/br.js": "3a8f513e047a277b11e41d10b845d9228737f5f33414753dc629fe197d41650e0aaccac257d32106326bbeaacb7814a91f76b92defb4a512e0011932c3d49f51",
        "l10n\/br.json": "3d68db30397f0ae1c4188f55785d90dbfa4047847df14892224ee34911e4a5a1dd9d0f59d12c30373cdeb11982ff736e87312d4018fd167c2bd00e077f54547b",
        "l10n\/ca.js": "308bcb4ff5c2a579e602c496c8a263ed0c424ed03ade90f420fd16bf5ffcdf44bc07f9521687b6586bb0c0168b5a836102b12a799157d8743029102816af61f1",
        "l10n\/ca.json": "de77385a28af3cc595cf3f9f68527a2ae24865226d06ae5f9659e1560823aa0bffac7636ae02c80d566804a952b95e717c910c2b972a9b70cdfef073ae7705f4",
        "l10n\/cs.js": "c1e4c303d4273dbfcbce41d2b053feff2391172aae86faf4ff58894cfd898c78f5f67c655a1064b725748fe101e9964656f7cfd0ea5160bacf8299eefe8503e5",
        "l10n\/cs.json": "8f69fff23a3552ec73bc74617ed558ae82b45b4adda9eb47ce30c92f25e3b6f1a34b3b55a9d027e2a7dfa406b0cc68a4057d34ce597de7fdd3db981355af0677",
        "l10n\/da.js": "a10d9acf9677d7a9e95601dbb5f988674143bcaa81ec6d39e52598a5b5714047e9a3c2ab4a4c61891268be84ed8f1bd7d72bc0c204ce9597385d71c735f56ba4",
        "l10n\/da.json": "8692cbef797e0aebb2ca95832373beb81240fc87acc010340a0132eabefe42a3cf6dc8c143c4f11505e009955a6e9555ce0ddc49b777371ac9f2f307e3fdd7c0",
        "l10n\/de.js": "5dcd88558f86898638cb22684d9d163848b856bb078e3a9f708248ab9166691e542b8e588f744b896f4ba36e47eb5323e7232d1ba565fbccbb471d62f7b01165",
        "l10n\/de.json": "53f43876c981779c68adc78e957e316f5022e7f80d3021b45e961f6ebae3a304b78fbd3814047a61febdd7850b4bc53851e741cc21defcb91d6d7672789027fb",
        "l10n\/de_DE.js": "0453fbc28ae83fee731d0ea914006fb4133229d34cceff489c7d4354dfa3f8a236b5d94acedd32e38a06427500fc9c3fc83da326791c1704b16fe46cda9c8084",
        "l10n\/de_DE.json": "a8dd8ea82cf5f5a8e250a1a5d8abdd27d786a5dc16a5516357fa8907c10462e476b667ad600902b31ff77e30e784c25688810b8dddef308b52396185541ee866",
        "l10n\/el.js": "9f557874ce92da597c4a764195d46981db4bd489037549ae98bb6ef3b9fd5f59c353c2e0c7b3a5cba5c56007b05d43e69abb7b4073d91a809b3557e329264f13",
        "l10n\/el.json": "204021fefe46125928285ef446567328eee8061e6f6d7f523a5886388fc6e8f8d84be1c44f336387a55016b435a84e84692a782e9ab0ab9fa7ba0afdacb860c0",
        "l10n\/en_GB.js": "c63f790e6da72e8722bcecfe1f737ab0f028695ea9e2771de5654c2f18891fcb6630001221f74cf00c23230a0aa062db5c991dad27e75acd5cb6e1329a9de9e4",
        "l10n\/en_GB.json": "6fcb200e625ec73427149a679148f75a02f8e1913176dce805acd67abc72b88aa179e43b3cd9b426fe87ee8773566050ea61f53dad76b2ac392c6dc9e5dc902f",
        "l10n\/es.js": "4d5d70e9548adba25bbc0f65486d40094d83ff5059486c8d3575d6a23f386e833c55f0f9fecd71021607e2d6260583fd84cf94825386a20dbdbcc02a69d8f0ed",
        "l10n\/es.json": "ca63f2f1106d31b23ff24d499ec8f2318fb8e69e28e5b93f38b902c11a75b1ef3cafafeb628cc6c265334699df3b7de39af226e1433be9022e8f38b87106daa6",
        "l10n\/es_419.js": "454e4814043733a3621c4dcecb6e4dfbdb42a0a1f0969465e611ad98a37f05a6cb76090c164bb3bc3c4d6d16f45bc3f6c58ce0ec47d27490a63adc930d2e4202",
        "l10n\/es_419.json": "879fc5781e1d1dadd3560f47638a2b97a81b91bb3b0e5072fab759d4c542c26f075fda0b2b55fdda51ac38246bd7bf733613a06bbbf77cbd8cef875539948c2f",
        "l10n\/es_AR.js": "4284dc7e1a0e2ab3e377b155995254f4110ba55e6d780467ecb258a768ebe2bbfb5854bcb161b809d3f75416b07cf2dec0dd44a4641066b5554649b84653304a",
        "l10n\/es_AR.json": "b9b7cf6dd48875a4f2802ff103eae836b031161dff16aff090e239a1af1d53ec4accfa4c0679c5e636c9a80241c9a077ba387614552604ef4599bcce89a69b3c",
        "l10n\/es_CL.js": "4cfdf1a69cad46c61d28c4444319659c20110f7edb776b6f49c2161a9a9f6b18539b4e3afcb7a83f9b1d94aa442b0868817884547fd3dfb1b33fc4b9922d0bcd",
        "l10n\/es_CL.json": "4371feebe40f405d03007237d71c6e97fb5d4741f4517c85e9de91ee804e8c16f3107c791cedd9223bb60f8ee3458c5a0e4bd70e339c11b8fbce9472edeb8920",
        "l10n\/es_CO.js": "4cfdf1a69cad46c61d28c4444319659c20110f7edb776b6f49c2161a9a9f6b18539b4e3afcb7a83f9b1d94aa442b0868817884547fd3dfb1b33fc4b9922d0bcd",
        "l10n\/es_CO.json": "4371feebe40f405d03007237d71c6e97fb5d4741f4517c85e9de91ee804e8c16f3107c791cedd9223bb60f8ee3458c5a0e4bd70e339c11b8fbce9472edeb8920",
        "l10n\/es_CR.js": "4cfdf1a69cad46c61d28c4444319659c20110f7edb776b6f49c2161a9a9f6b18539b4e3afcb7a83f9b1d94aa442b0868817884547fd3dfb1b33fc4b9922d0bcd",
        "l10n\/es_CR.json": "4371feebe40f405d03007237d71c6e97fb5d4741f4517c85e9de91ee804e8c16f3107c791cedd9223bb60f8ee3458c5a0e4bd70e339c11b8fbce9472edeb8920",
        "l10n\/es_DO.js": "4cfdf1a69cad46c61d28c4444319659c20110f7edb776b6f49c2161a9a9f6b18539b4e3afcb7a83f9b1d94aa442b0868817884547fd3dfb1b33fc4b9922d0bcd",
        "l10n\/es_DO.json": "4371feebe40f405d03007237d71c6e97fb5d4741f4517c85e9de91ee804e8c16f3107c791cedd9223bb60f8ee3458c5a0e4bd70e339c11b8fbce9472edeb8920",
        "l10n\/es_EC.js": "4cfdf1a69cad46c61d28c4444319659c20110f7edb776b6f49c2161a9a9f6b18539b4e3afcb7a83f9b1d94aa442b0868817884547fd3dfb1b33fc4b9922d0bcd",
        "l10n\/es_EC.json": "4371feebe40f405d03007237d71c6e97fb5d4741f4517c85e9de91ee804e8c16f3107c791cedd9223bb60f8ee3458c5a0e4bd70e339c11b8fbce9472edeb8920",
        "l10n\/es_GT.js": "4cfdf1a69cad46c61d28c4444319659c20110f7edb776b6f49c2161a9a9f6b18539b4e3afcb7a83f9b1d94aa442b0868817884547fd3dfb1b33fc4b9922d0bcd",
        "l10n\/es_GT.json": "4371feebe40f405d03007237d71c6e97fb5d4741f4517c85e9de91ee804e8c16f3107c791cedd9223bb60f8ee3458c5a0e4bd70e339c11b8fbce9472edeb8920",
        "l10n\/es_HN.js": "454e4814043733a3621c4dcecb6e4dfbdb42a0a1f0969465e611ad98a37f05a6cb76090c164bb3bc3c4d6d16f45bc3f6c58ce0ec47d27490a63adc930d2e4202",
        "l10n\/es_HN.json": "879fc5781e1d1dadd3560f47638a2b97a81b91bb3b0e5072fab759d4c542c26f075fda0b2b55fdda51ac38246bd7bf733613a06bbbf77cbd8cef875539948c2f",
        "l10n\/es_MX.js": "8236905ea57e4a969a679c2824c2ddbd160bb5e1f00a77e7af77d440e356fb414b5ddc1c913e8f276c1f11a93673615bf4df06a06a29ea2e5214954ac6a0e0cb",
        "l10n\/es_MX.json": "fc5e95f1cc93a165944c1b3dab72bd18fb66110ae0db34bb7702e1c452dabfec7bb89f512e7a1f00293b1691dc5cbe4367afbc67543ea15fc5e3ee5901835bcc",
        "l10n\/es_NI.js": "454e4814043733a3621c4dcecb6e4dfbdb42a0a1f0969465e611ad98a37f05a6cb76090c164bb3bc3c4d6d16f45bc3f6c58ce0ec47d27490a63adc930d2e4202",
        "l10n\/es_NI.json": "879fc5781e1d1dadd3560f47638a2b97a81b91bb3b0e5072fab759d4c542c26f075fda0b2b55fdda51ac38246bd7bf733613a06bbbf77cbd8cef875539948c2f",
        "l10n\/es_PA.js": "454e4814043733a3621c4dcecb6e4dfbdb42a0a1f0969465e611ad98a37f05a6cb76090c164bb3bc3c4d6d16f45bc3f6c58ce0ec47d27490a63adc930d2e4202",
        "l10n\/es_PA.json": "879fc5781e1d1dadd3560f47638a2b97a81b91bb3b0e5072fab759d4c542c26f075fda0b2b55fdda51ac38246bd7bf733613a06bbbf77cbd8cef875539948c2f",
        "l10n\/es_PE.js": "454e4814043733a3621c4dcecb6e4dfbdb42a0a1f0969465e611ad98a37f05a6cb76090c164bb3bc3c4d6d16f45bc3f6c58ce0ec47d27490a63adc930d2e4202",
        "l10n\/es_PE.json": "879fc5781e1d1dadd3560f47638a2b97a81b91bb3b0e5072fab759d4c542c26f075fda0b2b55fdda51ac38246bd7bf733613a06bbbf77cbd8cef875539948c2f",
        "l10n\/es_PR.js": "454e4814043733a3621c4dcecb6e4dfbdb42a0a1f0969465e611ad98a37f05a6cb76090c164bb3bc3c4d6d16f45bc3f6c58ce0ec47d27490a63adc930d2e4202",
        "l10n\/es_PR.json": "879fc5781e1d1dadd3560f47638a2b97a81b91bb3b0e5072fab759d4c542c26f075fda0b2b55fdda51ac38246bd7bf733613a06bbbf77cbd8cef875539948c2f",
        "l10n\/es_PY.js": "454e4814043733a3621c4dcecb6e4dfbdb42a0a1f0969465e611ad98a37f05a6cb76090c164bb3bc3c4d6d16f45bc3f6c58ce0ec47d27490a63adc930d2e4202",
        "l10n\/es_PY.json": "879fc5781e1d1dadd3560f47638a2b97a81b91bb3b0e5072fab759d4c542c26f075fda0b2b55fdda51ac38246bd7bf733613a06bbbf77cbd8cef875539948c2f",
        "l10n\/es_SV.js": "4cfdf1a69cad46c61d28c4444319659c20110f7edb776b6f49c2161a9a9f6b18539b4e3afcb7a83f9b1d94aa442b0868817884547fd3dfb1b33fc4b9922d0bcd",
        "l10n\/es_SV.json": "4371feebe40f405d03007237d71c6e97fb5d4741f4517c85e9de91ee804e8c16f3107c791cedd9223bb60f8ee3458c5a0e4bd70e339c11b8fbce9472edeb8920",
        "l10n\/es_UY.js": "454e4814043733a3621c4dcecb6e4dfbdb42a0a1f0969465e611ad98a37f05a6cb76090c164bb3bc3c4d6d16f45bc3f6c58ce0ec47d27490a63adc930d2e4202",
        "l10n\/es_UY.json": "879fc5781e1d1dadd3560f47638a2b97a81b91bb3b0e5072fab759d4c542c26f075fda0b2b55fdda51ac38246bd7bf733613a06bbbf77cbd8cef875539948c2f",
        "l10n\/et_EE.js": "6475a07c4e3f4aa5388837c244b383d6efa4f50fba70e555d607ae7043283e4b920360c1a09999bfb2605c4d75cb8e131019754dfcca6d22b5f9ee1b9849dbf4",
        "l10n\/et_EE.json": "b6abe143b55219709f330f9b3b50faa50cc57bd30b6426214ebd2ba108106ee8c3727e4f2f091d055eacc8a5770b7a140d9b66cf7af459fe0506050b1453a260",
        "l10n\/eu.js": "9a4856acf75e27f5e8da79762b82f420e030bbdc1a9c29e512074810adc16ed30735335d77b3f58dd92edf098eb92714654723f06534936251d85b3513205571",
        "l10n\/eu.json": "d5fc2c49ccebbcd33f673e8aa960b5c0ac5508ed6e10c4296565e13b1918989f3c144d180d64d4920c54a63224783caf4fd87fa98bd1b536f1335d5aa2983362",
        "l10n\/fa.js": "b938aa0c18d64abdab6cd685c54db27ebbf618db536ecf398f83db90163fb680bdfc44823fa4878fc5e0435484c94c54d8b286486da3f11a09f12e3c57c6c3ff",
        "l10n\/fa.json": "a96e34f2f2eee53b48e7af9de1ca4235360919b2725fd72b71ebb6039350f528236ed60488069e7cbe5ab789ab2327899d7bb944da340173b4f3ef344c9bc6f7",
        "l10n\/fi.js": "d7b9162af20d54b0851d98fd8ce7c35b07c4485105360d57282d280a84081c0722ac900e8bd39fab1952ff64f518943e03c71b9cbd9b51deda4daef3bbaa37df",
        "l10n\/fi.json": "bff745516655b7eeb9faa1f7052289b0556d4690f73ab7df4e070a63e083798578d1f72a11aac687638292024efe0785e06530e418b0e8adc6a4bd34d99a8020",
        "l10n\/fr.js": "2e149013a834636dda3a04b47c3e0886be83ce24117aed3f87cd8fbe7eeeed272191cf85c3572af04260bff529da8795ebfcc17eb0529e8df35ba84859a81c36",
        "l10n\/fr.json": "393a31b71bb7f41c924886e2a4289a3a51743174675658bb099a07e4e55332ce1895ca117bb6307be54bbf5b86fffbfaeddd3029b8f366bbc8435e4a8fefb7e6",
        "l10n\/gl.js": "8c2bccba0c52ed2b1a295ace596a8bfd5ce434f0c071bed01ed239ae91ab0dbe25df84135bed5f664881cda2299524d268c3fae4aba18e777febe19b03627755",
        "l10n\/gl.json": "06b16098c635f5f0edd1c1961fde96dc9efc6aa742f8b333ae9099d8a5570364fc45fa0ee7e58272db9b3c61df2a92cf28892b63c60a44753100a1a2041999de",
        "l10n\/he.js": "40f962495f5235446181a63d975de053c9dbd92057706145930e1d837d69a63c3c4010a6ac22c96f439e6107d84a26d1f03d23668009ea8466ef972bbec840db",
        "l10n\/he.json": "a6310dfbbaa2c2c04392949af29390e8fe672334d456fea90297fb06e38cc83f5f816edd3a3b06541cf2dbdbf85a6580abaabe360302bdb8f14d4eccf0b01647",
        "l10n\/hr.js": "a9a5819df9ee25cc8c8a72d4767a678acee9c10418c60dd4135f2ecf27faa4f34cf4d3973e341dcae89a7f9ba5b2e810e84160424e706bf7f3d1d7233b05ad4a",
        "l10n\/hr.json": "85760335a9acdd55aad6a918f0de7c3d64ed1e22e4e3ee1790db8cb381d05ee77824b7c58187331576f3b36ce157966f48e29872c3d4cd44fcdf6cb516647955",
        "l10n\/hu.js": "ef8ebd23f267b8277a21318f4cf718e6096c8447f145b8ca51509305180b7747c2c93a1234bc9288406d451a1cd2d7723354bbbed00bdc9031c0bbe2909e73dd",
        "l10n\/hu.json": "8d37106c0614c03278f41ae9207a8f14935cc1090561c92e561cd216127983f802209b672b49161046ca8c93e7b41a67e3e8236f09a692319003fc7c6dffeb28",
        "l10n\/id.js": "52e21ccedfd18771c6ffba71790e3fc8fdf874d7c8a58b76e438798e7e5f44109382e1ca50815eb17aea6ee9056e44ef514f35724b2cd6cdaf44c3db6ee5891b",
        "l10n\/id.json": "aa28ce50a62fd3f986ccb985fa5be9094b14513c705d765abc84eb992c14c81e4e28f907f33e538b2417de06d3d1ff9bf5783af0d07708581e7f7f167e7c95d4",
        "l10n\/is.js": "bdb29b53ead8172ef7974deaa45f8dc9f17273aa782efbecd424f13e9aa5313d0d4c0bdefc05cef94c785d8af183376c5a3ddcd95c8ae8f46e3873523309a91a",
        "l10n\/is.json": "961de7216b2ab17272f265a53e104bce39aaba567fb5bd34d1ce005de6783b2b9804e26d2a767415eeb55a4c892a1cdaaa283ff5a038b10602ffb66271b2f543",
        "l10n\/it.js": "c2106ad8e02c6ad2c5d7bd67ebce8ff49081c16c12785eb009c714b26d36e0b75aa95a8d56a7ad55948016a9a0b7b2711260f628312749b55fe639467aaf2c3f",
        "l10n\/it.json": "fadabbd96a573dbd51ece50f79885060eeef637a79199dc415bb8ec040648b530385976e20853630ecda2df19743e251c7f6892dc859a8aaa88a473f0a9de471",
        "l10n\/ja.js": "df1c6fd612177b4bd4e5a6c2e26eb6611f9e6a9498c4b21eddfc7da63cfc3e79668f8b122eec0778d158c73307aaf13f6e5cc08915a51e78ff77eef274675669",
        "l10n\/ja.json": "a632024b2212d95d0951073c2fe5499f243be6b6dc9582c29ea0d74d86e29830d163b3205c03bf293deed207684122754343c6f7a352670da5c9979a5ec76b5e",
        "l10n\/ka_GE.js": "5ae711e904d920b647fda3c4d875b0594afeb4a7507a223e77b6fc08d835671fd9c46d513007d135704a89799de7b086a5b188957a73656b768e897a08b8b6aa",
        "l10n\/ka_GE.json": "e6d0ad75bef82cf41ca63d6c95e892bbc8a273dff519691bf0e87e66e8bf0eb73fbba409e135d9d049dd95247822946a97c958eefe5c68c9612652c99f847523",
        "l10n\/ko.js": "699218de05e0253416c86220cf5be9d284bd15653f318de70fd6adfff6cca1b310091fedaec4ea3667e16e82aade38cae4fef8d8f21e24d9eecd8d1dbec1e089",
        "l10n\/ko.json": "963d9a4fe96e0206336e44537426c2f1c7c3dba434d8548504b6480978b67ac5bdb4d0a28895731ae1f3cb787e19fd667fcd98ff0970f4559d7a515a252c479c",
        "l10n\/lt_LT.js": "69bfb433fc546b866ec88f404773d7200fb72f6982a7c875fc19c347876ec668d8760541cdcf3dacaf8a44b1eea7a5727177d949d4de9636073e2a5d59e5825a",
        "l10n\/lt_LT.json": "6fadf05cb98c508dfd713fe28b1504c0000066b3777b773b4f28f61bccbb234a2246e7ae15598a80ffd0a3a340c368d0a5945490f0c0c1462069b19b5da1ad9a",
        "l10n\/lv.js": "b5ff6be2e4b1deac563eb0dc7559222f3ec5d5741330f3c6b3dacd4defd947bfbade5d16c7f79ba38efe273cf4e06a2846143dfc29e9a291ed848e1ac57e6243",
        "l10n\/lv.json": "036e55b26ed1b6bfc14e224c0a84bdfa5b381a4f6576ad52c14f2162219fdbb7a79cb1398c615123c992f0e1eec97827207aa0f180f41ddfcc9abc2a7cb00671",
        "l10n\/mk.js": "56263635b81f0a4c4731d639d176da876fabed56a88bc75cfbd714ebcdf9daed040096c17581c46a36d53fa7843f6e27b662f1e6aff3d2b0c1e4b96025763d63",
        "l10n\/mk.json": "849953fd8843a3fb59e8eb58c700469f2af289efbb55fb773084fc9014ef2a4e1859e7a8861028ce1d29f0b973892e45872c997f79331879605da6817b751ac3",
        "l10n\/nb.js": "d805b9e9576fb48d0d537830898ec5f05cab99585ee9df28ce08e4856d1fcbfb80bf5229b6ed20b34657d084de6fb6f2812ceb130f479a4577d7d0b741671f2c",
        "l10n\/nb.json": "bb6d3b610442dd6a838cd82c37c6ff78dd2056256f1bca78c79f305feb6e8c51e476737a285ec084ecbc8afcc93567c39fbfdfce9b0dfaff58fe6e735132b20d",
        "l10n\/nl.js": "147c53d9ebeb8ae4889d5fc52fb68c176f134f609502da479194dcc9cdabda130c70bb5ca9ce1fae1d8f7c46a1498d20563ccbc9fa2ecdc231f75f00fcbdf7c7",
        "l10n\/nl.json": "13e98fdb67dd963fbfafadcb4577deabad17e8ec286bfc1a0cf1efbe410dc955c0dd4740bfd8b8a4549a7c9e6dbc662548d636fa94e5b28e2f1ab5b547cc4b63",
        "l10n\/pl.js": "6d9c4c341443745ef3711b2a5ff0bf367c2387ace919bccca16ed22506eebfc42d219a937c6e928411d240199912ecf9387b735716defb404b421f53a9d6fa6f",
        "l10n\/pl.json": "49b74e5d6f44c30ee892982420589bb6aa556e1786d1d7f71c3d45eeff3d0999a1140024f1b3336182b489467105a807940e5fe86cff9a9bcda2ca9e9a56efaf",
        "l10n\/pt_BR.js": "632b293347cc3ecbf35a8b2a8abb92322c8a20d06b892a1f946ba728a828e2b61f48a7ae1659356114823e8aeb79a53c7123ea4e75cc2ffd7f70df2a2eed5242",
        "l10n\/pt_BR.json": "b9f3d9828229bbad5c5aa3e931fdfc38c525067d8505627a6d82042c534548a21a0508aae3696c25db99c7f515cc0fc76e603298d60679c1a7590a14baa6ecd1",
        "l10n\/pt_PT.js": "c0b07ce874f58a9134283c0b532f028f6248d79925ea75c6535c6874534824e022d7f6406e0c64f28d75d5dfda9f15858d2702be3864ddc133109ba436e7df4c",
        "l10n\/pt_PT.json": "2f5d049134fe2df3dfe84895e5de743424554841398b982847d9fa7274749ce89f8f3fc8373cca68af162e6574c9ada3ab8b3ee817d90b7589a0397de4a67b1e",
        "l10n\/ru.js": "e252fbb07419244cfb69c0937bf4f323993943377fb18ffef2cd4bc3243212262e5ce85d09257034172a2acca26d84f3f15a350eb14580102a33740a6222ed5d",
        "l10n\/ru.json": "dec487a31eba2fc9439b4f43988b3d890a2a0b023d3b6d08fed6742d1ab71a08ac4fe1de9447e193d2035126676e7b4c05bd0f40b3c8d9632dc780aec64e1338",
        "l10n\/si.js": "7121c96426a525b829b46117021810263f0e155f28a989e11f3c2f0ae1c1288be7697bd08064bc9dca213a204073310e28016096c7fcb9821b98a55a75646b0c",
        "l10n\/si.json": "a075e422494fc63e4d7ca703d796dc5f046358320b92b5887d77d758f29f497e0863981e2c423d8bccc704fdc4cd9f31bef2c707553a24fbd44902d94a21fb0b",
        "l10n\/sk.js": "5bf295cd3b64e1637ffdcd9141109460af03aa78afe637c0136a683d216a092d331a4ca18a17c5a27bb5cb258f3409473c0f208c251c2b64d8a1cf84888d2b8f",
        "l10n\/sk.json": "270292aa398c2678ef2cede9c9789b397f6bb93a4ba1cde9791656da884288268cc042153ce12b04a30016b83fe0710598ad4aa4f6f598da289bef21a9a49d33",
        "l10n\/sl.js": "ca015005b76da8eadddd642fddf5e64f8ea22c0116651953fb91321b0f7717b3b2a6628f96a90c0c16033be9f8acfb4a48ef5f0ed68201bf1309ac742f4ff642",
        "l10n\/sl.json": "8fd4bf20c039044a27a01d94856c60f26d18dfa530336882a41a75c2c2e015502753002d56c03de8babb7c81b58aebb46c6fa2793381202b69d2b71d7b41aee4",
        "l10n\/sq.js": "eed2a0cbff3580fa71fa8fcf3097d9f55a5161beb5ff8451428e9ec00c4f6b7e09966f6e93f80594f8d218b94e56f5faed5a80b8187c1c22573bcbd76dc19662",
        "l10n\/sq.json": "b349d6fc439a3f2b8e351005f23617a8896cfbee53cb3734b072057affdf2a8795880d0a810ee9ae5f656903e06bb06aa040b28614d608105c5c6db2b17ded60",
        "l10n\/sr.js": "6f43fd26cc01d214a58ee271807e9e9d606043a236fc93ec2ef9a4eac6c661a98628c673df7acf342fb3333fb1ca36dbde5c214868b44cffed5a393763ab9046",
        "l10n\/sr.json": "f2b42b8e1d9187f041fd3db9e800447a5739d50b4540ccb3b93cda617598c0ef043ed668fa3b2674a145f261f3377884eb511b73f6d54bc58b5ba07657ddceac",
        "l10n\/sv.js": "1e495868096032cdcc6e3584c0bd3d08f995e546e4610aca1e80e23e1ebddb9525f32005ac4434f300fbc3255c56ef46b938d85b8f3de09adc786515a67f6c6a",
        "l10n\/sv.json": "f222c31fa21a1684986e13813cf3e6d2ba9e6b8b61f904362e1047d8b74185fd493fa4bb7367db1c2777dc79c76daa5aa75bc62a6711d6f9e21b8daa91b21520",
        "l10n\/tr.js": "7ed962f7142a2dd5a4e7d0a2bdbe062728efaefb3b59055a88e8d1624662a3bb35ada367f099d3f7b9739ccab1ac1abd1598268b91c0a0bd4bd45fd15588f9ff",
        "l10n\/tr.json": "cbf776c7189084a3d5b84c823e6bf6eb40ec31e326a3f4ccbcba44a4d82f881d87785f5bdb8268fb642e8da01f032b44bfad8bd8ee4d979628709e4d951479ab",
        "l10n\/vi.js": "9dc9833afe60e983b1532ca5e3448c90a11b0e7b3f58d8e01fc55648ada3bc13801464644147c87f7e938dacad548e1153e5667d5b7808f62be1a5b2c89ddf35",
        "l10n\/vi.json": "f510cb75d04656cbc2926ba36d84e89e2e0d79f845cd7d4015ac73b6c89de33514a047e4a8b6951dabee0e7482e7aa40b0633ae1bf1debe6cfbfba38c385bf6f",
        "l10n\/zh_CN.js": "735044da02862d7daecfed1a12e1ee1bae18f5b44b0a38e1fce4a88014a7c67ef6f60145c8885e16873d3b6b9e040b518f8fd74a614412e2f55ddcd59885656b",
        "l10n\/zh_CN.json": "086a733ca27b8e633326c558ae0d3b140f4637de2a6265b81e1743b0c393f340bb71e4f1d1c9299d8e5a6577465e5359b33552e5bc87fb43950ff6b9da2333ee",
        "l10n\/zh_HK.js": "7beaab21b797c4e850f2dfa3e2f20744bf2f00473f85ee24ed29be7fefa8ed139406d28f7ff33bbd3abd9a1a7e90a402fceb45ce3ff9c1e992a412d67028412e",
        "l10n\/zh_HK.json": "7a604d2fccc9a0ca9b9484ee7cdcd1d6cac638d9a7a37cead42565e9f94451e93c6b509afe05908ee9ee0b1351803763e56a1579e3989443a2160cf0a0c8c1e7",
        "l10n\/zh_TW.js": "f713673d5f4efc108c89fd64eda8ed7155497695714469d119342bba27349a0131664c4fbe1d424be1bff1c99e31a2b5926c574e76adbc58a92309e6028d663e",
        "l10n\/zh_TW.json": "cdcc846220711c0b6f91e016a1595dd6d5191437f827d5434aadf6316f75b6933c2633030fe84ade3e5a8a7e7a41b736c0ffa5ebd1ca6cc9c82ffe310bb7a5de",
        "lib\/Controller\/LoginRedirectorController.php": "42207f5bac03156adbf379a72d946a523d4d3d38ba425189627e315a59eb8b2611995e3557ad46217565632fce60d7e786796c1afea3da5d1d6426cda87c027a",
        "lib\/Controller\/OauthApiController.php": "a546e88e7656b2d09772607a269277707d841fd7f8b889a7b49ab035affb46def7abe53b504a66bc5f9d416a7b35c1a90b634a08565f510ce7a2deac1a0abfb2",
        "lib\/Controller\/SettingsController.php": "2551f74c7e270c2c17b08ad82a668b2434b1ffe6f100488ca6ae971874dcd08ed557774a13a44ebab08fc3cf98577ed58f3ae4310ffd142dbd5e32b4c9014d6e",
        "lib\/Db\/AccessToken.php": "2c7c4ea41936a1868a06a42a57c581989e25d838f5b18bace3963ce8562abbe853887e9a5e4d4b8e02d11d9c0e53dd57109f0c57c3d5f46bdfee8a1cd10f31e8",
        "lib\/Db\/AccessTokenMapper.php": "7cebf2b45b147e5b8a7270932a5d7f8ba1b4dc60eb1357500c626d0ad208309c640b0b379f38da62dce7f6d71542512d2c5f6a31183a5ca6dc3d9ca417b0da57",
        "lib\/Db\/Client.php": "991939301d358873c605a186834b9fdf10ea27e39cd2c5237a8a67d9546e9c3868f51ce3fc4b55a388af70e97593f1aa30a82699c62ba115b54113cdc2aef089",
        "lib\/Db\/ClientMapper.php": "45a2d6886f86c2d7f992ec7174d010c2cdccfc16f66365b8754008afca16ec3c3d265db472fc45a86b4266d3c1664f92ed51299e602d07ba01c653b46409ba65",
        "lib\/Exceptions\/AccessTokenNotFoundException.php": "dc1f715d769ba117d7374b482525c2dff4e87b08a4589bb44209a80ca3d23cd6814e840543df92f5bd2a9119cbd85bb2998780b5a3380e088429a36ab2f9f049",
        "lib\/Exceptions\/ClientNotFoundException.php": "41f92d989382fef464ff4fcf5bb0000a30f4e7893c8c271c6f8b3db368e6f5b213a7666b47c2b0547df12a8f4ec41b09a5f2206f35ac76513867f94125ed4a17",
        "lib\/Migration\/SetTokenExpiration.php": "0a054ee79636174f586fc7a57d73d0e2414ce9ca5da432032769d46602bfec9bc97eab8a41f59d3bf01c64edaf380cd035b6b43380213daac0b54132930e0c6b",
        "lib\/Migration\/Version010401Date20181207190718.php": "4c5810fa3a063da16714079f3f19e1b952cc3e1895c560b5c24eac97e85b0bae7e8c160ab9bac950f0e5674242953a0418912bba3c1fcb3db45fbc7a45ca320a",
        "lib\/Migration\/Version010402Date20190107124745.php": "1290d652227f0a43e03516dd0deb97f09a808986bcc02faee108e74ab34c67170553d5922a49aa929999eeafe13f12d7a93011c6d4b05665a6f4f45472068502",
        "lib\/Settings\/Admin.php": "37e2eb603cf6aa1a19ed6a92334f290b643e40ea9f188908bd1bf33ef54e088813a1dbd830e76abcfdf305027e15a7da02ff884bbf422d393a07a653178898e1",
        "templates\/admin.php": "60088e8ddda947ad6a456e476107027e17de9acf4f7e273278980d1aa2f847fa5262e7c4bed00b913fb049ec142e1c5b06c704fd2e69dada76d0d4ff31928bae"
    },
    "signature": "zz1859umH5h70UNlOZs3x5rgbQkS5I7KzuAmgzPEjWOtVZ3VEamUO6iz+AZyycQR7HAljMwmsIl5P2lFDXOoG0gH4fv6Pw9nqtyV3qbnt++DGQZOmJwdykxMeDf7FUbbQ6PEZ8eSpDLRutO+pqJy45KOMhgrEcgE2+6sez1tyP73e6JbRtZP6iiposxvGjdYE43NtkHisPxtJzzealCYSbZ4U9LxuLJb2qeRVnU7mg3jY05rLYZuEeSeHdz\/KjcAtqJ\/EVSKz4ZHoLZwUUO4ArfmBAMqlMDSm60AzDw1le\/qk606k\/qArIulRTQxwVNyRA4NoIXscO0IdJLYZN3wLA==",
    "certificate": "-----BEGIN CERTIFICATE-----\r\nMIIEojCCA4qgAwIBAgICEAAwDQYJKoZIhvcNAQELBQAwezELMAkGA1UEBhMCREUx\r\nGzAZBgNVBAgMEkJhZGVuLVd1ZXJ0dGVtYmVyZzEXMBUGA1UECgwOTmV4dGNsb3Vk\r\nIEdtYkgxNjA0BgNVBAMMLU5leHRjbG91ZCBDb2RlIFNpZ25pbmcgSW50ZXJtZWRp\r\nYXRlIEF1dGhvcml0eTAeFw0xNjA2MTIyMTA1MDZaFw00MTA2MDYyMTA1MDZaMGYx\r\nCzAJBgNVBAYTAkRFMRswGQYDVQQIDBJCYWRlbi1XdWVydHRlbWJlcmcxEjAQBgNV\r\nBAcMCVN0dXR0Z2FydDEXMBUGA1UECgwOTmV4dGNsb3VkIEdtYkgxDTALBgNVBAMM\r\nBGNvcmUwggEiMA0GCSqGSIb3DQEBAQUAA4IBDwAwggEKAoIBAQDUxcrn2DC892IX\r\n8+dJjZVh9YeHF65n2ha886oeAizOuHBdWBfzqt+GoUYTOjqZF93HZMcwy0P+xyCf\r\nQqak5Ke9dybN06RXUuGP45k9UYBp03qzlUzCDalrkj+Jd30LqcSC1sjRTsfuhc+u\r\nvH1IBuBnf7SMUJUcoEffbmmpAPlEcLHxlUGlGnz0q1e8UFzjbEFj3JucMO4ys35F\r\nqZS4dhvCngQhRW3DaMlQLXEUL9k3kFV+BzlkPzVZEtSmk4HJujFCnZj1vMcjQBg\/\r\nBqq1HCmUB6tulnGcxUzt\/Z\/oSIgnuGyENeke077W3EyryINL7EIyD4Xp7sxLizTM\r\nFCFCjjH1AgMBAAGjggFDMIIBPzAJBgNVHRMEAjAAMBEGCWCGSAGG+EIBAQQEAwIG\r\nQDAzBglghkgBhvhCAQ0EJhYkT3BlblNTTCBHZW5lcmF0ZWQgU2VydmVyIENlcnRp\r\nZmljYXRlMB0GA1UdDgQWBBQwc1H9AL8pRlW2e5SLCfPPqtqc0DCBpQYDVR0jBIGd\r\nMIGagBRt6m6qqTcsPIktFz79Ru7DnnjtdKF+pHwwejELMAkGA1UEBhMCREUxGzAZ\r\nBgNVBAgMEkJhZGVuLVd1ZXJ0dGVtYmVyZzESMBAGA1UEBwwJU3R1dHRnYXJ0MRcw\r\nFQYDVQQKDA5OZXh0Y2xvdWQgR21iSDEhMB8GA1UEAwwYTmV4dGNsb3VkIFJvb3Qg\r\nQXV0aG9yaXR5ggIQADAOBgNVHQ8BAf8EBAMCBaAwEwYDVR0lBAwwCgYIKwYBBQUH\r\nAwEwDQYJKoZIhvcNAQELBQADggEBADZ6+HV\/+0NEH3nahTBFxO6nKyR\/VWigACH0\r\nnaV0ecTcoQwDjKDNNFr+4S1WlHdwITlnNabC7v9rZ\/6QvbkrOTuO9fOR6azp1EwW\r\n2pixWqj0Sb9\/dSIVRpSq+jpBE6JAiX44dSR7zoBxRB8DgVO2Afy0s80xEpr5JAzb\r\nNYuPS7M5UHdAv2dr16fDcDIvn+vk92KpNh1NTeZFjBbRVQ9DXrgkRGW34TK8uSLI\r\nYG6jnfJ6eJgTaO431ywWPXNg1mUMaT\/+QBOgB299QVCKQU+lcZWptQt+RdsJUm46\r\nNY\/nARy4Oi4uOe88SuWITj9KhrFmEvrUlgM8FvoXA1ldrR7KiEg=\r\n-----END CERTIFICATE-----"
}