{
    "hashes": {
        "appinfo\/info.xml": "694ab06515c0f122abad2c6e0bec01bbd4627d0eb425cd1eab7000c5705c03e7ebe385053d03886b2ba0fb4acbe4a7c9f2fcda065bda0dce8c4b8c21f190ccc9",
        "composer\/autoload.php": "1ff7a041771b2b7f2e38b70ceb77f795572f40bdddd6d34800d195aac7c1561246536bf07ace767793d5d38caa87a6cf06f4573cdb043ff6cba8b9b602a329f8",
        "composer\/composer.json": "313256fbdefcdf996284d4275a3fa35caaa698fcef0ea4c31fbb31efa7095abfdf02106a5b97a03dc3605e826ba5b209cdd1c4027f4c70f4649f8faf9ffac07e",
        "composer\/composer\/ClassLoader.php": "2b6fa585122ace1ba816410acbd8372cb75329917aae6363dbad48e396cca581452616e1386a2e445a8fbb0e461b988279103f4f89adf704bce7726f761abf0e",
        "composer\/composer\/LICENSE": "f3bb64009f41a425df5a9bbab53490f0eb9b74fa8d6aaa2f57efb928edc4ffff330260666edeaa04a91fed708c3663371cf01b284f3a08d6698aaef7a23f355a",
        "composer\/composer\/autoload_classmap.php": "c6ed7a12d5156d2984e23edd48b4cde97ff05a2ccdcccbde1cc29857e3e898c95beb151422fea73ead0ecf437183374eff6a01426dec98e9d37abed3b7ce810b",
        "composer\/composer\/autoload_namespaces.php": "dd8ee31d2faa9014fe567e1f954b5e7f450cf06feacbb96d4df663c59b1a36a0b7d26ad41b46354bd14f282fa7899298137208d1851099cd3ada285650efd90f",
        "composer\/composer\/autoload_psr4.php": "4963c0e6a7ad9d7af9c1b555ef71406024b9f24177ff025e1dd517592f7d37b684ff43f7b0060f73d3d6ac440675eec59d93af802396c540cffc9ce00886331c",
        "composer\/composer\/autoload_real.php": "dfb0fcaaed335d3d5fc82c90113f02e24d74206965edda91b4188bad0bf0f8e9389bd83fb1824f762bd3a46e5b809824c15f87d98900216a35cf9318d49fd7e6",
        "composer\/composer\/autoload_static.php": "b21a523481aaf14e0ff46cf5a3785def2046346bc16772fb33ff9b4158017ba58654df18cff62f6a07c5bcf36f72dd2c45ba2f6a4d22cdbac3fbacdaa78f0d9c",
        "l10n\/ar.js": "e78976c2b4db3f0d9b6e1d37a4e6a3bbdc2c2f14a91b4a2697db3b63b186a898f0aa596a5607c70e4db0d29036389b8f6a7145f9a7b438d61e52a5d91d61dcd0",
        "l10n\/ar.json": "41b6ac31df1003dc37c8964883f42d2f76c9683e5e68cc58aa14a89b966cf594e3ef784e94d85ebb2d5964d6eaa694f545443c837f11a92851922a883b75fbfe",
        "l10n\/bg.js": "4e4c5857f6e39109a5e03dbc11cac701759dc050781f7e10641eafe7c9f25bce366e86a7db4eb3cef75ce0e57fb8dae58e632e6116f6002af034c3098650e964",
        "l10n\/bg.json": "54b5ed87f13126b93706728e89847957ef2b6358fb98eaf2f75f59bf1605a177ea71c3ffbfbe7c68b3cb44421ec27fb13a425727a969915c5af22aea78640694",
        "l10n\/ca.js": "e69f54039b134e5e8fa40885cb23182c42ef693cc24df4cf830b66e7516d80035527f515cc7794295a52bc556f8f3009de8766c3cf95d32c123e452e8de5073e",
        "l10n\/ca.json": "de3540ff3f4e31339268588244edefde525a0567c21d46d087637882055b627b9064a959a51afd472cd7a77634ab30ea43aa0878b3763b30ae5c92581ac0c2a9",
        "l10n\/cs.js": "c3daf4bb98e5da6047f783c6b2b5c85d327389cf0ab1f385aa03a963f520048cddda744dd876e07684882500095a11b42a097fda736fc4c262cc4ae1fb363987",
        "l10n\/cs.json": "ed8e588c91f108cffdf9a1a2752254e4e9ade7cf20967c4153f55ed5557143f19079cdf7b71283d26ab610dd50e4b9bb3e83ef1f173ab7ff04c8b4020d9c7774",
        "l10n\/da.js": "33e06d75c1c36dbffdf3f65c2321de8146dfaa8845d3bdb9bdc860a0bef1ad511fd3eda84379946d7f9b56f776437bb5f400cd83b2b0081b033cd1d34c95276a",
        "l10n\/da.json": "5b5a339cac045462b3f4b24a389d22a82d82e6cb56c92b4d55abe7262c71ecb10beb0bcd38a73d5f60556b930e2bdedba2a59ed9de8274dc2f5ae03f6e6a0468",
        "l10n\/de.js": "0e0afe856e99947b36c9360e4466f9e217a447d6f04432da39264ecb98ab13cc2ba0352c36a7ee67ad5365adecf666f1a55a5f2ef99f303004ea8768fe47e450",
        "l10n\/de.json": "c50a7cad5415fdce28efc9d4393505dfe1fef92f75d6d539a261e99082caa3226992805ae612e5127e45943755cd76afd0a160c99132d555dadf9e4ea3eb45d9",
        "l10n\/de_DE.js": "0e0afe856e99947b36c9360e4466f9e217a447d6f04432da39264ecb98ab13cc2ba0352c36a7ee67ad5365adecf666f1a55a5f2ef99f303004ea8768fe47e450",
        "l10n\/de_DE.json": "c50a7cad5415fdce28efc9d4393505dfe1fef92f75d6d539a261e99082caa3226992805ae612e5127e45943755cd76afd0a160c99132d555dadf9e4ea3eb45d9",
        "l10n\/el.js": "336b99eb29c8c14cdc227d3c1a88d1bb9b180faec8f9b2fb00fabb961410d80973c19fb3b76f55a978f7f8e15e9e7ee1b745936a0ed6d91cddbbc26c70077e7c",
        "l10n\/el.json": "e6d95212ee3c6dbbb215958f27212ed3eaabf59bca90d82a6bb058836e0da9a7c3b9e6312ea19e93e9d5a65fbf828340de853583d1deaec1fb6bb2ec43269fb8",
        "l10n\/en_GB.js": "39bd32dd29fadf0fc5458acb8f60ad752f38fa493ec1125d011c4a5fd28d74e7c0f2a77f81c1e990fb3e3d08ea64416608716de837f43284d403841f7a721755",
        "l10n\/en_GB.json": "681fd2890bd3482c7b71956fd3276891e8045f1e3f38d4451d12ebf9e327dad2f11ef669277db44b2d090b4dad73a069672709cb6f94fe49e1a2523ccd5c6c57",
        "l10n\/es.js": "cfa50c5ce812f3c697e5ed0fe64c15c08bb09e586e21a20751543c9cc4174fb39f6b1fc712f5d8080c4a44eaf3dc309c51328c3a7fa94035710f021a2a187c21",
        "l10n\/es.json": "30d58183cc8256b8293cbb6c4864b865e5c4e4cd49c3ed0131e066883808098ba8bdc63935a75cd28ea6fe5a9d16cbc8b6d6080ef86d9bd6422c16f4b600f818",
        "l10n\/es_AR.js": "e9919ffd2209c18555014c38e2980e2c11123813a13aa0d3742655cbc7f1a2be2ce4906731c320ab6d2c77e394d3fda6ec864c16663d33c5d0b91e358d47d179",
        "l10n\/es_AR.json": "ab434417429d49b7ce5e6c217f916a3acd2a7ab5b2acfab4f744211ca07c6b9050b555d7db94ca10efd6c1ebb03b060e176c89b872dfe0297c3f4c1485c05748",
        "l10n\/es_CO.js": "b2b6afe3631001ad6916ae97a5c6e95e7b0493ff96f76daf52e8b763fda8d9f40c3c17c50a4f5b797f84bcf07f31a20a19027385e58672ca7bed125748955f7d",
        "l10n\/es_CO.json": "a463915221c9dc8fd3471801cc9d13bea70c12cbc50d3e8dca4021e7e1da682eade325e71272dfc2da106434a15ba782702be24aab6f14c58ff8fd7adfd2652c",
        "l10n\/es_DO.js": "b2b6afe3631001ad6916ae97a5c6e95e7b0493ff96f76daf52e8b763fda8d9f40c3c17c50a4f5b797f84bcf07f31a20a19027385e58672ca7bed125748955f7d",
        "l10n\/es_DO.json": "a463915221c9dc8fd3471801cc9d13bea70c12cbc50d3e8dca4021e7e1da682eade325e71272dfc2da106434a15ba782702be24aab6f14c58ff8fd7adfd2652c",
        "l10n\/eu.js": "1fb2b5eeffb4d42e343b045ba0ae22e387a58ce48cf6ee66d7bcc354ab1e45d4d6181a567b0396e28ab9ae1f3529dcd01a54189f4521405e0fa74a9a8e0d0c6a",
        "l10n\/eu.json": "936e17ab5c750d06fe5930f690031759d628a3611aaca2267f045765cff848083baa6ff3bf4a80a3dd9b192dbc1feee0f8371bb4661cfa147ad00dfe0a394eb7",
        "l10n\/fi.js": "dfff49c5cf7cca524de389c1087139899f3eb291d4d13c15e79582fc7a518d2d6cadecb0e5142fe2e1211588963f78e8665aefa69810ed5831107b4f14da2517",
        "l10n\/fi.json": "6d670c6c6df89bc99c32d08640eb888ce8db3d0f980b5885973f1e3d64151503ae6c27eba82f714ecbfa928a0e33fab25b5e6ffd9551bba057e4eebab6702513",
        "l10n\/fr.js": "85c5438e6e1ba14aae718080b540bd56846bfeaac2ff33172d05555d264198d5165d7da18e419985fba968411d421411733cdcc01de359352224dc1153f03245",
        "l10n\/fr.json": "934d0c162cb5d33fb9c47fa60251064a40b3ed1c817f0a92b9dde3d5d8e2eab9b3b4dbc4dcc03b2d688c36ed8e23b60206d349517f584d951bfc492d72b00d98",
        "l10n\/gl.js": "727db3f0fb0d0f0fe2652d1f3210f7de30ac13eb02c26c103d2cf09f7557468d364f1f54f452b5d68e1564b473bac68812860c3b6cc8014508e0c8c2f97aafcc",
        "l10n\/gl.json": "ac98f1de0fce515715bf6d2e09f33d4b05a156223ed3125e0807b88761130ee84838a6082e43ea26f4e316fef96066fbff4dfed6c1f14c40f540a13728bf2ff4",
        "l10n\/he.js": "7790c46f19bf8613b530e84da6a4de1c2aeb3ec18ee6b167607ad0994c704be2e39ce68df89e6755fc0728fd3e674623c837f6298f1722c89e8b694f3b819175",
        "l10n\/he.json": "db1957eb154a2d09785f13663d9e780fc2e5a00d3b2a8a24bca27c73d97beeab9ff43c720f7b1e88481d84e49f4a0069a26ec89da30b206917ab6dad42101406",
        "l10n\/hr.js": "579b196b803b32c212af912e83693bf82ca88ef3a28fbf392988ff6775784b892f6e5b8419e5f397470dbb571407d00f8c9f9f04da2fc016901890486f289877",
        "l10n\/hr.json": "7769883392c5e0305dc5d1f8c2fab7f31f4438a7fd967b9ea1a21e9d2040a99258291b0275e0494eabe50723775830da0656dd1272583f665628a0655531e956",
        "l10n\/hu.js": "9c90800e6148cfbf37444af1d91faaeb617b896d0bbc4fdcb9c3c85f46af1730659be66ef64b77c635dad98f3d0cab9db2383de2f56cb2b19d6f594ac102a7e1",
        "l10n\/hu.json": "262b88bfded4c1fd1d89bedf2397691b27aed70d965ddd435652058aebad9ab8e252fd21ccd4f41a78681d7b4ab564a8e77cb3f77c94a7c2e752b8d383c1361e",
        "l10n\/id.js": "21d0c3ae389efb8e6968397d21fea1fd738a4e83e9d69836f576ec1b06f15189fde33301a44073d725241c58046f2c026c7aa91242e0ec8ba07fd7ee03cafe4d",
        "l10n\/id.json": "40b42e0326a3c82fbd3178e78c4538c1ea6a81ed71bada42be3abf3862055ca86b3f657312c8e2383ce510072d5beec54278d7aa728ad71dd89f1e0713359bff",
        "l10n\/it.js": "2177d1325991279f2a6eca613327b9a763f9d975be871d0c4b1a2edf76a7d7828cb8920a5df25a6300976f8a3a9173cccfdb44b9006a4f5232c2b78498654d1a",
        "l10n\/it.json": "590b7dd949f7055e23ff7e90e887c56e1ff3aa37d963c51043e48882c3184841adba2b42bb75b63f7af3b0dc03d767278b9b8e3aecdbd44e159d5b1b7d7de793",
        "l10n\/ja.js": "33a01ac9d11cf3870c9cc640d54b6ec17d71140b649e9cf8fb923360a6acf8be0493ca1f68e2b7a9f9041a0f94a58831df955eb1401282b2a950bc8e1ee69eca",
        "l10n\/ja.json": "06861a67c66e0102c19265267d011e3cea928d0d5c2030886f49b616d50f2ab0208057c8c09bcc4c2c3567942678d72a3c0353137153e91c76ca0d4ea6bd8678",
        "l10n\/ko.js": "b17af078ab50f5db924276c48c2e96eee778c9f59f2dbff5e8d9f2075966a2009704ed4c2c392f1c4c8139f5a5d7fc6f608c9dccb15896ce81d639a4a864d276",
        "l10n\/ko.json": "ea07c1d008aeabcf94419b8f1906d2988a63b919f4cdbf2bf5146de91e91c8e7884e3660ef6cc962607166edca685e2419b9ea72d9bbc56251f728cbb5ddc1ab",
        "l10n\/lt_LT.js": "e1cc1f544f1f848813d0835dfead08ed7fb5f8350a6148fc04a29bba04d1e73f7ca3a1ba31c9a4df6b476773f189d39aa1202e46a781205e78ed51ceeb60de2e",
        "l10n\/lt_LT.json": "ecb753a0e106c82408878d48dfff949d4a5616c18354989034c14c04e24a1d6aafe526644689a909c0e606f884a561152aa65c5c138e757881d8376c582635a0",
        "l10n\/nb.js": "d1ed629b58df48dcdcd21ada7db0bbc95f3d37a92bd0d3283db3ceb0d0cf19f7b4ef3f6809e353f3db816f1bec2a143af2dc33388f69694d040160c500e99078",
        "l10n\/nb.json": "84bf9dbcf9930b418dbbc131be373f7e9ead21553a12ee03aa1c3467aaf40dab2b52aa14ae2448ceaf0194b5c17bdfa819b6d375b2452febb633c67c2ee87254",
        "l10n\/nl.js": "80b02070776e67a94154d2e4c37909a83c20bec406fbf9bc572905a52415229374d678471a47de805f97945af2ee25ca9e9902c75bac0de95dcd688af7ead683",
        "l10n\/nl.json": "fc46a2432c3d52241a4a4a359463b967fd3c6da9417606239b53461d3822bdc36713e0350fc229259736029ed06eb83215599af80978282f3f48ccc7dc099521",
        "l10n\/oc.js": "f0195759349dc7d386c6150164eb1d7a852339a4b639aae1380998623cc334fd1ee0aa50ddf3d7ee2887ad97fd5fe17e56760f84d3eb8f69374da8df25c43018",
        "l10n\/oc.json": "50dcd1c7c00069c7146e0d6d4b3a060065832b28e1b2ed75e3cfbb0689489a606db56008fb0dd7656624bd3e8ad086cb9d041768482f2bfe4a768291cbe70a2c",
        "l10n\/pl.js": "af52007eee3ac9a3c5a5866d84b5e329b30be05cbf74daa5c21a42d79f6145b6c505af429e3a7f20c90673f3127c4da3b95656d2d7332ed4692262b0a3bcf766",
        "l10n\/pl.json": "83eb8f11263fc32c8ca065d7ed8f828bc866ede3ba060ad7a5368430d1164a675b2202daefa80355a416259db4d8bb9aecf6a5264a5d6a5ed94c9bb25cff20b0",
        "l10n\/pt_BR.js": "70a1a97604bd68a7a8b1d748505d57179abf0c7a2ff3d40794fd3d367461c689da5067e4ae17fc449970deabfad7b7c05917b789d1d7b3ce2d25edaaa6f68a50",
        "l10n\/pt_BR.json": "74a5c66953206b14daecb1cc84a06d8da0cf7d0c1ac730be292925b504c2fd54b2b3ce96d944f4464535b21a9221173c107a59fe8bdc5c13a35e5dd45015f5c7",
        "l10n\/ro.js": "ae8da04b49514ad7fe4decb80d6d73d873dad8582b8c1b11a93bd6a76b8c23bebfd1fbe2b005648c0cd8b4dd41c02a8c773a788517010682f8272e74b126eeaf",
        "l10n\/ro.json": "03b5436a1e70627cb90d5dda5d1a675fd5cd310a185f392fa73d354e0f4058674f8f046e9af98ce8ecdff2ed254af7e46feaa12a2323d698a2e00c3de0dc0f45",
        "l10n\/ru.js": "41b50a53daf4bc2965720728a167ef0db13678edcba4245bba7604c27246cd0eb77c2b4191f8475fc053ec1a7621f4d6f98a15676c46c894d780f896942aabb0",
        "l10n\/ru.json": "bcafcad2b75adda612a0f250f9e7e8ced65007ab33476ba4127be045e13603856d9ac9d45a4c8aad105de9d5c910142b0a2879bc314069f195cf58115886cf24",
        "l10n\/sc.js": "88ec970ca6b26e4fc033e9966d3d4de3230de80a0f1026fc0a33e3d56ff8f98bef70af2d9e680f74d294099528378a2b7122f01bc2db0013dd550be62bc5dd0b",
        "l10n\/sc.json": "2b8f4512da62297a657030640556ea709916e643e7c7421bc5586445fc88354f3fa93abc2dcb5409842f7157497658e9fb26c2fda65aa74419b76796c55b2f49",
        "l10n\/sk.js": "360641eca42a97949ecf5a1ca9e44a53b1ca343d0b6a1d865f89adfafbd9c548edb2df1a23f19a83ac77c448293461debfbb66b9abebceca8cb6c8dc454e57b1",
        "l10n\/sk.json": "6731637f988ffc557147aaf2559332b7f4b2e1b6d743dc92a596f0f2cb8d4620834bb01b6196dfadeac3f18cf032fda1066e790596570acccf428930988501c7",
        "l10n\/sl.js": "d0ccc596ced58f84d957bb0cc22cff4eee019ab87ca45eb55ec62806945eb24cc83a46d4cba704b50e4893b3f1eabf39a848c3264bb6d146202cc18b6729361c",
        "l10n\/sl.json": "ff92f35e47dde623f4facac011584bd6daaa7ba3fbe04fe0984fa18e8185d558914284ac07db627c4432d76ffd662b8390586304516fdfa20d224638f0215426",
        "l10n\/sr.js": "232d39b8f36fd3dda2b0bfef13c67ca13d3fa0fb6339cbcdab0b2a332049f4b4e9700c9e6547469d5e6539c615ad57adedcc3266ca054392bf9bf6f88bba4714",
        "l10n\/sr.json": "bb5aefb1c9bb79a81520b9d8b96d23eeaf8344c03a43fd55005a81118397a64765f6ed9794529406168d17ee4aae67ebf7ae840678d05a6537ed46276012be85",
        "l10n\/sv.js": "c665bde16c9446037ccdd5410c069c7caba5d20099b47427387af0abb6554a9e2a98f9b4927eae96b5119a94864811358f243d7f114a65389a682bb30526feb9",
        "l10n\/sv.json": "eb07e730e2da51f55f621fb33fdc555f10163b56aafe1f536009aa2b3da46adb8bbbe528fdeb7ad03f8253302801813fe95a7f737b477da616d3f68c9d3f0e91",
        "l10n\/tr.js": "742fdfe3ca5baaacb30cd8763272239ddcea9330b0f88bc8326a290751b4e56d2717d80fcba4304581a68da7322ae9a02a0881e0dd9bd80697cf66742ec1206b",
        "l10n\/tr.json": "81304007b68793b1d25c38fe45964a9931eced876ce1d3a2be771114528e332ed144556e6353eae319f83d0c3b1295f3b84386832280eae49f953543346356f3",
        "l10n\/uk.js": "17f1560ad3de7369a014f18bc73acc87ce8ea19280d3885e1eb971a5df1547b0054542c5296628d9655aeace3d81c1d97ba18959ca6777f6add53773ab9b234a",
        "l10n\/uk.json": "748a2bc515d51a7f4f568456a9d2a7c619dcf5909f266b521396c1589ce0dd65ea8e687f5e2063c67d1fb9a9b884d7575c89f011700a142a00a6853b55aeb6ac",
        "l10n\/zh_CN.js": "990c7a80ecc8ba1b44c39272f7e1aac0c93326b5b4eef8bea138b7ad484aae80613c0808df7a4073226297f609f359bcd54f3b3e96f7074bc8023ca612177ea3",
        "l10n\/zh_CN.json": "7447171f2a3550eb726012fcf0fb3d1b013d5f5199e947d34b1785a2d74f9f44f58360cc5c42993c112225ee1d9fff55e64659f72bfde5a3abfa432a43e6728e",
        "l10n\/zh_HK.js": "291f83cc4973240ec14198986d6d02a5dde460a606da011df423489d725e0ccc264f65f343b9046a91d77c3331bb9b7958b5f146e06d0005b1b202ebac13a9be",
        "l10n\/zh_HK.json": "7f9ad6251013cd80c94210f3b6ca1117d2c75cb28f14bf65f0e5c8ceb0df8580a05eed741f8e7e459f4dd96f9be7f2578ea5ff383d064850e2ba72dc4ddf85a1",
        "l10n\/zh_TW.js": "3d55cf0e89caf1a3fb9e85f6f81969bbf66070ede8d380029c400a9313cb712cf42a6f9bd40fe43f0207ca05ca6b1c77bbe41e2defe9f0eae43e32eb880dd469",
        "l10n\/zh_TW.json": "6b3844a84a5ee897fddb909b55ee95ad0ed16bc053d9df21140e0c09033fe4a8f0f6199c057dac8b8bfecd729e6a0d5f67c220b59d09477f4b02b097ca78ccd7",
        "lib\/Actions\/Action.php": "9ccfb2b6890109a2b4b5aa8a1c8d00f09a4da52fc78df33a8bcc73504b9d3b5d72fae75443e566221e7cdd7d327efd81c6907e1c2de6f9ecd50de293dfa1c797",
        "lib\/Actions\/AppManagement.php": "65fde54bc3c74a223e8129f093e1aa22349950985d3f32240ecf37950eceda0f5d246d91a6cbc93a7766496e68221c681e0f4263559b7b8f8941d7daff8f3f72",
        "lib\/Actions\/Auth.php": "6a2b7542bdbc33036cf0f07c53f67dee659189da987de5e2c2d4eff7fde5da8245a9f0953b80650ec299b28c1d1304f9d801b7c5bd9fbd546f4403e3fc4dc1e0",
        "lib\/Actions\/Console.php": "3a219d55a0de8beba6f46e8ab62e3f9ef09cb1eb09d06c60ceec1e99f218bc9d0071fa6eb87ce65838d9df9f65fa7bc7fa46cf46277448b3374836faaad1e02e",
        "lib\/Actions\/Files.php": "c3ae674b19601f07a6066cdb001c6efdda8dfb36256141428c006acdebab5bd5cb57a2d6fb7f18efaa7e43487adbd914dceaa91dbbcf598a0afc9dba06b9bd2d",
        "lib\/Actions\/GroupManagement.php": "907d1a6626ee5acb915d8e4296fe896b6acb0b8482cee8d5d5114d37aa5a6d3dd6b0eab4c3c827a40dd94f8bde8aa73e5daf5d5b562f2f6c1129996b1ab78f3c",
        "lib\/Actions\/Security.php": "90080ed4aef2d965033dd18c9773d1f69d2ab5cf1b1833f949a4e9237472b7fec7ccbf94608990d9ae13f6fe65844081dd7bd699e94fbc6bfc5472eb06f477cc",
        "lib\/Actions\/Sharing.php": "b2e870f1e212975c72de70eeff9dd8c76936395e561b47b964d173c91140fd1bf479f814459dda2af5ae035becb74263ec9c60bc6637b1b8048efb652b8a7684",
        "lib\/Actions\/Trashbin.php": "e1d7ace498f8f5e2a6e88f1327d8a31c76249bfb088baba0707095b19c5cad1eae12039171b2e51d77dd4332d45e410f4fc4b49a29a0750340cdde7351844ab0",
        "lib\/Actions\/UserManagement.php": "c38d95630be9a1c0419f39d46df6716b2d247650128f841e97421172556c31b47d95198a307fae268b645a37bb48ba8f86d159553392c67bed43f3cc1c40b3cd",
        "lib\/Actions\/Versions.php": "3a3e23c183eaa763417dc8145cc2b7ae2fdca6559be4d5671ca1fce821b059940ec703ba6582a671498882ccf3640262d17951b5ade7a149ad1af4703156a1ef",
        "lib\/AppInfo\/Application.php": "d1187184dcd59a32a7c2f186d5ce0fc0f7b712495c9ec3e80c65ce3396b1568aa2d6464018910568b38d77c08d079d985c69f1a5f9eaf395742e36468823baaa",
        "lib\/BackgroundJobs\/Rotate.php": "db4ed3f91631eb3bb8b289157988dbc248606ab96ca08c2014b69e3bb87d045a27474a53cd1b33068c4292ed2b8af4304bf6a8bc7d0139071fe0c5b3d1c83294"
    },
    "signature": "G20gMe1+mglVhYWkmdCWrjvVy59ChFhOckSKP9djeNtLoN6nzJhQ+lLD4wgCRzXyPzlEdXLWzYvEUgZYA5bTT3vAksl8dSRpbL59m3AaJhbvVzWv1dIA8PILwonJkbrmGZGCtM24NmtktYsV3+XToSe8GMDMSm5nOow04vDx69ZJfVY8Te4E22CHdx6405rc2nZ0HafwEJ3SBAViHEy+tNUiMXjZ+vOlJGlYyPD+MDcTNirbKL18TxOYcVcoN+2ZX15abtnfVODK4M6q2\/owqxeJUAgRq3kP7LzYQPE98wjSbNYg0eScd9Wgs1DFvWKOvIhrhPRcl1TVAO1nSM9cUQ==",
    "certificate": "-----BEGIN CERTIFICATE-----\r\nMIIEojCCA4qgAwIBAgICEAAwDQYJKoZIhvcNAQELBQAwezELMAkGA1UEBhMCREUx\r\nGzAZBgNVBAgMEkJhZGVuLVd1ZXJ0dGVtYmVyZzEXMBUGA1UECgwOTmV4dGNsb3Vk\r\nIEdtYkgxNjA0BgNVBAMMLU5leHRjbG91ZCBDb2RlIFNpZ25pbmcgSW50ZXJtZWRp\r\nYXRlIEF1dGhvcml0eTAeFw0xNjA2MTIyMTA1MDZaFw00MTA2MDYyMTA1MDZaMGYx\r\nCzAJBgNVBAYTAkRFMRswGQYDVQQIDBJCYWRlbi1XdWVydHRlbWJlcmcxEjAQBgNV\r\nBAcMCVN0dXR0Z2FydDEXMBUGA1UECgwOTmV4dGNsb3VkIEdtYkgxDTALBgNVBAMM\r\nBGNvcmUwggEiMA0GCSqGSIb3DQEBAQUAA4IBDwAwggEKAoIBAQDUxcrn2DC892IX\r\n8+dJjZVh9YeHF65n2ha886oeAizOuHBdWBfzqt+GoUYTOjqZF93HZMcwy0P+xyCf\r\nQqak5Ke9dybN06RXUuGP45k9UYBp03qzlUzCDalrkj+Jd30LqcSC1sjRTsfuhc+u\r\nvH1IBuBnf7SMUJUcoEffbmmpAPlEcLHxlUGlGnz0q1e8UFzjbEFj3JucMO4ys35F\r\nqZS4dhvCngQhRW3DaMlQLXEUL9k3kFV+BzlkPzVZEtSmk4HJujFCnZj1vMcjQBg\/\r\nBqq1HCmUB6tulnGcxUzt\/Z\/oSIgnuGyENeke077W3EyryINL7EIyD4Xp7sxLizTM\r\nFCFCjjH1AgMBAAGjggFDMIIBPzAJBgNVHRMEAjAAMBEGCWCGSAGG+EIBAQQEAwIG\r\nQDAzBglghkgBhvhCAQ0EJhYkT3BlblNTTCBHZW5lcmF0ZWQgU2VydmVyIENlcnRp\r\nZmljYXRlMB0GA1UdDgQWBBQwc1H9AL8pRlW2e5SLCfPPqtqc0DCBpQYDVR0jBIGd\r\nMIGagBRt6m6qqTcsPIktFz79Ru7DnnjtdKF+pHwwejELMAkGA1UEBhMCREUxGzAZ\r\nBgNVBAgMEkJhZGVuLVd1ZXJ0dGVtYmVyZzESMBAGA1UEBwwJU3R1dHRnYXJ0MRcw\r\nFQYDVQQKDA5OZXh0Y2xvdWQgR21iSDEhMB8GA1UEAwwYTmV4dGNsb3VkIFJvb3Qg\r\nQXV0aG9yaXR5ggIQADAOBgNVHQ8BAf8EBAMCBaAwEwYDVR0lBAwwCgYIKwYBBQUH\r\nAwEwDQYJKoZIhvcNAQELBQADggEBADZ6+HV\/+0NEH3nahTBFxO6nKyR\/VWigACH0\r\nnaV0ecTcoQwDjKDNNFr+4S1WlHdwITlnNabC7v9rZ\/6QvbkrOTuO9fOR6azp1EwW\r\n2pixWqj0Sb9\/dSIVRpSq+jpBE6JAiX44dSR7zoBxRB8DgVO2Afy0s80xEpr5JAzb\r\nNYuPS7M5UHdAv2dr16fDcDIvn+vk92KpNh1NTeZFjBbRVQ9DXrgkRGW34TK8uSLI\r\nYG6jnfJ6eJgTaO431ywWPXNg1mUMaT\/+QBOgB299QVCKQU+lcZWptQt+RdsJUm46\r\nNY\/nARy4Oi4uOe88SuWITj9KhrFmEvrUlgM8FvoXA1ldrR7KiEg=\r\n-----END CERTIFICATE-----"
}