{
    "hashes": {
        "appinfo\/info.xml": "40d90adb5249cf975acc18b2c0c3f34eda98803d95ee570f9db088b38fcc16a8e4a0aed4182ab71c7be06d0b5cc883da0abdd2e7939efe7d2669f35dde2c0d96",
        "appinfo\/routes.php": "89ce82114cef66fc9ac6eb351a2de5c218b143124b50d108f6005f0306644c0595e17f91480a328847ef0b413c0f0a22eb220bf3c9a578c312619168e9972c1b",
        "composer\/autoload.php": "194908e7f1bcbb6573ec6f0a1f3de3c8f971b149b25e005fe826b90ddf60b98196c794878bccfb69a57409f842bd3ac7f854f3dd3e09b4fd12de163c2f836602",
        "composer\/composer.json": "a8ba47728dd6901ca5567eb3c59958b6b61f3ebdafb580226d422f398352177f93848d916904843125d6c46ee6df91be7239a22738291d559119b81e3d566841",
        "composer\/composer\/ClassLoader.php": "e95f90be793a521568a3bbe14f724e47f58173b8ed8c7907f799932fd9ef483ac4b9e741b572a0867a1afdba0c96fe7eb919980df240e158313286e4979cc66a",
        "composer\/composer\/LICENSE": "f3bb64009f41a425df5a9bbab53490f0eb9b74fa8d6aaa2f57efb928edc4ffff330260666edeaa04a91fed708c3663371cf01b284f3a08d6698aaef7a23f355a",
        "composer\/composer\/autoload_classmap.php": "ce40cb0e550ed163688f1a1dc32dac0e49439fc5014c355782f47b81d88dc58eff9045bf1eedf2731be907e5f243019900ba7bef680809340abd1ac84c2bd94f",
        "composer\/composer\/autoload_namespaces.php": "dd8ee31d2faa9014fe567e1f954b5e7f450cf06feacbb96d4df663c59b1a36a0b7d26ad41b46354bd14f282fa7899298137208d1851099cd3ada285650efd90f",
        "composer\/composer\/autoload_psr4.php": "95bb99d87e165cc0165648d4ba5911164bd8023bd49a0a18804e25c2da833a071f7a2057424711a8b109a55b1471b6c577747464b3248e264a7d98b43b9ee93d",
        "composer\/composer\/autoload_real.php": "c0114192d3344c6b0185abaef7f0f66c7e691b81f990c936b91da4777c57348a3bddc00f04939a31a5543b52059dfa92ee6544fe74d15fa5063536cba69a905a",
        "composer\/composer\/autoload_static.php": "7e6bb614c442ac994bf3d8d8430828a0a36ffe7bc065bbae925790a12551909d01921c45966f55bc4c10540c152ab6b6b24c322eef1c23cc11b5624a6a8d4aeb",
        "img\/app.svg": "17ccfb42d683782e2174f25d6296261d0e74f15bf717fc08844df87f42e6e5074049e75058367a74c8fa1b5a81eeb92b72ed2c4b5cd36469b0c0a8036e1a18c4",
        "img\/notification.svg": "b2b1f70519f83706069d516ff772b89254a4394f9b8e2e3a34f836c0660b765ccdf4ab7fa60f63bc7d4dd38b0b52ca1ff8bcf639538ef33432fcf7051ecfd3ef",
        "js\/legacy-notification.js": "8feea0ffc626080a4b7bff670c6cd15bbd916ebc0cc7d69decedb4b4e760e5c3eff4e392e0884f51e9daaa7f586f68e7566f7c540aa98815a0bfef6e5cdf54c0",
        "js\/updatenotification.js": "aa0b3c3aa1c45b64730facfad4d2959537b6dbf86e20a57a6fb6a2649882f0e7ed9b314deda9895df004d5beabd0230199c9fa5d8282eceb05f90311a9abeee1",
        "js\/updatenotification.js.map": "ee1bb09cb424255cc674f4e27246620a800787732b3d2556d6d8220e46cdba192a9baa6d7c4a0a813d5a36798be1446cfac9192d8f01e5214ce5e753b460563b",
        "l10n\/af.js": "9c26843bf07de47039d6f615d60d34e11debf5d790d9f57d5b6a6698f61f12a655677411753803c52eacb654c0a6454a839c6bc82cd0410a7b27684593fe1d6e",
        "l10n\/af.json": "508f4e4d5a4a44b4338074166459cd503224dc49a6151e210b9854a0728846788cdd2283768b6deeac405bfd8196adaa0f00aaaaa3a5082c6306eefdc7cdcc4c",
        "l10n\/ar.js": "c135d54a5d72aea22ca8158a39833f96c7848ed565c5bcec87357fb72ef59b0e451caa1f3619f108089428bf7dd9cfe947c410496e913ce973e813469cbc01db",
        "l10n\/ar.json": "b4e8960ff87eabf5446b8115b6685fc53bdd5a904e3d4f0737d65912e8b10d8ce580ac27c70f2e7d12951fdacc63f752ede423a917a293519bb6f21a4d3af7f9",
        "l10n\/ast.js": "d0f26ccb7fa6198cafdd8f55c5337fa2077645ad4cbbc2802926cbf4fd18ab0aa5641f2cde4962f5a6d3383fd8b27fdbe3fa0bc38c05ab2204ee27e7a2f01880",
        "l10n\/ast.json": "b20725e1eaaf5b133dd5f43890a1baa50c5eb6988cb6e7f25f647148222d3f07c42b6605364aad8d5323dfdfbadee6a64f6d903c5ccf20959313fc749130ad72",
        "l10n\/az.js": "38b89afa91f3b442ebf8061d40f45695031ffa8fe9b3156bbb20a166076ded24defd565456bf972ae861520bf8d71583356231109136a1bf691797eb4d237f8e",
        "l10n\/az.json": "13d4f107cfa882db22fe1c501cc3216c3fcc817774e4fdec9df078cb339d3357fdaf32d5ebb74d7e1fcf40fd4b5253ebd02bc1c8a62db68a4f42dfcba2f31601",
        "l10n\/bg.js": "1f9eb381f6f59f08d839b3b15fe124f64dd072e95483b537013adf8a9058dda5ac054ef8e30d8a19f70493eaba81295774d3716424edf0f150280f9e66446ada",
        "l10n\/bg.json": "a9aa4ddb5224631e4b147294728c757ad1fd3ec958dabc8d79a87d5a199d96ec7698ddc013ece74679df4b851dfe1a1bc42d581950cbafdf426277b96aeea0e8",
        "l10n\/bg_BG.js": "4dfaa7d594515d81905ada4432f746b0e13936d03218d207abb0fade80d9e3f7dd01a7af0940cba7768b67ca53ce9f270728c6a3a05925fcc1b9043f4e485e5e",
        "l10n\/bg_BG.json": "0b722b38a29b01b57b66bbe72aee13c1fc86fd9042de8c7ec8866b99ae9abb367ad8c8e09c27914076b59f10acde72b73146429584d6e92ebad8abcfc509f494",
        "l10n\/bn_BD.js": "c10427ac7454220d6acd986564e0566e3bf97835990e56a31155a831f13f13bf48a71d430efa7a0384d59e8789e095714254861525406eed40d6f4c1dc7a1ea3",
        "l10n\/bn_BD.json": "d4ae00e0c34887a51076d152162aa941c0ee6d0c04adec975bc81a7f21b96bd65768265fc1665742ab2b818e488f2dbabbd627d74f4168477711d5b83ff7a19f",
        "l10n\/bs.js": "20679504d8eb766bed2e9075077c1ba8f1c43d83b00ee0648759fa909ed24b1e2c46100747c5cc87b568eb9af206402165877d2776ae8202931b24f12b20df0d",
        "l10n\/bs.json": "99c492b7f7cd0ec9c0aa63f009da9ac81bdf2722ad745c133d042c830f5463d25fa111e4a7b5e6474878626f63bd850bbc195cd646251513ee9215f13d269deb",
        "l10n\/ca.js": "33f4e9cbdf92c8ddacaefb058c773a677170fcef1ef6bf9b6bc2ab6a4c7271aa85c4c26cc262fd2e82e6702ea51c97eea2182fca8a26a61f13099374f2aae27c",
        "l10n\/ca.json": "a970e042770e1c6d42772349dcca27aec844942cb3df67420182fc4fd01a621311276d8a6fc98100f50d345d8256303f50ae046d1303a97aa5965232b377a7de",
        "l10n\/cs.js": "c802286b124456e6f97eee91b446b780aca1d7628989f0b6569325927f4c5574a140e85311543b0f4f8485a5d02a17f17674d2c2187d9c57420bd0e53c05e216",
        "l10n\/cs.json": "9a4d087849b6bed81f7791994dff355eb1b017521a769c49607a2af44c04704191dc3158bcc834f8e8d051b3629421c6f7d4b41a77ef5b0edb56f0e900b6976f",
        "l10n\/cs_CZ.js": "45c2ea5d23f398ab91c2c7c74ea1908977aa28b645ca76c1d8febc71673195203b4d75271d1892b29341b4fd63f05ae4ab53d2288c7a44a28d75e6691853eeb6",
        "l10n\/cs_CZ.json": "f75845b4aea135a051a3b2b777f467df7d6caf431e7972c4f94d3d2a743d6380b480b4c1b2ba5e80e3f87c4790bb3a49697715c15139e5ea133b04ce1f58fbf2",
        "l10n\/da.js": "66c117d9077145af67ff2b1adc341c0840435d95604a0cf6f22a80f8caf21c345621008eb7fdc1029204fae514ac4a8f2613dc85c83b7246418aa5547734616b",
        "l10n\/da.json": "96d01b34e4e18233be7551e286bea4831d777a88628604496d2876e4713ef70868a022c330b53830fe1531635d702606070bb5b48170ef961ed9c8ddc6cf113f",
        "l10n\/de.js": "685c4380cecaa71bbe66bca52187c82e18da3fec30c20852daaeb1ad8757a9b52b52035ff656329944bffbe72a1fdae2c048d371e570b8b68d5604f898642319",
        "l10n\/de.json": "a2fc1a9323b899d21a5060b66944f9fd482cd35471077b1575f96f142d14737f42a41c9fe133805d0fcc190871ea5b1472f0112b58ae3c0e1bd224d70930013b",
        "l10n\/de_DE.js": "9b1b8d85fe3896143466da569c1746bc528fe8772e24c2b5d13b3b95b06bdca3f6de36ed5df7a5d4972d1ed412a70acd53ad73544107c3b42dfa9365183096f1",
        "l10n\/de_DE.json": "ca779f1c9a549b86990a9652160aa0e6e9d91618909f6697323bca176cfd2fe7659257bcf38bf374b963f17c612ac106738bf2d0828e385abc73ee51ba435786",
        "l10n\/el.js": "e81de673a6a5efd68f288ceb009d6984b5e4af867e424210b592bb0b04b28d48f83de6eec42b3325a843b0815c2e78787e64b58d228aa305b397f36df5bdc08b",
        "l10n\/el.json": "905a656c95c2f2960030bb323cb5ca483052e7976ced6a7045c5d9f35662f3814a0a0b8a74e5111f1432e70d714cebd4b385751ce33c3a365b298bbb4f27d9f4",
        "l10n\/en_GB.js": "f03e4aadbbb1c0bbdcfcbd64a5f45f076b1af7b83ae97a5738fa6874fdfee5c46f22982f11f319f399e2496e0375abd27f6b631ca1eaf6bbed2eaa3bd6bbf891",
        "l10n\/en_GB.json": "44ab3fec6d799b79f1db052858408fdd8f411402da3acf2e73abde6b5634a3231a171d4342fc4b21165cabb64e4c9f990e13e71017758dbaeb5dd0a807a6d964",
        "l10n\/eo.js": "d3e91a39e8a99a6fb6df32ac8aee32b2daefd031fefc939b63a4735d546af369c9227f18af5fa5703eb6c9cc1578cf357e34987d6ebd8299789698ff399deb40",
        "l10n\/eo.json": "6e2b06a5a6c66277182e505af926a600483a92847994b1a5a1e6e7cbd12052f9ce5e0875477e4d21c7d7b14a1e27ccc792dfdd44bac8e5df73a8f4cc3f32b346",
        "l10n\/es.js": "9a36b39775d5ffe8b77ad91cbfdfebb88de0ae291e5f786a91311f221be71b4a56dfb05faca0846517f3870e3c225b34d7283f0d6d8c0492b278bf105a441650",
        "l10n\/es.json": "36f8f7ed3a6591317a9a7e3181615054b706025770a3d7d27c0dce4bcbf3b30d357b368f92e1d0109f75eb2984fd6f14d5cf2cd5793ca60ebf8a994a752208c6",
        "l10n\/es_419.js": "52ad8c1fc5cae031069d18cbc4ccd8d9698df8ac5ce3560790b011df362ae6b2fb9c3866f0d01528d7fa08425ff706f718eaf6cd4592cc8eba16420db542f216",
        "l10n\/es_419.json": "a1604997b94817c391210480eb7473a7bae1cd0bc5081c4b1f5f5d00ff6fc288c8ccfe1174874bf9120f54d40ec8895f0cb2f4914283850116d79e3f28f28914",
        "l10n\/es_AR.js": "8a66095252941973eadf2fd5c89ce4da6916f665c670d2485aaf3f4a1bc5fce6b25073b6db3c337d402847cb0570f8892e117c7058c187303afd893077e3738d",
        "l10n\/es_AR.json": "df65d0e3ef775b2c49e0c6e177833ca32bd0e51f92ef181a418bdb54ee895cafb2e1d2013d57197806fc563b584863a44ff81c183500a8fd73f821c502761a3b",
        "l10n\/es_CL.js": "dd86aa20d49932a9ed5972f9544b721b8f094a4935a3e05d417442ce74de89f482b8775c338264505636db86c9c0d943d917a575e9a96ab2a8504983e480a552",
        "l10n\/es_CL.json": "1978ed42f43b75d6c86608bd62f896b3265ac575be1b2030a5a09db8b7ff7273a5d90b526119e459e7a6e1492c13571b47c7b9c8854dc059a4ae47c8f077b14b",
        "l10n\/es_CO.js": "dd86aa20d49932a9ed5972f9544b721b8f094a4935a3e05d417442ce74de89f482b8775c338264505636db86c9c0d943d917a575e9a96ab2a8504983e480a552",
        "l10n\/es_CO.json": "1978ed42f43b75d6c86608bd62f896b3265ac575be1b2030a5a09db8b7ff7273a5d90b526119e459e7a6e1492c13571b47c7b9c8854dc059a4ae47c8f077b14b",
        "l10n\/es_CR.js": "dd86aa20d49932a9ed5972f9544b721b8f094a4935a3e05d417442ce74de89f482b8775c338264505636db86c9c0d943d917a575e9a96ab2a8504983e480a552",
        "l10n\/es_CR.json": "1978ed42f43b75d6c86608bd62f896b3265ac575be1b2030a5a09db8b7ff7273a5d90b526119e459e7a6e1492c13571b47c7b9c8854dc059a4ae47c8f077b14b",
        "l10n\/es_DO.js": "dd86aa20d49932a9ed5972f9544b721b8f094a4935a3e05d417442ce74de89f482b8775c338264505636db86c9c0d943d917a575e9a96ab2a8504983e480a552",
        "l10n\/es_DO.json": "1978ed42f43b75d6c86608bd62f896b3265ac575be1b2030a5a09db8b7ff7273a5d90b526119e459e7a6e1492c13571b47c7b9c8854dc059a4ae47c8f077b14b",
        "l10n\/es_EC.js": "dd86aa20d49932a9ed5972f9544b721b8f094a4935a3e05d417442ce74de89f482b8775c338264505636db86c9c0d943d917a575e9a96ab2a8504983e480a552",
        "l10n\/es_EC.json": "1978ed42f43b75d6c86608bd62f896b3265ac575be1b2030a5a09db8b7ff7273a5d90b526119e459e7a6e1492c13571b47c7b9c8854dc059a4ae47c8f077b14b",
        "l10n\/es_GT.js": "dd86aa20d49932a9ed5972f9544b721b8f094a4935a3e05d417442ce74de89f482b8775c338264505636db86c9c0d943d917a575e9a96ab2a8504983e480a552",
        "l10n\/es_GT.json": "1978ed42f43b75d6c86608bd62f896b3265ac575be1b2030a5a09db8b7ff7273a5d90b526119e459e7a6e1492c13571b47c7b9c8854dc059a4ae47c8f077b14b",
        "l10n\/es_HN.js": "52ad8c1fc5cae031069d18cbc4ccd8d9698df8ac5ce3560790b011df362ae6b2fb9c3866f0d01528d7fa08425ff706f718eaf6cd4592cc8eba16420db542f216",
        "l10n\/es_HN.json": "a1604997b94817c391210480eb7473a7bae1cd0bc5081c4b1f5f5d00ff6fc288c8ccfe1174874bf9120f54d40ec8895f0cb2f4914283850116d79e3f28f28914",
        "l10n\/es_MX.js": "64bce342f7cc112a1ec827f49f94e3ec28ed36e2f5cf9105fcbf02fff688732ee2d4f72dac956edf1952dc85116a036b564530b713e12aeddbc880a22adec0ad",
        "l10n\/es_MX.json": "973b6ad1d2b96b47dfc370fa45a68f4b456401e96eb3ad810839307627c3f65e9d68641524381d171df923b4da3e69892895c7ce5bba62c63c0b04eb11a8035e",
        "l10n\/es_NI.js": "52ad8c1fc5cae031069d18cbc4ccd8d9698df8ac5ce3560790b011df362ae6b2fb9c3866f0d01528d7fa08425ff706f718eaf6cd4592cc8eba16420db542f216",
        "l10n\/es_NI.json": "a1604997b94817c391210480eb7473a7bae1cd0bc5081c4b1f5f5d00ff6fc288c8ccfe1174874bf9120f54d40ec8895f0cb2f4914283850116d79e3f28f28914",
        "l10n\/es_PA.js": "52ad8c1fc5cae031069d18cbc4ccd8d9698df8ac5ce3560790b011df362ae6b2fb9c3866f0d01528d7fa08425ff706f718eaf6cd4592cc8eba16420db542f216",
        "l10n\/es_PA.json": "a1604997b94817c391210480eb7473a7bae1cd0bc5081c4b1f5f5d00ff6fc288c8ccfe1174874bf9120f54d40ec8895f0cb2f4914283850116d79e3f28f28914",
        "l10n\/es_PE.js": "52ad8c1fc5cae031069d18cbc4ccd8d9698df8ac5ce3560790b011df362ae6b2fb9c3866f0d01528d7fa08425ff706f718eaf6cd4592cc8eba16420db542f216",
        "l10n\/es_PE.json": "a1604997b94817c391210480eb7473a7bae1cd0bc5081c4b1f5f5d00ff6fc288c8ccfe1174874bf9120f54d40ec8895f0cb2f4914283850116d79e3f28f28914",
        "l10n\/es_PR.js": "52ad8c1fc5cae031069d18cbc4ccd8d9698df8ac5ce3560790b011df362ae6b2fb9c3866f0d01528d7fa08425ff706f718eaf6cd4592cc8eba16420db542f216",
        "l10n\/es_PR.json": "a1604997b94817c391210480eb7473a7bae1cd0bc5081c4b1f5f5d00ff6fc288c8ccfe1174874bf9120f54d40ec8895f0cb2f4914283850116d79e3f28f28914",
        "l10n\/es_PY.js": "52ad8c1fc5cae031069d18cbc4ccd8d9698df8ac5ce3560790b011df362ae6b2fb9c3866f0d01528d7fa08425ff706f718eaf6cd4592cc8eba16420db542f216",
        "l10n\/es_PY.json": "a1604997b94817c391210480eb7473a7bae1cd0bc5081c4b1f5f5d00ff6fc288c8ccfe1174874bf9120f54d40ec8895f0cb2f4914283850116d79e3f28f28914",
        "l10n\/es_SV.js": "dd86aa20d49932a9ed5972f9544b721b8f094a4935a3e05d417442ce74de89f482b8775c338264505636db86c9c0d943d917a575e9a96ab2a8504983e480a552",
        "l10n\/es_SV.json": "1978ed42f43b75d6c86608bd62f896b3265ac575be1b2030a5a09db8b7ff7273a5d90b526119e459e7a6e1492c13571b47c7b9c8854dc059a4ae47c8f077b14b",
        "l10n\/es_UY.js": "52ad8c1fc5cae031069d18cbc4ccd8d9698df8ac5ce3560790b011df362ae6b2fb9c3866f0d01528d7fa08425ff706f718eaf6cd4592cc8eba16420db542f216",
        "l10n\/es_UY.json": "a1604997b94817c391210480eb7473a7bae1cd0bc5081c4b1f5f5d00ff6fc288c8ccfe1174874bf9120f54d40ec8895f0cb2f4914283850116d79e3f28f28914",
        "l10n\/et_EE.js": "32278aea1c5b3e5a87322fe113ec4321f74abd5a3bb6644093895fd4acc60e47c8ba97ebc8e52002b5d149a17c8c26738f5928fbaac354b4db76224cda330033",
        "l10n\/et_EE.json": "6c7d17924a18cb1556b17f85ca72c6251caae827ad53a741156b6d00c21cc2139c54ed4f20c628c46e4642dca41fa0ff9363eec15910c7ed212216442a975b29",
        "l10n\/eu.js": "2a324c8f7157ff8536998d4633220126f5cbba7bb57c7e540f4e9561af65579c7ccd080d7f61352348b3cdcce8a4c3cc262e3e8f22d00a1c7b1ad4ef7f84f19a",
        "l10n\/eu.json": "3ff65106596b3b146cf605920b957f79d653b86dbdb5035274484699159cda6285817dfd98c332684e632ff32f09ff23388961d0b978de06a58fdd801c65db44",
        "l10n\/fa.js": "19a2ab7d0c77a408ed36704b18ad7ddab896135cbf40611917eebca63135f6009e2baaa140e1c250a501284f44847ac11ad0d7ac098f01c8804baf9050c54f38",
        "l10n\/fa.json": "a5c2eb3b24895598b998398ae08a016ab0649251b2ad222e3e1ebd68258cb819ed2586f1907e53977b6b29b5a4faad9cfe113c3cef37592cf3329f21af0ec920",
        "l10n\/fi.js": "3cf0b93eb5d91c48bb28b1401bd764f8e06a7b541ce00795731b5dcad923f9c7aa4e0e6679987af370adfb1e79df833dc2f8c080ce8a591d2b0efec8c024ad1e",
        "l10n\/fi.json": "e3532eb27f7ab90c5ff3b85b053229bcf67cefaf731e90600c7dad1ede698cd016c2ab7682d654adeee4bee3b8c8162b3746a8303a35ade9734cc267fe0019fb",
        "l10n\/fi_FI.js": "3ca9be88ad616ba3ed59d0cb552cf4c35c45a8be2ca841c1d6cd3fe29cab9eabef470b1aa73978d1edc0aa6ad2bc09329e17a95edc367e94d6be01696ed0f61c",
        "l10n\/fi_FI.json": "a254d1ff0b147b4590b62cde8c4d5d753369ce4572ea5f974b3d851ed784051347c3de9014f90ffe43f0aab6da8db3bfbf8c79144298142fc5f6b951bdbb1e90",
        "l10n\/fr.js": "4683d35707d0c12681cb2a32fbb4958bf274b901b536af08b11666305fd1cfa1b1be3377a572544a0d00caf45f8a5a2ac1670ee7e4b30c10187a0ed291847240",
        "l10n\/fr.json": "afe61b5d97bbc885c9fe076d24e61829d813fb4df2647f948b76546c872dd9b92a2d61bab96f3891e19ea7c39a76598089aecfeaa56a70288da3b96d65ed4379",
        "l10n\/gl.js": "05ef86433d80283f9d499f5fd84427095d9ffc001fc57f7aeab5a5cc357c837e7ad0c6f49f2518f5f529b3f1d8f520e91008d81f0679d8d5aac7482fb02ddf85",
        "l10n\/gl.json": "52c0fdfd47a946e7f05bcc8ba5edd1e42c555466ec4dde6a33845e1eba08c515c10c6a91aa3b4cfa9f6fe76f3f77a6f943115187aa8a54fc5fdec3b067b61e37",
        "l10n\/he.js": "87d470aa1d4b77bcf60c35833c54107412f54512c3f6a5c31ee20c6775aba92a33bba798d894bb1bceba8183ca07825790df7fb7e02bb311c0a2b3a233dc4b55",
        "l10n\/he.json": "d9bdcf4da90bbef14c70b5c6424cda32d77a341494629dcfe408501ef648ef56b0e2dad18a2010601246e740ea984aed9487a7449d0e73acc86014adcb572ac0",
        "l10n\/hr.js": "93da5570eaad962fccbf8094f8c5acf12d2dbc9bf4e061b56932292daa461463d639b5437f4191c68eb4e7806aa228fb5aa2b1c2e3d9148c8af1cbcc3d2a9f50",
        "l10n\/hr.json": "b64028e3c3a854e4bbfe87251a549718e7bb4a4a1264b0107a5fa98da9919afdfc710ee27d24769ec31bd7c6ae72c2c509df2ed7d0f3e956b8e9e0fce81e3aaf",
        "l10n\/hu.js": "ddaa5f3670611a20a8b3c38be8b88b003fd3dc3ed7bcbf37caeedd2d9359bf4118ec073d2a18d305be081ea74a4506b54976d21d6f4419ab8aeeba6d4df472f1",
        "l10n\/hu.json": "4870c09221f2bcbc2712eec65a017535dc6f93049bfdf975b3f49645e733135ba2516e90fa0f8e76fdad1ef20a9f9ed585ef448de7de4dc0e7d459e4f5068ec4",
        "l10n\/hu_HU.js": "d2bbcab2800640f0d5bc3c13801b70f74cf8a770f01ee86550c9f742be248e2c435cbc35421ea0eed39ed0f7d56f5a66f01049fd9539a1b576a6db783e3152c4",
        "l10n\/hu_HU.json": "915a2331c045c80a025f78811d48bbf34c4081b7a9ec0113bef484dd34fefdb5a82cf64d1b7d41261fcc0565f3f69457cd083d10c0c7ea047ff3609ab5f17ecf",
        "l10n\/ia.js": "bc8c30f20c6ef80bf942423ee6f4463700f5e8d011e63d79c50a0b8aeb371fc44f60e822dfe1aef27a1f797e6f91038211142ca476383851858df96c0efb13d7",
        "l10n\/ia.json": "e1aa7f7cda20c49eb8f7abd6d4c90502b93dfdfbb2feb5969ae1e418990666c6fde0f04033e82ac0b697024e8e8a6591cd1423de1ebda55bd530cdfd0ac279fb",
        "l10n\/id.js": "bea4d48e319881be0ca08e62f719ebe08858ff55f2f9f50d03e0065666c93d297578b925d01919dce1355f211a1687b6cba1e827326200051c9f409409b1a895",
        "l10n\/id.json": "6729bca06bf9ca5f337ff365868d9637c6c397bca63cabb0a79217e24aab6c2a4c62097162fa1cd4bdd3530e528f90b5b3c449c3165804c3942e1f3bf5b4f057",
        "l10n\/is.js": "5e651d243ec1e47d63ee9dc8ca97dfd1cb353d323a1705f2b7710cccd031291b9b3fc1a4c7f93c332fac6a321866e7e50e53d709c7f43d23b1a4c18d2f1a768e",
        "l10n\/is.json": "3e40162058a68ac7495c26967bd454e105f7d7e8e7f7ab6a8fec36f793ce6da798c37bbec2252f13c0eb69dbd9ab0f4596084b16ea1ea21ece59a1cc650dba57",
        "l10n\/it.js": "616336359c970d951365f6f96f52f72d4c7344c985fcc6c8cfcb9e40f832f3036e810dcc68c583e8f5befe4d46abf556e87870f58fd98beafa961ca442fbb9be",
        "l10n\/it.json": "dac81f31ca3482143e80fdda2098f934834846ec07be368b1d820e19907fe6047483becb3d98620d6b0fcb30de98a9e46642961aea80878fa66acc0ba51d0df3",
        "l10n\/ja.js": "62b41b42b62297990bcc2a365de358bdeeb0de3dc7ab19b1a3dcbb7cbde8ae78d4cbe8fe37f9a89efda808b765aaf6df1877ffb5b5991c1bf3f4c54701bb2264",
        "l10n\/ja.json": "8b651a8e48b7e8ba6d5a8e7f4b83c661680d3e1778dc78326ca8670abf8eb8ecf5eeafa5dd118f7f2a2e8a18470c03863fdc5c5f90e05e1b70fb33f1cdc2bd31",
        "l10n\/ka_GE.js": "325e6dad2632bb9484f142d7d0d7ec6451ed730627428356e2ee28d023ffa8c3be0e118235c29c11e373e1346963d4a9dcaecfd34c73928422b6216c57c2d655",
        "l10n\/ka_GE.json": "463dd91150e73decbaefc9d5a47ef70d3a2f0c79154890c05bb144386a0e185135e3f9ac8d438bf2826fb028376c434e8d49d287688ffb5e0fad141e564f8548",
        "l10n\/ko.js": "8d2d5c11383a2711aa490d42ad482663229078c82e4fd92689aeb36ca1f367841e7e70d2c184ffe14403987c556b07883614f48f72d27c572c8247cc8f82cd80",
        "l10n\/ko.json": "132db852e260c008fa9286903f8dbc87ddce9cc4a11433f8cf14c2c37a7c4bb94bde70ba4b68954cce92ef132744053d729b1e88503a5ea2a1eb82372c8ae66a",
        "l10n\/lb.js": "2694b107e1129604bf17f2a24d8e48d8fb40d31555691d5caca48fddb4c55cebd107fad86180c98e82e76f67694b186924e66a2a338cc58924f1492da2c09f79",
        "l10n\/lb.json": "2b45ed5fca3f2ef65f498866796423348ac03d6967f10b2b1d16c7c0246efdb18b13dc816d505411339f645a39900673a7fbc4a1c0a3059fb46fab02aba72399",
        "l10n\/lt_LT.js": "eab6b2f2540725e63b4e4e161705642953791575ceeaf6cf25fa33972963ace798e7968d8d257dddcfc7c94b259620fc097ab54672fd60fad6c40b3d67198ba4",
        "l10n\/lt_LT.json": "bb993e7c72e1e2752e8fa926aecaac6aad831a4921f7589958f66d9af706d0b613e6c0e0c32080fdac9814b8201d5a3d996e2497237e210c1418a0cf2904178d",
        "l10n\/lv.js": "73dd6996834201349375d25e6f067eaca5c9b432e6fdb32b60fab130b37daeafcb4a90fc85e923b86ed36b1f118fee2ad2cee7b1c19e37a4044978b94a85fe8c",
        "l10n\/lv.json": "61321e5718bab99f5e46c3b90b56db8effa059fc59c700d5b688b704e83a9aa6e469f1a9b3b2ad7b2cf3d3ccd775a0738c8d701199c5a5f5ba93b7690053387f",
        "l10n\/mk.js": "bf6688a94cc9679e99a71043659dfec9df1ee939f54ea382dd5be06bac1704cc58bf886d41f89fa2175bc4661e7c5f921dbb2a9dde9a839a644393171fe8c78b",
        "l10n\/mk.json": "40a36d061873f8107ae8c759f329d244e9dfa8463052bf99e6abc061b7cd60dfa6d2bd8922ec018f72f2927cf0f4cfa9689ef89b8623b5c1c0355039ac62e8bc",
        "l10n\/nb.js": "19e145b1c0ef1f6acc28ef0761e34eb69038c5f721009c7b5df6a1f5ed18ad814898b16adcf26dff8b230cf7bde8ab9c22a4c703b01a3159dfa2ec364d800dfd",
        "l10n\/nb.json": "d9a4824fa5f2fe9ec9d968bf1b1e33898d75874c9f730cf2f5616de7348bc598744c20b7dd1975f205f924e2f5894e83ff0d91adeb1b43c494bd450c8ba79d16",
        "l10n\/nb_NO.js": "387d0ae05b796e1af1720740d8732ed0c61f6983b71aae5cec10ee0a2fbaee7ed676cee7b9d0ebea255072da79213324c98be31b564bbcccb85ad4279e37604a",
        "l10n\/nb_NO.json": "f285e3fbb5640290041692bc8f7f796f6482296f03b1948fe6227cb0de9b5e37fbb1f62f4f62b3f3e0176c2ed2f05ca7d1774be56a66d27479e133b1b42695c1",
        "l10n\/nl.js": "faf9f7ac244ca64daabf621e5e2cb5f30f86e9b2228b1a2bf8d82bd2cfc62f260418b4e53a3fe1e0469ecab0d8a606f17315cee3c8312d81b910448d5f06c9d4",
        "l10n\/nl.json": "000f0f3d99e0e7792d91f17ebbdc976d3874ace6be9d63e1ae385d9ec2c8d03868a5d9a2aeaca28f15697c0e309e1b78c64678bc4a3d0cac97d23c6998ec39fd",
        "l10n\/oc.js": "c8db96e664fe00e4b63c4203e405ea6bf61001915951c3c149b853e79f845d90ab5cfd68df56fac0a705cb5a7d96813f1c8664710541b5ce8053aa1a76eb564c",
        "l10n\/oc.json": "87d9845f534ad56ac574eaa40dfd3d5aa1c5d379829ff1c6d9ea2897986f2c3b7156b9646dfe8b2a21abef4076d9ceb670e4e90d4153b9abcf9eea4ff0013fdf",
        "l10n\/pl.js": "4a084f6d162c9b1c07c3087291034e484486b0efd8184401de1c7f647c34281f4a2b312d68ab286f8a57e6190071d58fddf687ad89596fcb54457690f3b8857b",
        "l10n\/pl.json": "fba7232c15c02604b9fab466f3aa58cbbc800083bcc0ff3dc57670c2af0b3188b826ff6a2455454b6bd8717a67cb42fd585c62ab58e8637e55067aeb16bf6628",
        "l10n\/pt_BR.js": "b3da581a3c6488a7e68116d7b6498fa61501912cba95415f27c5da9d49186361f1907d8dfd6a0b12f016d31bc4941fc869dfc9770f2c4c829b0ac7236b6f5178",
        "l10n\/pt_BR.json": "579c99735d56969f85d7f323eb1975b4227e1f19ead4c56a07cdc486ac7777df5260ff0e3daed6a14f9f9b9ae8439ce267d14484d649b0baccb06e9e234cbbcf",
        "l10n\/pt_PT.js": "041ac1452f64d647d1271ed9c8a2ff3fa2598e1f131f0ee1786be488bbb6cdaf3cfdc46eaf1d2de30279cb2f72858105f9a34deb46894eadd1528315a6d941b5",
        "l10n\/pt_PT.json": "1b37e6e628cc216e705935d6c289f002e554170f75f0b045b6c1192aa632df6c2862fb5d05413e0ebf0146d13396ad8d0aab5993005abf421aac55e047d0a7a8",
        "l10n\/ro.js": "12139c54dc7255b8f6230886b234c32f78117eece5832f8d593891d78e87b26f618e5a68bec88459d2adc414c0a85459881e40dee37abd4942c1c381ea671bed",
        "l10n\/ro.json": "85d6d3a73dc989c550619da95f7ff45ef04ffdd31f6c1379507567b5b3271e70079968ed7d5bc37374fc54972c886f100c96aba73ebcc773ae5bb4836c4329a8",
        "l10n\/ru.js": "aa600e1e355238780e02917b22c7cf0da50fd05134c41a23cfe43fc4aa7870d98d0aaa666d1ba6ce55f0f2006b8487dbb27c3ed1a45ffea24e6d28da8dd63553",
        "l10n\/ru.json": "9823e304a6738a625c1c9b5817e6edce2bc786250b7c4701a7b542caafb959a4df0f1edda02ac398b79df4959e205c35515c8877c645902cd50f94901be53d53",
        "l10n\/sk.js": "e546250e3e2ef83a0a82fe87ebd224e55b9c15f61ff8e44133a4f1fa3a09c27ad7adbcbea778c5492715639365ba5a6c166a37afa2f09374b8c5f6235c6ecafd",
        "l10n\/sk.json": "208a16786d0c9d76aac98aa935541722c30e0286cd2b0c17b8faf611c1436fe497d13ed02290993dac8317c9707b76813523891f05c0440c5c237b39399f1ed3",
        "l10n\/sk_SK.js": "9744319807bf6373e280c249171a81c493e86e1ebf1063be6e157f1b62df102edb4276f7332099705e28c8ebf9017ae334dfeb01215f638400f6f57c8e5c7a77",
        "l10n\/sk_SK.json": "bdc0d0d1c35c12d8dfe987addf66e22aeb278b662b7ef312872c9596461afc76b180d24b0bef38a658d2851ad021aac2faaec37aab5a0cedbffcfe8b87cd65b7",
        "l10n\/sl.js": "b9648310aeb27d2cc782778e1f0a415d4eb9208f3372f5db0a94b65376a9d0c6377344d3b5cc960ee47c0ea832ba68ab944e50e84fc44a7b6696ca990e14fc8e",
        "l10n\/sl.json": "87085ff681b2173b00974f7fb90df926d7150802b78cc73d5f94163c7bd1cf0a778b8f2201a60460fb06ee2273624810ba26909f1e822f791b939f0627d56811",
        "l10n\/sq.js": "2877a69a1049b76b52bc0eb76ccae98067cf7b411ff163091769d7e779c61e2a7d4c3ab92a2a1020a3fcb1626168b57f8ea229cb1a9d5b1d19ec272b2ea01c60",
        "l10n\/sq.json": "305bdc97e3ab876ed41be1a3b82d0866d1e32096cb1b4f74733607ee8fdffcfe5be72759838bb994b68b449e0b4aaca8495a8df105cfa7c8dc6e3085d3daff20",
        "l10n\/sr.js": "d5cfae44fe14a9f7f05fd2376b000827c6e921aa444177c6273fd3b4bbaa2bf29e207a2dcec548848cf43fc94d7a8b58db86a4befbf99de4b35e7692b84958e0",
        "l10n\/sr.json": "ca9d2e21d1c08da25786e982a3890e4c30534f83c1711627b6c6cdb2fcf40802d101e798987de3eb153052544e93496dac94ba2691683e5a31fd4a131ea255d6",
        "l10n\/sv.js": "7315572b3e3bd60ef41fe0f66844a185fe34ae4a61082737e8fff1dcdd63acca14c71f795746b5f5fd3c95f79df256401cc5cae70c1435d0304557307b7eb20f",
        "l10n\/sv.json": "80316185247f89adbb9a59b892bb499c55c9ec243f9e64edd80f999a347fbf72f35059e7bbbf861ef305b72d5dc4a8cafa73eada3900b104acd0040b0b037411",
        "l10n\/th_TH.js": "d480224736fcac51d1c8a0469ba8551a0fe1b4d7b0d87a10158c7fce7383e228fdb89ce69613ffdc3de9e78fde6f1ceea36781ee4b8539c6c08077ee1f35007f",
        "l10n\/th_TH.json": "c3cafae249bf025a29bde10a0b8242d969faafa3208ff822e9d713e8a4d4d746bf49587614f71bb4d1ff8f9b95a9e6b5be6f649c625a580fb7d4c79f7eaa2de2",
        "l10n\/tr.js": "22f25b41e9968050a53234129e2d4981d7f93dcc3a846a8e1f53282dd083f461b7fe6869241fb4860f9fc2d23efdc48b16cbbff47549318b0bfc3247b63eb571",
        "l10n\/tr.json": "f931743370016f83d49821d912c7df524829e5a06ae681a43ac0a59efa6e5f918be3ddaec2f0fca7ee95346f9d0f60ededdac4c66132201fbf0f09096a628f20",
        "l10n\/uk.js": "bdc7b04a96e7d09dc3216b7c25c723f9a14bb0ecd5a5474a83cc85f830d2ea2c6d140f36da3b8fa43fa9453279d78ee0f6c6e43ec979d9655e9b2d70045628d8",
        "l10n\/uk.json": "ccd7f5a2b4274decec32a2abfa331ee5e0e4cad0dcf0f77c258cea50d4efc520f0a0bc23038002dcf520de733e298e051577e79f3376918bf7d6ad1f83ae46e9",
        "l10n\/vi.js": "777b1e648a1eeb577c207142633f38fea57593cfe8725be7b662b81cd885fa4985f195e2a5b4e8870328f549ee483d1e967bfebfea6cb6561720eadbb3fe0349",
        "l10n\/vi.json": "70d02ef9195682fff70ae9a9b36195edf119cce30266d0bf5065ffee7dd5aceb21b616cd1898a9396ed358445553812df9c452d7779c5f51fcfd2e14ae1ecaca",
        "l10n\/zh_CN.js": "c0e871af1461add009530bc7ac8e805ef566eda3510188b1f7a8a8b47141615e82804e56fbe6fcf393fcc1e76ad1de11469ad48d35ff3f655ce902d9432c65fb",
        "l10n\/zh_CN.json": "f4f16800858661f0b12039f7fe0da3500507fac7b3153e7b32464d8460996a35c6875803e75bdd6270b6cff6f71013859bfb68fb63fa6f10d776e3254a586107",
        "l10n\/zh_HK.js": "04defa6e297e6bf40968173ef58d8b786a7d9a322c4c798a8cb84fdd3ccb70b148e02d8ce4a67d20162357a07bdf0ea921dbd101663bb85e3337320118dbdc8f",
        "l10n\/zh_HK.json": "a2d7fd06bc58dfc7867e59bc8dee597a4b221cc6b2bb8c86cc5aa54fde49d2aea97017a622f8e329e5d57e2d8761b655b88ac4dcf5b84a76db46a4d0aaa8b9c6",
        "l10n\/zh_TW.js": "90f3af88ead0e0efc34110f6bdb05c76cd8124d54ad438dd050cd5c6ac7b51dcc2de69968001875b7d2a74876fb270b0b5b8413737a9317421fafecc7810cd9e",
        "l10n\/zh_TW.json": "748f24ae75d5173e8472a91e0f7d472be9609adff9a592b703ac82410a8dba96fc269829a36bac6871aa6ed0f2e921d0c5ba9a42705d1d95fc67a10464501165",
        "lib\/AppInfo\/Application.php": "9eb06e6ff486c818bffa2b4950d833954f18517feaf075bcba356f13a6e90f71c43ed990dee0f384059f791450520e4509e6e467a3ac9fc5d4008f6340615f6c",
        "lib\/Command\/Check.php": "c6a10373891482ddbb293e4b9b78b25c0983d1fc464b9e641454a038d01aecda7b995886a4f035382edbeb05d2c08c05036a74aae1765b63cab758477753423e",
        "lib\/Controller\/APIController.php": "39fed5421497cdf83aff7368d17bd849d1e97cd5d69452ba36969b89e52a3cfd63a5948961111b7c422d4329de505f9b40361b49cf3d3439c9e3f87996ad290b",
        "lib\/Controller\/AdminController.php": "f2d01b79e833d8583de068ebefc05959895a858a0321caf32d8a8f9f50db48fed36204d02153608b0f4a629f10286b558b3cb348e3655ac1f34a59fcc75beb9c",
        "lib\/Notification\/BackgroundJob.php": "68333155d186b13375fd5ed2ea0eeb549f31910054bf46470a5d67e003f4810f47fde95ef2dabff0f0da08a693823d7595dce23618b302faca6630afc86635b9",
        "lib\/Notification\/Notifier.php": "eeabe2072dc15056f7b9bd8c06195d69d0ca09f88317d1310851472e2f64f61d751eac576e94844e7480565c2918e32ef6a66eb62032ad216aaa154b515cb37f",
        "lib\/ResetTokenBackgroundJob.php": "55cccd559a46eafcf3183227b0dce4361f87bb8cd5dc3dda3ccf8d16d658d4fc6bd6b5393201d3ac096c9ae9082877b8a46509b5afbd947d1056789faa698dc7",
        "lib\/Settings\/Admin.php": "23b59ef039053513a772a64b9de10f4668ccc465be06b88cce9d2beabecbdc4bfaf281fc9c0f611e2d14de7bbffa903089fcbbc732583f823a6cbcfe4e458e85",
        "lib\/UpdateChecker.php": "c09282a8325bc8c36c6939ec50617cc6b1f0f267ce976e1e9803207b71d7381ba0cb419615818dc33dd04e999fdcb4696b17254b6ba067d55f26d36c004457bd",
        "templates\/admin.php": "ff9c93700835819893f9c4d36f97bbacff5985caf87d8413fc280e33b94ce49aaa6a11a5e480e0242d426b350e81df1eb02795a0bae186036f4b4f4ae47c1fdc"
    },
    "signature": "snVxTOyc\/5ljFjCFxHDe3CYMUqD6zdt\/F+d0ZsRFF1lJcQrO2koC7qo7udWxuiSJ189FgmgFnzOzUU\/TTuI7MDJ5ht3Ev9ZnN9nfZByhQCCvYUDbDVC8a2nlGsnMZ8od3QhuFP2lcq9KO5Fc1z2prBHOaq\/8lg3O6s+i5PbbM3FF8v2nnFnTPQ54rtdnYd7TcW22svYzVHRUy3\/3gnJB2F9SrGcbqgKqE8icSUG1bNrR6lVSdJDMQVIbDF\/vgsM\/F\/2BFJpN+g246roL6Nv5T+w7qp8YYfUOiP5jtFWTFMZWzXwwA7poePbOQknZsjbZ65kCprZvHQb0IFA7J0hpbw==",
    "certificate": "-----BEGIN CERTIFICATE-----\r\nMIIEojCCA4qgAwIBAgICEAAwDQYJKoZIhvcNAQELBQAwezELMAkGA1UEBhMCREUx\r\nGzAZBgNVBAgMEkJhZGVuLVd1ZXJ0dGVtYmVyZzEXMBUGA1UECgwOTmV4dGNsb3Vk\r\nIEdtYkgxNjA0BgNVBAMMLU5leHRjbG91ZCBDb2RlIFNpZ25pbmcgSW50ZXJtZWRp\r\nYXRlIEF1dGhvcml0eTAeFw0xNjA2MTIyMTA1MDZaFw00MTA2MDYyMTA1MDZaMGYx\r\nCzAJBgNVBAYTAkRFMRswGQYDVQQIDBJCYWRlbi1XdWVydHRlbWJlcmcxEjAQBgNV\r\nBAcMCVN0dXR0Z2FydDEXMBUGA1UECgwOTmV4dGNsb3VkIEdtYkgxDTALBgNVBAMM\r\nBGNvcmUwggEiMA0GCSqGSIb3DQEBAQUAA4IBDwAwggEKAoIBAQDUxcrn2DC892IX\r\n8+dJjZVh9YeHF65n2ha886oeAizOuHBdWBfzqt+GoUYTOjqZF93HZMcwy0P+xyCf\r\nQqak5Ke9dybN06RXUuGP45k9UYBp03qzlUzCDalrkj+Jd30LqcSC1sjRTsfuhc+u\r\nvH1IBuBnf7SMUJUcoEffbmmpAPlEcLHxlUGlGnz0q1e8UFzjbEFj3JucMO4ys35F\r\nqZS4dhvCngQhRW3DaMlQLXEUL9k3kFV+BzlkPzVZEtSmk4HJujFCnZj1vMcjQBg\/\r\nBqq1HCmUB6tulnGcxUzt\/Z\/oSIgnuGyENeke077W3EyryINL7EIyD4Xp7sxLizTM\r\nFCFCjjH1AgMBAAGjggFDMIIBPzAJBgNVHRMEAjAAMBEGCWCGSAGG+EIBAQQEAwIG\r\nQDAzBglghkgBhvhCAQ0EJhYkT3BlblNTTCBHZW5lcmF0ZWQgU2VydmVyIENlcnRp\r\nZmljYXRlMB0GA1UdDgQWBBQwc1H9AL8pRlW2e5SLCfPPqtqc0DCBpQYDVR0jBIGd\r\nMIGagBRt6m6qqTcsPIktFz79Ru7DnnjtdKF+pHwwejELMAkGA1UEBhMCREUxGzAZ\r\nBgNVBAgMEkJhZGVuLVd1ZXJ0dGVtYmVyZzESMBAGA1UEBwwJU3R1dHRnYXJ0MRcw\r\nFQYDVQQKDA5OZXh0Y2xvdWQgR21iSDEhMB8GA1UEAwwYTmV4dGNsb3VkIFJvb3Qg\r\nQXV0aG9yaXR5ggIQADAOBgNVHQ8BAf8EBAMCBaAwEwYDVR0lBAwwCgYIKwYBBQUH\r\nAwEwDQYJKoZIhvcNAQELBQADggEBADZ6+HV\/+0NEH3nahTBFxO6nKyR\/VWigACH0\r\nnaV0ecTcoQwDjKDNNFr+4S1WlHdwITlnNabC7v9rZ\/6QvbkrOTuO9fOR6azp1EwW\r\n2pixWqj0Sb9\/dSIVRpSq+jpBE6JAiX44dSR7zoBxRB8DgVO2Afy0s80xEpr5JAzb\r\nNYuPS7M5UHdAv2dr16fDcDIvn+vk92KpNh1NTeZFjBbRVQ9DXrgkRGW34TK8uSLI\r\nYG6jnfJ6eJgTaO431ywWPXNg1mUMaT\/+QBOgB299QVCKQU+lcZWptQt+RdsJUm46\r\nNY\/nARy4Oi4uOe88SuWITj9KhrFmEvrUlgM8FvoXA1ldrR7KiEg=\r\n-----END CERTIFICATE-----"
}