{
    "hashes": {
        ".npmignore": "616338ae182951560ed9b78485c4508550ffe27323e65034662d128bfd33bc58d283d5eac4b121b210ae242e5a1b5c9a8b0c99c253dcc5402b6f292c53299354",
        "COPYING": "a0a86214ea153fb07ff35ceec0848dd1703eae22de036a825efc8394e50f65e3044832f3b49cf7e45a39edc470bdf738abc36a3a78ca7df3a6e73c14eaef94a8",
        "appinfo\/info.xml": "87ece4340d2907b62cf7279e5f13ed34a1ba898405543fc0e39ea09e09b82942da7c5b6901ff8fb131e871a9b93e740c76eb30bd09b51de7e2d2b65e1cb2cb76",
        "appinfo\/routes.php": "696f068634dd0e3e1f03d5026dc02434c2ab63bbfdc518410f6d3acbe045ee221d0ca73a3c78b318424b72675c86ba09d44559db465fc5277849c4422a4a9edf",
        "babel.config.js": "2096015da3ae603ae7789118306ff0edfb313f36b3df0795077910cc27adb54ecb1f19c96816e1705e39aba470f6bcd9e4aa1dcb2fc0f49679c6a5a8300b47c7",
        "composer.json": "e456b5b45634cf659584ae88788dedd0f2b43ba665bc40853c45a262a4991f0050c88da73497029ee5d7c34d90a421feb0594edb7590e8dd48b96bd3a53c7748",
        "composer.lock": "67776e4f9e3d5692f9cb5d3361ccd77bde70dc9d8ffc8921d82ef4bf6eda5b27d34cd7b6493a51e78d1ba9ca4f436ca5ffffd435265af8aaecaa0031fce0e121",
        "css\/icons.scss": "1ba97a79c76b0f1c2a44a694b97cce7387234cd84384cc827e94e99af6af5417650cc366139fecd9371cfea5bb5c46713ba2b954a080b4a4d17a0b8d3b2e0c86",
        "img\/app.svg": "6b1e6cdccd2ec9775b8183db1acabe1739a467b13a4c1556c1fa16faf170ad3bf767928197d7b22d75aaaaa533389cc0bf98e43b0c8975a65c017170709166a9",
        "img\/photos.svg": "6b1e6cdccd2ec9775b8183db1acabe1739a467b13a4c1556c1fa16faf170ad3bf767928197d7b22d75aaaaa533389cc0bf98e43b0c8975a65c017170709166a9",
        "img\/yourphotos.svg": "839865abef820d849f5ba102a3d7ecc2affbccc3b90a9a781e80cda6e7ef22fec96e3df25bb3de5c826afb3068daed33e3f07ce132fa1cd27a772d5bba002247",
        "js\/photos-0.js": "3bdc3bb87039e6f0083a327b8cab8789fbcfed57319f4fd7ab8a4f9f36223774d80c5842eecc7a75356244449ab567b9cefcce6e90aa51b7397d74ddf0222c2c",
        "js\/photos-0.js.map": "314dda81649a36fef3082f7c59be98057076ac952770d0999d18e96d305c079ef3781aab1a05e539a4bc2c0b22da38edcca49813ec48e3e56184487e1960bb5e",
        "js\/photos-1.js": "c0e1bb0dec15332b1dd5f9539364fd7a5203f47584ba78b4ded68f4a38b753850899008a21c77dae843c61140b47982a261c468c3ef6427ad514312bf28dc392",
        "js\/photos-1.js.map": "d5323d3e83bf67b1477e8fe3b470460d1982151da072a507ea8ac6ddf1be62859af62f0517c651d68cb6c360abbd4f59ec135610583377cfe59e4b32d1c13f05",
        "js\/photos-10.js": "f192acf51319a0ea599619745b3f3041c8bb860abc9f64dcba97caef63682f9ab1d5258b4afb4c8efc7b28892a750f4bd9eccf3beab6f083cd9962df05ec2fa5",
        "js\/photos-10.js.map": "6a419f81fee27dc6d4fd3fab045aa80c1c4826ab4483e10786f84eb1fe08ddda13e9017377f30325f7a7542d29a34b81abc9ea66fdffb927a45420ca39a37f97",
        "js\/photos-2.js": "48ec16d59ae91fb304c6698f47e10ad1a969ecd3ce59fb081e59d0a2918f106dae550f0b5c2dac6d021cc26c9d9107b93c8eb0b42c61fdee374506216ac98b18",
        "js\/photos-2.js.map": "a01ab86b2c7b6ee849d04f357af2523c20e7acba0a825e8151d418516d0f76949aed92dd8e7f1132ddf1c35ba3e0cf49def9d50b7654f5cfae85618fd9d65241",
        "js\/photos-3.js": "94b02e8565fd2c834edf7c232fd1a20dcf8ba8edbf782db6995cc8304c61d16b48cf53cca267e8a12d97ca60cc7c501c7c29bfca7b3f471d3c46f47f31da1a39",
        "js\/photos-4.js": "d2a44a7c228230885df88655b48ed2d4da934daca452dcbe5291fb29e6cd0419140a5a5087740b36f4544b56c7fbfed3e4bda7f30fdcfde5830ec358f4957468",
        "js\/photos-4.js.map": "34ee900837bef26d25c224944f4584e8d795c8fcaf06c96fb59fe38c50cb9a8048b56866e68c57b3f59b82f0656e10e5a653359b2849ba855fa5a34d80bf6170",
        "js\/photos-5.js": "aac2126a75c9cf7fd36a849a38b70fb42379a7adb145094dff8b9cbc462629cb09c7497b4cd827e4577a19ad49c30d2df8938c9fb7af3d42d660f16889d5e6a0",
        "js\/photos-5.js.map": "5446c38082a3a388b81895e8c2c792af66d84eaeddae7073d4ba0f132a0e7fb287203b5fb4fe5602705001f40ba6287174c30dae164042b7aba7934e0dc6c022",
        "js\/photos-6.js": "85bd0b75783aed36f3f9da558a16e78853bb2e7d96d3e96c4e8a5976e55dd2d7a4fcf108a90b3613aeda29322e3cdf02c04af00929afb0b01a31c7a41105aad9",
        "js\/photos-6.js.map": "5b5c0d8a2f05b047b5a3e1692523cedfeae5db347d7afb22139f4536897a28bd17fcba0f4581f32f2dbd74cdf5c0eb57b9cb1be06b93035c5f8042c024f20adc",
        "js\/photos-7.js": "b9ccb90e83f73aff4baaf67ba60a1bdc70b3be3080bc42eaf44017a7536b8d48c53bc54c126613299631d7f64e77adc0c3f818bca1955f3de60ebb2623fb5b78",
        "js\/photos-7.js.map": "b2f3aec6aa0a0d4bcae839fa5d6502b824428e00f07298db50a6e95d73faca50a35f3f4e9458a491f731d51b436dd5960fa7c65ed8bddb5664833d9c7887adbe",
        "js\/photos-8.js": "c2f4c32c49405cc4de29891597dd898f7cc482693252fcfc2920ed9cb55f582870118a98e5d99cb54fa91260b2d32df14835462ef08ee531ce8437565a14c493",
        "js\/photos-8.js.map": "83813a349e8bd95d274b99873b0e9e9dc34a52395a64e226e395220cbf2030c7c0cfcf4c877c88fe9b6f290301773824f6599d6eee51b3a821f816f2911b82db",
        "js\/photos-9.js": "253da908a631aead52d71ba3953e0216ab9f9c7e9b0a6791253467842f6597e6215da7bb0ef2b7271d387cf81743f29353f9c8a09c7f12e53b3ef6ad2404ad5f",
        "js\/photos-9.js.map": "5b1613abe73d9d44838d61f3d643070e28c7d198af5d402515995f607beffe8573732f3fd1845b87704f8b652d08706b4684fe04b3285f7ac505653580599522",
        "js\/photos-main.js": "4f20a5b77ef9fbf217a29f68a88df0ac2698947ba096101d53536ab74cd0e31bb034d44d4ef599102d80a95fb30c28d1ba18f74791bf535ffd399f5282bad269",
        "js\/photos-main.js.map": "c3df70299c580388e89a90b2f314dc3d5bc6bc3af8dbb8146976ebe7bca64180bded565a0c119c33ef916672c53eccb31e1a751dfc410f8fddfc5b940421b9df",
        "js\/photos-service-worker.js": "1319ac8075144c2864916609b1bb088d085e1223b51c8a1807184816a498b5f8c8715d9d28d72b7cda7bc03ef1f9f72357001a3d9ac1d0c9d9c3185a50770bf4",
        "l10n\/af.js": "1d64dfa80c65f0c824ad5f165725b72a690f023b0652f9a75f06aa4ef31abee5aebd7bd6fd21531f36e5608a5f332f761c7e3e3671006454db6a43a9822e0d62",
        "l10n\/af.json": "7a23b8b4b9a1ed73e087b44fae6af6e4337e6192bae0f6488fe7cac2a0a4049e17f16a472ab792c4a5530022b847e8c66db0c0cb62719e85d6289c99601cd42d",
        "l10n\/ar.js": "8e64114b7ed9a0f56e54fb94e92a2e2abaf59b2a1f8f7b50d3d054ae20ec804998af574699cfa8537cd23989ae24c09b6ce211790fc88258e9abb86e2dd54479",
        "l10n\/ar.json": "86d5a26a1ae1fc03edd46c88d51a5b61fce23b716380cb18b4e20149e89af38fba8f0f88960273bdb7ca96c94fbd43229c483c26cf7195ff6748684911afd44b",
        "l10n\/ast.js": "99f8d15fe70b531fa38b90f01c9bee37584139d8ebcfcc5de338fb9f0a12abcf923238d6d10ae63ff8b12e4189e8a1d8aff48399a22300686d634b1cb4d1877b",
        "l10n\/ast.json": "88b11a0770131e40449efe0aafea9186faa21342108918f02e5ce5c3b4f3f9d57a9481f34cc722de746814aa0df4659deddc4645c14945de5e067a6eda23672f",
        "l10n\/az.js": "17b992b5ac43caa8b1c2cc72607b6abd01b0921596c480f9a494e0f6ee1a53ab0c915b3b07d0cf6cb5bbcc857a311887c2d37e595bd30d617dd8f91c04ae54be",
        "l10n\/az.json": "7ef05957e2d253684ddf710e549b68303fd40c82b32734d85fc814cd3baa7b8caafbd49bf98adc35f816f6439d360179d80bbd734f82a788279330d4832f54af",
        "l10n\/be.js": "66c7a41bb0eeb867fdf75ef7f6b120c5eeacbbed5101d9fc7b6d52a1db8388b2549150d8827bc8dabd0f46d65c4dcd5c20508ff5ccfc1809d8dabb99d670d079",
        "l10n\/be.json": "fbba32c2e7255eb8abb6a6e600028c1d5d3580e0f7be8e4d1288103bddb977ae2d32067e8769353056bdc22ab20d33e4dbe2a944b2ba427d42f4bf039261fcc2",
        "l10n\/bg.js": "1ea760be44094672b3221b822a2cef4b9bb13e2ded712aff4fa6605d11ec3876ba4b70a32b9f93736cbb69d72145d6a81c2f6a773e67cb0591c1eb5c7cc662db",
        "l10n\/bg.json": "236c1e8c14d2927e645686a2e57ab7d3fc90b048fcf6c0cabc50196c64efd77740ca25a18519d258b5e9e61c352564737ef47ec696a92514d5a4ee79a0367fa5",
        "l10n\/bn_BD.js": "acab07ef96ede76da762558d166e99d38c2c4e81b278877fa771e47281eac8623ea0650a385d86dc51244ce9a72c648c782e29176291ed16beba70a2ccd923f2",
        "l10n\/bn_BD.json": "6e6b594b5e3b5dd12e3bfa61d09ec625b518b1d901d6f5db03b6068fb98068a4103aa03626e6e444f4af4c6b3fa4cac1a6d0a4dba9a9fc193dc486e93c482c87",
        "l10n\/br.js": "74caab2129115dcb0d0abd834829692c89afe1a7d8da0153c054354fb79ee9cbcfe00e489a9b6281533e65dc3a203eb55ce31dbb9a2d3ce4abc63ce952310bae",
        "l10n\/br.json": "fa1a00b9b53896fce2980eb6dd74cfa60a22cfb57cbf4c845d8a7ec4471811a554d2bfec686aa8fca4482aafdcade9bce7b1ccaf988b4ec4ac4cd6ae4d6bda9c",
        "l10n\/bs.js": "a79e974893ecdd01582308e1d0ee06e97e24f9d5a36589d785809c1e97904205d3677ca705bcf224bde18789d8b55fb836a6f046f66da00799ce8244e6a52b75",
        "l10n\/bs.json": "c6713efaa9877da42f2847e49a01361fc2fa8c69fc96954b98edbaa15690f53cba429ecf79f9a46a5ff9fc81b7bf7922934261e82ee3d30dedfb6cb1f6644719",
        "l10n\/ca.js": "40f6efc053100695b3532a7f6d1087ec5f3937dd0a9fa87dd59652c19d5f02887fb14593d1acc544044316fedab0572981ee42e7dcefda1a36ea284df87d4e7a",
        "l10n\/ca.json": "045d0ecc39394a589d75025cc11ed95b5d090dd0fb62056e8bf8d3593307c60f3a28244cd14c11c35d2eceb54cd07d184a161ba6fdee07286b6210f09584c3b7",
        "l10n\/cs.js": "4bee54d58550192c15563c30b0a670d922bccce34252349016a4c7ede6944fd3807f576c1c9f9853bbee84106c22a7bd55a46dd3f85248ec437496070609b544",
        "l10n\/cs.json": "24a84e84c0f0162d88f510f540d8ff7dab1a095e98acd2fccc4e8a033da8c577bbe1d5973d960b02e1be60fd2f61571abc93deec618a8674f492197d19f17a15",
        "l10n\/cy_GB.js": "63e285fd8e201e942e840fb07075d1541ee2b3670b64eed26a1de576765e79e2089d6fee051d1a1ccd5a92a90514b7d979d49397e9f88e166bc55e8163e9c419",
        "l10n\/cy_GB.json": "91886cb2c39c9a2741ce088deef719d0a4b19ae411f9d650ece62f0f65d360084c4e9fdcc9e80c0021fa39b7aa90cac45bafb8a12e960a65a59cfd5d853bf80d",
        "l10n\/da.js": "404bcdf9cbba94c3aa7684bc399652e6f7b7a5fbd28603a3936a28eb1149b4251b7e251457b6a36dad3b372a70bb188bd6e3c890eea4100d35afbc333ea83cce",
        "l10n\/da.json": "e56539f1ecb8c284e4cfffe51f55f441d796abb65ff9dfc5f8692c9b31b188124a2e5f32a2917ff0009ba75cea25c8e1ef5bfe68a44d57beef63aeac8860b5d3",
        "l10n\/de.js": "4cfaf41193fbf521ca0e9f3d8aca0437d4892b6385ba929e253c77502050bfef2aba54a7378e6c5431e8ed51a033b6c95fd3824803317ffe968263aa6890f550",
        "l10n\/de.json": "ff018abe96c15bdb83d9f51fcba68c7969931da9983b8d3cddc43923dc0171843640abd078d6c69c80623b08114ad9c98a289c06fdbf3de0215ed3c0f949ad2c",
        "l10n\/de_DE.js": "102de21cb3d5055cbac28d62fbcb4153d9bce32e84bceb0cd2158b6d68d860050f3c32a4cfceff5cfce7eaa29917320823c5239ee01b71cb86e229a76f8736ba",
        "l10n\/de_DE.json": "117e3b61adcb463e85244ec7604b68856f017c4dfe0078cfb220ae5f23a3c19c1deb64364619bb8284866d0f38be4e6c83930cf59056e6b95553c6f6b7772537",
        "l10n\/el.js": "0596807303a767d34fabceb8f4741d505c6bca4c49837921fce14a4bb8b958dd9904924eea3790b16bc66df67317c118e1968155c980ae7006aa8f7d48fad2cc",
        "l10n\/el.json": "89e23a0e75f600f297fa9eee6dcea6e524168af99ab92df458d37ab01677c328912e22c3e42f3c3506f611e11684a9f98a64fb5a2d6e8fa558c9731d007c2a4a",
        "l10n\/en_GB.js": "26aaa6c8a01cd136e07d2a152de8e93dea94ffe6033f14baf93a05ecbbae7076589f69ab77426f7c44471c616e7a35fbbb3ea67e25421589ac1386ce29cd0014",
        "l10n\/en_GB.json": "4a1816bb2d006c3a261e80efbf649e6fd1b344b55a07dbb44d4a1588747f67f8799d3e6ce65e7bc77058fdaa36ee761baaa29b5b6f5de870dc4dee45f23bbf06",
        "l10n\/eo.js": "153eaafdeadb738c447e8f366294af5db33798033ce99cb409933a6881db64bc09c277f48cccec4dcb160fa8696895fefa14ba57da09770a6e533328fa6742fa",
        "l10n\/eo.json": "2ff0a6d4287aa378adb56b0ff3c2976fe30cb81eb26bbae69d433058f53c38924f171d66a55317beb135b6b6c4115e4bb4fb8c571f888438947008ae5e32f111",
        "l10n\/es.js": "3ed2bd360f95f1ba7fcc6fe29ab7882c2249cc92eb606130e5e94ec00ef5771006a492cc11c5072f11487ac4531b4097aca6f0f8740dca52104d3d3c7be912ee",
        "l10n\/es.json": "7af217b4a30475d6edc7b35df098b1f01ce68210db05318baf320f6e7e4901e9cbb25e7a0fd4ccc525a7fd0b76f66fda2503177a63473a6cd3bbbfdd9d078871",
        "l10n\/es_419.js": "eb1b676e7592df2ccc64d78304abbb599752455935b60a77765466304b71d9a916fe107a949efdab5c84d0572efe589620a3ac76061dde0f2eacd4db72c3e453",
        "l10n\/es_419.json": "85ac6ad8cd8ac54ba75afabe36b26f67ed15f11f85fad8c09f9cbe8fe98e21966bd5d5552ae92db39283767135747020f6dbe492940ccffafa321b760aedf221",
        "l10n\/es_AR.js": "92b6d0b215777baeba364e902092b8b92d7284e65a02b39a081a17a5a3b53bc1bbedb4a7c6105d8d6b8417fb4e2ec9bbc50e9d90f06d64d6f2bc28e54cc1ab4c",
        "l10n\/es_AR.json": "51fd630c7c6ee03ffbe0c6de8145083598598621756b06735229507692a0b77373662dffd4e8e986bb060b107ba8fb8da4ccb96dc72f6be3f03afb8a3b3aefdb",
        "l10n\/es_CL.js": "eb1b676e7592df2ccc64d78304abbb599752455935b60a77765466304b71d9a916fe107a949efdab5c84d0572efe589620a3ac76061dde0f2eacd4db72c3e453",
        "l10n\/es_CL.json": "85ac6ad8cd8ac54ba75afabe36b26f67ed15f11f85fad8c09f9cbe8fe98e21966bd5d5552ae92db39283767135747020f6dbe492940ccffafa321b760aedf221",
        "l10n\/es_CO.js": "eb1b676e7592df2ccc64d78304abbb599752455935b60a77765466304b71d9a916fe107a949efdab5c84d0572efe589620a3ac76061dde0f2eacd4db72c3e453",
        "l10n\/es_CO.json": "85ac6ad8cd8ac54ba75afabe36b26f67ed15f11f85fad8c09f9cbe8fe98e21966bd5d5552ae92db39283767135747020f6dbe492940ccffafa321b760aedf221",
        "l10n\/es_CR.js": "eb1b676e7592df2ccc64d78304abbb599752455935b60a77765466304b71d9a916fe107a949efdab5c84d0572efe589620a3ac76061dde0f2eacd4db72c3e453",
        "l10n\/es_CR.json": "85ac6ad8cd8ac54ba75afabe36b26f67ed15f11f85fad8c09f9cbe8fe98e21966bd5d5552ae92db39283767135747020f6dbe492940ccffafa321b760aedf221",
        "l10n\/es_DO.js": "eb1b676e7592df2ccc64d78304abbb599752455935b60a77765466304b71d9a916fe107a949efdab5c84d0572efe589620a3ac76061dde0f2eacd4db72c3e453",
        "l10n\/es_DO.json": "85ac6ad8cd8ac54ba75afabe36b26f67ed15f11f85fad8c09f9cbe8fe98e21966bd5d5552ae92db39283767135747020f6dbe492940ccffafa321b760aedf221",
        "l10n\/es_EC.js": "eb1b676e7592df2ccc64d78304abbb599752455935b60a77765466304b71d9a916fe107a949efdab5c84d0572efe589620a3ac76061dde0f2eacd4db72c3e453",
        "l10n\/es_EC.json": "85ac6ad8cd8ac54ba75afabe36b26f67ed15f11f85fad8c09f9cbe8fe98e21966bd5d5552ae92db39283767135747020f6dbe492940ccffafa321b760aedf221",
        "l10n\/es_GT.js": "eb1b676e7592df2ccc64d78304abbb599752455935b60a77765466304b71d9a916fe107a949efdab5c84d0572efe589620a3ac76061dde0f2eacd4db72c3e453",
        "l10n\/es_GT.json": "85ac6ad8cd8ac54ba75afabe36b26f67ed15f11f85fad8c09f9cbe8fe98e21966bd5d5552ae92db39283767135747020f6dbe492940ccffafa321b760aedf221",
        "l10n\/es_HN.js": "eb1b676e7592df2ccc64d78304abbb599752455935b60a77765466304b71d9a916fe107a949efdab5c84d0572efe589620a3ac76061dde0f2eacd4db72c3e453",
        "l10n\/es_HN.json": "85ac6ad8cd8ac54ba75afabe36b26f67ed15f11f85fad8c09f9cbe8fe98e21966bd5d5552ae92db39283767135747020f6dbe492940ccffafa321b760aedf221",
        "l10n\/es_MX.js": "1bd4829759fc0f0dba4603e9f7a6f7f14007cc84e4fb4f5018d6c9e6f2cce9b395995c788faa19474e34ebc9bf59e1034ca35eb987a55767c1cd18110ff00d92",
        "l10n\/es_MX.json": "0feddb8ac46bd1a20d098c13ef7ee6a5149d6c2f0a890ff243b8a223bcc9b1141a322decfc80cc93f858d79cbe293e17acfdb53c865b781cf8abfdd02f693f43",
        "l10n\/es_NI.js": "eb1b676e7592df2ccc64d78304abbb599752455935b60a77765466304b71d9a916fe107a949efdab5c84d0572efe589620a3ac76061dde0f2eacd4db72c3e453",
        "l10n\/es_NI.json": "85ac6ad8cd8ac54ba75afabe36b26f67ed15f11f85fad8c09f9cbe8fe98e21966bd5d5552ae92db39283767135747020f6dbe492940ccffafa321b760aedf221",
        "l10n\/es_PA.js": "eb1b676e7592df2ccc64d78304abbb599752455935b60a77765466304b71d9a916fe107a949efdab5c84d0572efe589620a3ac76061dde0f2eacd4db72c3e453",
        "l10n\/es_PA.json": "85ac6ad8cd8ac54ba75afabe36b26f67ed15f11f85fad8c09f9cbe8fe98e21966bd5d5552ae92db39283767135747020f6dbe492940ccffafa321b760aedf221",
        "l10n\/es_PE.js": "eb1b676e7592df2ccc64d78304abbb599752455935b60a77765466304b71d9a916fe107a949efdab5c84d0572efe589620a3ac76061dde0f2eacd4db72c3e453",
        "l10n\/es_PE.json": "85ac6ad8cd8ac54ba75afabe36b26f67ed15f11f85fad8c09f9cbe8fe98e21966bd5d5552ae92db39283767135747020f6dbe492940ccffafa321b760aedf221",
        "l10n\/es_PR.js": "eb1b676e7592df2ccc64d78304abbb599752455935b60a77765466304b71d9a916fe107a949efdab5c84d0572efe589620a3ac76061dde0f2eacd4db72c3e453",
        "l10n\/es_PR.json": "85ac6ad8cd8ac54ba75afabe36b26f67ed15f11f85fad8c09f9cbe8fe98e21966bd5d5552ae92db39283767135747020f6dbe492940ccffafa321b760aedf221",
        "l10n\/es_PY.js": "8c2d1f4febc28b4833c937e320071c58ca74f867727222bf0bc5a84c073bd6978a68069c80cad3b1dc3db075f912eeb122320657dfca4a83bef56f78a53bbfc1",
        "l10n\/es_PY.json": "c6a1b5b83d759d55df529c43876883dd23c82973a8fef02655d42d3ce00fca73406c63c80ed04278b2f6b3f9bff72530bff7b6d812dd54a1cd8d394f013aea4e",
        "l10n\/es_SV.js": "eb1b676e7592df2ccc64d78304abbb599752455935b60a77765466304b71d9a916fe107a949efdab5c84d0572efe589620a3ac76061dde0f2eacd4db72c3e453",
        "l10n\/es_SV.json": "85ac6ad8cd8ac54ba75afabe36b26f67ed15f11f85fad8c09f9cbe8fe98e21966bd5d5552ae92db39283767135747020f6dbe492940ccffafa321b760aedf221",
        "l10n\/es_UY.js": "eb1b676e7592df2ccc64d78304abbb599752455935b60a77765466304b71d9a916fe107a949efdab5c84d0572efe589620a3ac76061dde0f2eacd4db72c3e453",
        "l10n\/es_UY.json": "85ac6ad8cd8ac54ba75afabe36b26f67ed15f11f85fad8c09f9cbe8fe98e21966bd5d5552ae92db39283767135747020f6dbe492940ccffafa321b760aedf221",
        "l10n\/et_EE.js": "c425c79b10b516615fbab6e824521aeadb107b5652c74c13e203c682068d30ae8cfd5b785c0b7d883684788f7f7870a284299360a74e6858a0349450ed311843",
        "l10n\/et_EE.json": "ff54454d4ee910905cd26288c87b2bf49c401596d0f4a37462d2acabd272d5066d25d01e56a691bd3124e025aca7428435a97d0c0c49b2ae1dffac36f60adc60",
        "l10n\/eu.js": "5e5856d3da8179bfa92208cbe3e3cc08fecd98d580c835980490870317554e66f6465147ed84e5363b0a1def8bd4a3b4caebe705b30a81afaa57d81dabff11f0",
        "l10n\/eu.json": "bf196eee56c2273153ace26869bc4445e5651ca8db353259944dd2d92583000f6c10915089b61303902bf6d1d7d241076ad06d8e2c2d5f3b746fbcb246f6ea5c",
        "l10n\/fa.js": "a140cb95034bcc96039aa42cd16075f3c2ff3bc929bad39c02387f25d52bf5888a96aa9ac26435a0e6e2f36f58701d6c907a2b7f95d7474d08126487099b53cb",
        "l10n\/fa.json": "a57ce5a272752d8936d9b08c5729f50bafcfb412eb7c5e536fcf41ecf000402a5c32c915dbebdb237f6acd15698f71187aadd5c650a4139741315dfa301ded25",
        "l10n\/fi.js": "782f58300b705ec2de8fad8d0266e2f29850e49d680943d67dd0ec31207ab3044489ee0109c4b65daa2fa33b56808f92be6772ab954dc2e3c6ceaf4d4f54a73d",
        "l10n\/fi.json": "5b82048e7b2286095cda6dbf7c9a5b9b7c5d77e20d51f5942b0c7e85a00e18a22b506367b31bfc46a6e1f762c73f6c2da39c987944ee999458a39537cc2364ca",
        "l10n\/fr.js": "0ee3bd66077cd966f0844774634d77772fa2316b07b6ec9da04867a48972a2bed0478f8cd081c56884ab17442562e8f5fdcfd376cc150a1090cfebc2310de839",
        "l10n\/fr.json": "ed6d3ae4a9456b2c7b836e564b7fad526ccddf08ba3fea35864632de565c05958a6b1512bd1e84ce8c2aef2295884ea4b490e48390fb67910bf08ec88f615717",
        "l10n\/gl.js": "e792950bdfd923952dbb12ab7c960dace6d5d25dae8e3fec447df1a3c608c009b53a6ebb1c4f04e6a3a1f477cc825dead4f2266bde94e3e592d776e65f63599b",
        "l10n\/gl.json": "4429fb2f566dc0f2565ea0818188332031ac0973f98f45d0ff4bb7722319b1d9fa18a913198641a4fe05cc1a7df3dd4c895c8266692e35b04c670aaa3dffaefb",
        "l10n\/he.js": "584ec52e28e8d8d1272227a506aa9cd89cbdd61e986bb1fd36b8a4b1b800db11a8b33823d08362fab7c144fe884f7f8d425d4f3f5df083b16c30cdef888af657",
        "l10n\/he.json": "c8af444645fbd9703c6b6043d69ecff45e0d24fcc50faf2ef4e30fcc1d191aa626bd0562dab7119e2a226193f5312adcfabd2fdcf29bfce241a9f2d76c24d131",
        "l10n\/hr.js": "69c96485bca874b407ffc09d16a454527677951a3b1b2b3b7388c2187e71222f828a151f7e3278e23b15a7a0db4d1af64a46f0a5f8d8a65ef376e6e094e46e88",
        "l10n\/hr.json": "aba2013e906c02d2c269f64062f6b077b72c3c5bba5753c062cd210ce9ab46e485d662d404c692e0a7cafbef379cb4a4711e11f8b6b3c7c71be880d56b49b0d3",
        "l10n\/hu.js": "7c781d8668114c4699a531f15cf85f4ff1f7a7a3e1ddf2d6a97d017d02485a27b8ae9933c3b36e7b75116a70538a9ec362db3227d8e551612770b2302e7d5806",
        "l10n\/hu.json": "4577ad3e3e236833c9f996fee471661cc1183efcc7ed9b1998433d7325e861b17d30ee097915f5a5dfbaed99c58858df2f5430b124a4fc075e899ab7f33b9d25",
        "l10n\/hy.js": "286cbab898c5d4e9f2ae22787f641e8127cca6af51a71d0473937cdcd5b6c3ab4db110fbae7b3221d598ccf0b05880b1f7a1bd3b323501b04de7b76f8bcec7c9",
        "l10n\/hy.json": "7583b137c5ccdd212a71403b431b98d7186ba1cdb7897a44bf219eb112b9b774185bbc3b70b3fd8d02b9ca27247ec4f4e6c5bec59b22a114efcc1ca3b7600300",
        "l10n\/ia.js": "194768f67ece9dfffc4f0a99ddfcfa9d40d68881ea23a06e80bc3ba9bfe5a48e740a506321f4f4c6a44712ff9a4eeed8362a213736ad993b97a887343a6c4b36",
        "l10n\/ia.json": "3574f0e40c1a3ee6fc6045c52589d3408e6e10fe412cfadab2f704227b7787725f0f345435b1613f00509ac2920c8cd90f5d0e490a5d40dd3235e5637b963f8a",
        "l10n\/id.js": "ab19ebfff905f32732ff751de2f7bfc9d6a2c4b6e5ea8d81dfa268f3058109f1f7db727b113f8cc2d2c89b6743116cce21e1608b2b17380540caa790d483ee49",
        "l10n\/id.json": "26c627ca5307809e5b69ce7a56fe1557d6c220a87a12af99c3a6ad8ed6380cc142521c0f0c7c6ae385fc5ad40b0b91a35e96e3b7eba4f2be6d89fa679cb2e8bd",
        "l10n\/is.js": "0eeefe7d8fa8acbcd7c14bb320d93234c2aee9bf08a90ad742dc66469bfa24c01288cd7447648bb80da248674f6a81a3e4084f78e0590665cc51c5a5c2bb9ae3",
        "l10n\/is.json": "9c0c44fe4b1231d7b0b24ff357c04f7f3dc4df77eef4bc17f37ca8c3f8c80d9a81aed859cd6bfc900199910a21fdac402b563ab44d3701ce822f563394f51e34",
        "l10n\/it.js": "586f58a21cff6b3a9248d8f25593fc4dd0b9bfcf589627fc643892790df957ed3536ff73a2dd297d7c44a96416bbcd2553481555143fe52e645c739862ae6222",
        "l10n\/it.json": "4f2ba5605babe679723e199582527470974aac545c59d27b9b5f06099b4864c9511ec175f83f6fbc9ffc2bcaa44f1fab5a03dbde68b34d84d58cb92f5f3b1a33",
        "l10n\/ja.js": "3430e25aa1a49807e23074077da8499f5f20e8ebdc908c597ae249a5257f9930a701ce4b85b8573fc5d13f92b5b2c664f1d3ee00f38bc0fab85639b1c8b5e234",
        "l10n\/ja.json": "b616be93311065285a7a08b84ad9c20c29cff73cef407b85cbf9142be815b271b8c1439822797e0b89eaae2026e5685592eedd80f54aef97eb111c49a8ea12aa",
        "l10n\/ka_GE.js": "fdbb467ba5267888b36fd23f7a6b5fc82d9658df731f400d36c717b6b230e9df895528f4dbcae707ba18207f20514a1dde9d1b08443ab456e2fb0199b6cf9599",
        "l10n\/ka_GE.json": "45902ca3a8d7abec2ded7c48620189aeb5ac2072a6c614794a44e39ce3782503e716cb1e61adabba815fec70affd12a5c43b44158d8302e75aa094fe5dd962bc",
        "l10n\/kab.js": "b43771d409de71718cb0e9c8d4d67144f3bce4d65ad552ebd842d80f11c13b9c5e78e19606f7a3af8511eaf8e447eba1312b69ed665dd7586780bd1a7a7ee84f",
        "l10n\/kab.json": "4d50de730ffc19503722a1485984a1d1efba4560f41450e03aa3ca082660e25fd006bf1c8b38eca58bcbcaaeaca712f398c0268ab8c3ca7c67102cf5299ce9ea",
        "l10n\/km.js": "71f15f8d196bc196b1a5115321a3935f420d3df3e8f020c2dff1e9ab45a7326adf7eb8e1e9d88650b192b729d404318f4a0b24810198a0f7e3316e018f34c417",
        "l10n\/km.json": "770396c474535bce4e54e54193e613b7ae0b330a8bd277b03cea4917e0f4bb0296beb941a1d6336190fcd21a96a46dd8b85e46e70686243c4525b81e623393d8",
        "l10n\/kn.js": "945e0927229cc0f4f57caba398ca84c340a7712ef5061618612a5c643e7e7826ca9240b5c09f007f508b68fdf31b3b60a04f4da55534274ca469008c635f77f1",
        "l10n\/kn.json": "49ce384af62f3d79ba54957c0d0496aabf1215e9dd9fb61cfe52f20176b787eb3ba608add5753aac53c8160d06840dc6bc4ef99180aeaf1938335340f328b20e",
        "l10n\/ko.js": "d9d0dc98632aeef89051a83aba32e18274f10169e33a4e38720bcdec0c4e8c382429e6f943ca41c7a5068b690b37931f249ec51672eb07c50233e7177e80306a",
        "l10n\/ko.json": "d9527037eff75ad3cdbb6877c95d4a03b7f2b1efa03d659e55281dafd46772af3148cbc61879df6e574ccb303c7ecec1e4373683135256b4ae383a757a9b3b57",
        "l10n\/lb.js": "5418cceb95ca429483381af921bbbff95299a5e4fe6bc1f6134007c91422ccb340f1be480d3f300643637ed795347e089ede2119e60f45f816df7bb919c96338",
        "l10n\/lb.json": "fce3a44b15db4d7686f7a3530866f8faf75df151c6d5e4d683ea1465fd189976dc6a398d72c2fc8ae0a28c5aa99b02fb08961e02abde538804fdb6e70346b358",
        "l10n\/lt_LT.js": "fe222bd8a4e3760c92bd85c7871d03a569abe0ebba5a9cb2ef28506b255096cc825e71796186e7021b8473136dc9fdd1d3d195616a4d29063b8a76f190060ac2",
        "l10n\/lt_LT.json": "f998a20b650e31e251817f9e93ae1851b3048ab331d860e668c3446938b7532064c9b3a2a51fc6bf18bf465feede440c5e95c68eb20cf7c6938cecbcc504df9e",
        "l10n\/lv.js": "136fc290dcbd34d4a0fa930a2fc317cc62c9d42bd932bf507ee8af74c810d7eb615c65243737bf51be0d33cdfe3293a0d11a2f07c376048a9c9dcc691c369b22",
        "l10n\/lv.json": "c60da3b8d24b2f29f5a38be6ef966a4101a0df5422d50ae3d9b5ab94a9b3478025cceea52e379703df0a346db5ed03de6ec7c091769fd285a15203c19eccb66f",
        "l10n\/mk.js": "7e18d991e3dc4748e450cdfbe15b1c9f72f2a0afc14d3e84eeef7c611940f9809cae2187c9969aa5833c6f3b73506ccd74bdd6e5ff17752b495d990341825a8c",
        "l10n\/mk.json": "0e045d0b3d5417548bc0d167bea99bfaaccdd155bf960c0b7dedbbb10a7dcd602b9670b0866cbd700d60656d2ce23fb3bdf7d9018e2504fd1fb72a50cf407282",
        "l10n\/mn.js": "9250d313ff0fefafc791875e11430fa22ac552fdf694c0a20c85fbeed1497c1acbffecd7c26f10ee0c7fe72b3d850f30f1dc0718ac4940f03c3bc0579f1278ff",
        "l10n\/mn.json": "a82ecf35f34c93d9a06a285c0960b49c9194ae661c541e6a0ab03a49f1b580f0448f0d0695fb2e9a48f7511933e1aeed8a617927935328cf8995d3456d46ad9f",
        "l10n\/ms_MY.js": "e447b9cf718714595a88e5a84d1bc6b50b9adaf903412cf6ad4c16565938a4471a1f9ea59952f29f1eadfd4a698e54a6bcc0e458e0037269cc284aa0fd53cc3f",
        "l10n\/ms_MY.json": "c3eda12d6a17de69a0c02250a9513e2372ccef77196cf7da6b54200392d3889e1f46bf9e056a6584fadcc197a51120a944e4ac569552dda5e9b27fc416803247",
        "l10n\/nb.js": "3f3b38091b67da45c4beb2478ace512f8242f2848efd20555db04f15bc1499697fdc2445a486778c05992478671a5bce6a52ef7f0f0b61ec970301b3d2a008e6",
        "l10n\/nb.json": "58dfcbaee66d4c54c3791ead29665be309b348bca8abc523844a63c56c131b080b2f9274a9abb7148db869256b7058b59c6d7f148f3a313a3483d0dcc4a36957",
        "l10n\/nl.js": "24bb3a2f5c695d8f002c818512f8b43da7e2aa94009020ce134afb1146a077a21b07c0f301cab13d508fbe1879b6d73372722bd7161a1a34b83f4b01c0bd7832",
        "l10n\/nl.json": "a53a1ce5d75b521599ec06a532fa8e9bc1abe4676c887d1e8d9dbdb86bd6dd47eb11186ceaf0ce7c6871daa6837105c9f0b92ba06f18871be90093ce8b4fc892",
        "l10n\/nn_NO.js": "06beb3a3ea7ddd84f5bbcaa0c62e0bc833d529d46b05a344f2184305074fdfa8648830906eea146c2a905f3bd7946d619cb7a7d14879159cd117ff0b5744e362",
        "l10n\/nn_NO.json": "cf0bf88267a54ca9c5bda46225b60a511e2b7eb987bf66455b9b7b7941b58d1a920a1ca88ffd554b0a5150e95de377c83e93e97f1ba672c61cebeaaab59d2b4c",
        "l10n\/oc.js": "a1d1484d75b6e98cdf0c91dbb36f353fd95c35b2907f95f4468df88ad2d52d6ed749ec55ff379f5bc6fd4a97f902d47efa5fd2df39fcf008e6e6ab9e14dd14fc",
        "l10n\/oc.json": "dbe1c1be09b0092dde169440ea4ef8c6aa4ae7184ecb0a80c9dc1d7979514ca62ae6f94c2aeb4b758976e0439bdc47d49d9d5527e03216641a79a6a51499230c",
        "l10n\/pl.js": "1b20412e00a165d43704bdd525c591953eef1ad557bb521da46736c44c8f0c11a046ebed4911abff0adc21c39873335cfacc437c294c65224570394b87a91757",
        "l10n\/pl.json": "030a4f0418fb01dec7a9d9223582def2dc6ec4eb9c8e8e187c07690a2a16dabbac35f3648a46c4985482b7bd46a8273873952fc391d36a92bfd2a750eae1dc39",
        "l10n\/ps.js": "965a0efe62207071538912418778c24a16a0115a84de64d98e4b159d0b1b788e46c121ef12ee5a7c115d1f547d23f89237bfe49111b570bacfd73289e18d865f",
        "l10n\/ps.json": "433600443831d11d9d7795d9078784c28a604ce8ce4b283c9bb1599bb4214658ff43605f303a4dd6dc6b212485871916e2b82fc67ee750796be3b22e94f9df27",
        "l10n\/pt_BR.js": "93911fa45c1efee5def4cb2a21ef2d27054cb9394878bbe4340a2369a0514f75eceb957dc6e92840b2ea93baf2dbfbff8ec92f14b0793d16e9d514971905e6c5",
        "l10n\/pt_BR.json": "03efc616192901cd0d50cb988b04531ee32475ca886ccb6df1ce51d3d20e22b4e3501595e82b9b01196812fe18b5556afbff456fd7c571c15a112e7ff3e19adf",
        "l10n\/pt_PT.js": "622e96978acbcab24786252e95d10a910db44f9a3cb60eb3ce2c2e616218c392b8bacf83492818e9662e7a5786cdff6a4f3f63ba1665fca102fca2f763ca1b9e",
        "l10n\/pt_PT.json": "ee9c64878909faa590d75e206d23dec37e8d81db214c8a3d87c5facad9a3a793c5c2ac599ece3ef63ec78ce51d164fcf5f49f2164cf96136efff974d9aaa50b1",
        "l10n\/ro.js": "aa0922165d1b723b47352bd0be12936f924c16de2a89916c80bc5dcaf1780139122e42a56c068ee296ed27afad607351213ac7f2915a0a745e8900fb2f7f9a8b",
        "l10n\/ro.json": "9191bd265852e3da99bb0751b68b0cf0afdf07a4d078628e219d44dcd8e6831c6e9df0bb90a0ec834b3d986b160adb7c9407264f1c50eb739cbafb71ffc11334",
        "l10n\/ru.js": "8e20bbfc810bbab07148d4cc2b8b8ad9378e527f422c87dcec771db609ed92d9c651e94afb20e30ab1d6ccf79036de2a3b6f3315af87ed082f5bcdf668604902",
        "l10n\/ru.json": "0f3e18de7a4342c633a94508fe7b4dc2c21e89345bf0365ef02fb669c7754455bd8a13dc0d264532f8a195aa10550236cb88b97b350cf06fb9343b495a8b5aca",
        "l10n\/si.js": "77eb025484c9a56f2109658b39094e6f827b48a2fd45970a1a4d71e5d40819f11506e2baf804c30fc43565c7be367e7d42d02c29cf67f9e3d6ac19c6c5e1ab60",
        "l10n\/si.json": "c4e6e5519a4a9dbb3ccdfeeaca2f649b3dad3bce422877a7dab7b6de1c88adff5d9345dbba40be9af76e4f1f4f4e6b72ea910052f2a2f7b268da315be45ecc7e",
        "l10n\/si_LK.js": "691af35736c71e6d8fe0082d598605b10014970f75e5298cf9818b9c3b7842deb39c856e047ab068b01021c9249d25359bf86fc23ece2165e7a5c0afeb486fba",
        "l10n\/si_LK.json": "e553b609a1b22bcf8d7647a646b7c6d48a27b8bb99d656a86a484f903bcc2f70cad8e8f8ebb42983779de1a256eac64ddd012c80162f67d89277f36f4a634744",
        "l10n\/sk.js": "f3130132434f7a864bef9f4488a1c5aba4eb71180f6843d73673ad85e839aadd758365d0818a9a1d269d984ed6508bca5a3023220daa0c0f2cd528eae9b447a9",
        "l10n\/sk.json": "7b8ac327027705eb845b0c8e945fbf60cac5aa0608f4fe67b5dba975859e4a344b6aba936e6fd86cebdefd812ae5bfaacea00db20821246d7ea86082b115be26",
        "l10n\/sl.js": "2b09d1408312b138dcaa0dd0dccfbe7098af91cd627682001ac15a5e6f8c30022bc5f3e892a93624bce16e35c2700bf7a8ab91bc6e3ef1df1abbd867a39fd577",
        "l10n\/sl.json": "40b39fda328dc2c6e0691e2bbc423f1da27ff02c5fe38f26a9094e31c67dd7f389daf2c164ee2b7799c90487cb541b1d4f56341252cdb2bd4d585b6450d75444",
        "l10n\/sq.js": "58e9616a320f64a7241e6890b1f32f35d7f783dd49eff69d8cc8df889490a82c113570a22e71d26a63dd352fab8b37dc4cae5fddedacc57ece953b1fdd7b6111",
        "l10n\/sq.json": "5b82147bf6b5b5a6423060417d21600e0bd9435622d74f5e119a7f134e7d4a7ed966d4a1ea996ebe04821ecd2d561482bdc86809e6e7f396c9830384031b3715",
        "l10n\/sr.js": "c9ec051633146554924af2d7bec5e92fd2a4242475f5b31cdfa26381e80a5c1b0a6197bf0213d252da51771b2ab97f324d17fc083251d883151410274c704158",
        "l10n\/sr.json": "2c48476ca8c6e9e4ec5e3bd8feb614d3aef753ac2b1033c03c7a7bef7287086f9f9f744e6a5e682abf401f85f01e6866e521a9623b776309379a2aaea2e919a7",
        "l10n\/sr@latin.js": "b0b5c78adad9c729461d9c29583ba68460f66a51b94d7d6154798214db69c8f3c5364ad8fd17bb6833dbe6588e782fe31348d5c4e7c0ba1dc185901c3f4da989",
        "l10n\/sr@latin.json": "9edbc7241b564dbb8bbeddd586e1c8161cc9d5be75dcb4c3479c446fc8189bea1c20687a998920eb08dcb2e6c125dc7edff257a2892ced44ce82f01e9e6007ef",
        "l10n\/sv.js": "c436211efc4a2f77d8a2386e7dcfd0d89c22b0f7747c932be150fb3269c7735a540a8a68a67cdf92d96e8995a96a4c3bf0dfcd5ba44d9a3a4988d8ef744e646c",
        "l10n\/sv.json": "5c6d599d24a7e6480264a1a4a288ecdd9c62523a322b395a89f628a158b2e1cf695254b67f50a98d341e79330c039f52946adcd369f10cb404b5ff3c23585048",
        "l10n\/ta_LK.js": "1626a0eab7b9fbdc1cf8b0ed791e3a6120fa811cad5bb9cd895185a866b56bd7f4399930698a9f7ef8e18d205b2840c9dac2bc3ea6f04f83df5825ace5b4b6d8",
        "l10n\/ta_LK.json": "5146349093f68fbe80a4ee09fb139c338574b5e944ae692ba9530a35c97d8af1b09f5d1d01600cc1c1dc6154542b01b032df7e082d81d22c0a78820064fabecd",
        "l10n\/th.js": "e4b14c12186eea387a4882697f07ef701f2d46b8ac50cade31266b3f67c1dbb84d981f4ff737cfeaf44fe8c1db465f7bbaa430406df4daff387f2dd8a9d4cec1",
        "l10n\/th.json": "ea30788f064fe93972fa4675fe59eb9337fd612a894b2b1ebdb1adc56339a53fb1248765bb7d1d100da93df4417721e7a9d4cf6637034f72d920d1abd2bd1d26",
        "l10n\/tr.js": "b390b89d5fea1e5b3274346af00a7f9caa859970c1669e7dec7cf826dcd4b8897d8c5108a3fa4c7e5a8575f2a97790996bb25af433123d5badb69789a4637c4e",
        "l10n\/tr.json": "dd9943cae2646ffdd7fe135e38521507b2f67e41f9d28f1998069d2456c5a1fea02d5d436a62d46262d9edca9ed05500ed674dc3d3d766da0512b0649fd4d50a",
        "l10n\/ug.js": "0fe52955a25fbbd9a67b5f436e7f840dda75dd004bfb535be18c1f02e5f899199d19ed261f50142113ebba35e6b3d78a52f747455e149de74e2f4521ae988969",
        "l10n\/ug.json": "95b3454131d38d8a301d62cfc2b8b69cd42e965cc09dcf8ab5b67f8b59341e52e5953fade2d13a863cbb44976ee355e360dba7130a05fa846b1cf4bb77bbf8d3",
        "l10n\/uk.js": "01f223835f302804874146087ada3c64f13703c1c6f4a973bb91ac2f134bbaafb048525eeb326c079066c255d9e4d6c1b789ee5d08167b4a690e559b29055cd5",
        "l10n\/uk.json": "f446eebfb46c0720c494f3dea7cba9947abdfa0af0b181cbab7eef99e1b9e99053fcc674d017d1c2b32808b737d9b2226ca99b16d5a8703e8cb113560e83a3ad",
        "l10n\/ur_PK.js": "e6259b59057f373a61d5da4141311bfc500877c74a81410008b3cd16d3abf182dec1e55c5ebec6346b05399d3c348a28aad237509442c1fcc3c0b49e8887f33b",
        "l10n\/ur_PK.json": "7f9aeb083aa209415a63f03598f45bd9bfd54ce0e7d3f13621dc5ce521429a0cce046d4afe8d678c56bcbb3eab3d8c14767285f7aa957dd87b090a14713407be",
        "l10n\/uz.js": "d6c9658d85f541d99446c5cf0fd4a429257383de748aa1f64fc2a0ac29d3d519687433658962bcdc9d60453c6f0a842a69ed9b2cd6a4570e2878a4783b29196a",
        "l10n\/uz.json": "240d01b4f24b5815f58a291dc2001815f299564da1d03376c16d7e1ff803680efb5ad5dcaa8b73a904dc9801a3a66411a0b2902b051428eb33c9aabc59c61b90",
        "l10n\/vi.js": "5ea1e2906234662f3a84903d9585d4c05bfe9bd9f9e05a256cf50fff4dfb095dd9fdf98b1b3d34618d10443679976530eb9efa38b9331c813bbd2d82e6a757ef",
        "l10n\/vi.json": "7b5cf5ce9db326e5a1ffdffeef33bb69deb45baec5f31f807791099bd1365309620a5801bea0b959d87ae8724fa8668ebd88d917c6dd2fd99f4be8218178dad8",
        "l10n\/zh_CN.js": "cb107ee812267db0a69a8a8f94ccd722cde64246d439677b8686e3ebe3855663f6f1c027e697573acf1fed7885d839aeb02a06896c9024c1257a2e75b3528d43",
        "l10n\/zh_CN.json": "47b204e67de1029d04b61dd5a2b24b83db450ae32724e9a2fb8a4d3776af944b1fe82a1946856baee3d422d383fc46bb9eb765901f0f0d64dd7e4f97b9af325e",
        "l10n\/zh_HK.js": "1e9ceca1a64a2fc2c0e1a3e52f15a456950cbb8a86d45dcaa83103323a70edabf2db5f7b17de56faef288bb63c85e34fe79b98b890ca2ef75dd1cdba38c6642e",
        "l10n\/zh_HK.json": "12526649a8087f6ba9d2dcecf3b9a7aa354219466d03333565a03b5a2ba7b8faf0cda2945ebdadd06b402d4b3240eace1b44c04397bf871ae5268e9d9201c828",
        "l10n\/zh_TW.js": "03b317902c0a5570b781f2fa60041ee7bf81eb63c7038ad11434a4c67459039a77b7988ac24a0ddf8f6030d3526fc8380fa7425306969994c1cccf69ffc3a657",
        "l10n\/zh_TW.json": "60f98d0f84259f42f4ed0201b05dbe854c14b1f8a3c178d385fe03428e69132ff9fff831d03195ea5d95f42494a36412b6bb83efbcc0aa9eb331af0998f6d67a",
        "lib\/AppInfo\/Application.php": "b5651176b5c2fba03afd06af8aaa9140743632b66e7804f32d4f3f1e5d83824583c609538bd82a339109d0df3c85af51960fca1f7c25376b22c4e763cc7072cf",
        "lib\/Controller\/AlbumsController.php": "7bd13fdfb64d304a8a25e6383043ffabd2bcea2a534556cdaaae851a75602a80c37bebf8281ca35b054c655cb7507480170afcc8ab68ec7ec44acdbf03b2f9e4",
        "lib\/Controller\/ApiController.php": "63a033e9a07add2734af0aab27cef68d93609b2566f27ea117ad573494ddde881793bd8f9f0a336d91042c488ecc13591e816aacd0cde8d3858375d1aacf0ba8",
        "lib\/Controller\/PageController.php": "47e53086ef314cc23dbdbc1cb0ae5ca37c1efcedf5f2bd0acaaf4669b099180db4c15d2743486d8d743b5e4e3e3aac14a275315b50a545e5061301824c314bdf",
        "postcss.config.js": "5ddcb1609f3bf75300656b93f96143b1d8320662bce8b9c308c370e15574e1243f740fbf66964623fd7478c5357ab69aeab869d780815914a8d86120bdbc23fe",
        "screenshots\/screenshot1.png": "4caab72481d63577f787cb70e0793d98cd4de347933618b0d9de6d656482a465918a048cf7cd12f62be454efec9c05ce35cbf4d83dee2197fc1eb3c28771fc2f",
        "templates\/main.php": "e8d33559cb6b1fd0c27c7a447da89bb2d255cce3cd3eb45d7ddf13eb68a5fb0ba5e23623cc3edaac345bd14b4d05874441e31fefa8e6e5c179a26c0a59b694e7"
    },
    "signature": "MMcD36oeqqHUTeF4a7FV1\/ZRi\/I06L99y1ajPIwR+oA5g88fCXlHqvtNS8+c0HAauESiMz9FYZ6qpBA47k\/2dcJfqkheD5GPc\/l1KX3HOb9RguuWq9DwpRgC2hZw604p6WrkwRcKpZGJwWCbSJ9D+mnJfCFiYhSTO6CxNx+wUggF0DyUZB37N6ak9Mcg\/dxUT89T2vH0yXLu5d7NricawxT6d8s7t3fOlVwS2VICzYU4LrSAUNoL5yjAYiiQ3xQtptLJxQuhhCJAwsyzFnBot+mhOY1zImmMWnPwQEOlzAaeFWClgDs0NOlod8mynWJTEuOi1ZsVMp+\/JXqdMtmLcA==",
    "certificate": "-----BEGIN CERTIFICATE-----\r\nMIIEojCCA4qgAwIBAgICEAAwDQYJKoZIhvcNAQELBQAwezELMAkGA1UEBhMCREUx\r\nGzAZBgNVBAgMEkJhZGVuLVd1ZXJ0dGVtYmVyZzEXMBUGA1UECgwOTmV4dGNsb3Vk\r\nIEdtYkgxNjA0BgNVBAMMLU5leHRjbG91ZCBDb2RlIFNpZ25pbmcgSW50ZXJtZWRp\r\nYXRlIEF1dGhvcml0eTAeFw0xNjA2MTIyMTA1MDZaFw00MTA2MDYyMTA1MDZaMGYx\r\nCzAJBgNVBAYTAkRFMRswGQYDVQQIDBJCYWRlbi1XdWVydHRlbWJlcmcxEjAQBgNV\r\nBAcMCVN0dXR0Z2FydDEXMBUGA1UECgwOTmV4dGNsb3VkIEdtYkgxDTALBgNVBAMM\r\nBGNvcmUwggEiMA0GCSqGSIb3DQEBAQUAA4IBDwAwggEKAoIBAQDUxcrn2DC892IX\r\n8+dJjZVh9YeHF65n2ha886oeAizOuHBdWBfzqt+GoUYTOjqZF93HZMcwy0P+xyCf\r\nQqak5Ke9dybN06RXUuGP45k9UYBp03qzlUzCDalrkj+Jd30LqcSC1sjRTsfuhc+u\r\nvH1IBuBnf7SMUJUcoEffbmmpAPlEcLHxlUGlGnz0q1e8UFzjbEFj3JucMO4ys35F\r\nqZS4dhvCngQhRW3DaMlQLXEUL9k3kFV+BzlkPzVZEtSmk4HJujFCnZj1vMcjQBg\/\r\nBqq1HCmUB6tulnGcxUzt\/Z\/oSIgnuGyENeke077W3EyryINL7EIyD4Xp7sxLizTM\r\nFCFCjjH1AgMBAAGjggFDMIIBPzAJBgNVHRMEAjAAMBEGCWCGSAGG+EIBAQQEAwIG\r\nQDAzBglghkgBhvhCAQ0EJhYkT3BlblNTTCBHZW5lcmF0ZWQgU2VydmVyIENlcnRp\r\nZmljYXRlMB0GA1UdDgQWBBQwc1H9AL8pRlW2e5SLCfPPqtqc0DCBpQYDVR0jBIGd\r\nMIGagBRt6m6qqTcsPIktFz79Ru7DnnjtdKF+pHwwejELMAkGA1UEBhMCREUxGzAZ\r\nBgNVBAgMEkJhZGVuLVd1ZXJ0dGVtYmVyZzESMBAGA1UEBwwJU3R1dHRnYXJ0MRcw\r\nFQYDVQQKDA5OZXh0Y2xvdWQgR21iSDEhMB8GA1UEAwwYTmV4dGNsb3VkIFJvb3Qg\r\nQXV0aG9yaXR5ggIQADAOBgNVHQ8BAf8EBAMCBaAwEwYDVR0lBAwwCgYIKwYBBQUH\r\nAwEwDQYJKoZIhvcNAQELBQADggEBADZ6+HV\/+0NEH3nahTBFxO6nKyR\/VWigACH0\r\nnaV0ecTcoQwDjKDNNFr+4S1WlHdwITlnNabC7v9rZ\/6QvbkrOTuO9fOR6azp1EwW\r\n2pixWqj0Sb9\/dSIVRpSq+jpBE6JAiX44dSR7zoBxRB8DgVO2Afy0s80xEpr5JAzb\r\nNYuPS7M5UHdAv2dr16fDcDIvn+vk92KpNh1NTeZFjBbRVQ9DXrgkRGW34TK8uSLI\r\nYG6jnfJ6eJgTaO431ywWPXNg1mUMaT\/+QBOgB299QVCKQU+lcZWptQt+RdsJUm46\r\nNY\/nARy4Oi4uOe88SuWITj9KhrFmEvrUlgM8FvoXA1ldrR7KiEg=\r\n-----END CERTIFICATE-----"
}