{
    "hashes": {
        "appinfo\/info.xml": "da4d38bccad10e650ca82f7360a586b298d0321f96b9e966387e89af780325a6c5074e35a9b3d007c4207ebea2d186acea60ca739bb5f29357fc15d16a666a38",
        "appinfo\/routes.php": "7a08391d06f3228822375f9453157f23da5b0ea1dd4706e49e896b96e500d37f77833d308d247cceb2076d18b14d73f18c6a15d37765270c82f300f0e9551d37",
        "css\/support.scss": "9ec3d71a9257cda6d2753bcf2a89329d45dad64673f4f71f2a66661bf46bb4971cbdc8f1b0d341cd49df8c796bdd0f21c1894d3709a33e0ee2cf548f54171d36",
        "img\/app-dark.svg": "721f7978cda6b3ed843b03aa0dbbfcc4e682b5311016c1898de105be13460134d3d13798b8391bdce65009e8c4bc566f2dd14b71f8257a5b45783643cfa27644",
        "img\/app.svg": "ad9812fd84ca43e95ec12f19c74d37a493b114eea51e43715af2c6761ff8afb33805d320628ba796e0e3393565c3428488d1138f93298838e6464fabcde0c0ef",
        "img\/chat.svg": "3af622a79bc3dde87eae3f4043effeebb994552dd1e92dc2debce432bc5c8965c6013cedcbb6af18be21f643df0fcc347e1c40a26aea7d9d5ba4cc2a42af0e68",
        "img\/discourse.svg": "4557ac796d45aa7bca150d8f52b4c4ffe171fb640eac12bc3ebb5275f620534d27b5e27ffb5bd7e02c26399614d943ed518fb868f0576883cf76bf833f1ae215",
        "img\/expiry.svg": "e54ef7dec5e1c0e38465f271c39c75651075ce439b3705ebb21b6451049e4a1e33e42e634a7a4d3853d37b5797bd0e698425031e96769f683589e7c6d744a952",
        "img\/github.svg": "435ddcf0a67e14b70bd44f10e4bced343aa79ed55151369670976ddd9b6e10618496101c8d9b61142983020f296df30bfe63cb1acc298d74bcbd8ad1741cf59c",
        "img\/notification.svg": "2db85185e8018ba06534c32e2441787317a4dfbe0debb12e7aa59f660e704256b62e0e80c8a84231ef2a71a006f0905724bc2fb5ae0dc4e8e31b5a76d3bc1d22",
        "img\/section.svg": "2db85185e8018ba06534c32e2441787317a4dfbe0debb12e7aa59f660e704256b62e0e80c8a84231ef2a71a006f0905724bc2fb5ae0dc4e8e31b5a76d3bc1d22",
        "img\/signature.svg": "721f7978cda6b3ed843b03aa0dbbfcc4e682b5311016c1898de105be13460134d3d13798b8391bdce65009e8c4bc566f2dd14b71f8257a5b45783643cfa27644",
        "img\/system-info.svg": "91833e5a9fa3d3cf2535591da9ace8b94e29a0d3a0c5d599a60e5b293a15f86aef704aa4d007905211ab79bfabb65af9ead3c11439040117a28fcbd870eb9c7e",
        "js\/admin.js": "20d4612814ace167c5bdcc7d29dc06df0fb87f9392a6d1b715a03183f9775dac54f7c3eb2915ea31458f1f8bfc3c8d2c9b829829bfc0f37bc5550b48535a9b64",
        "l10n\/af.js": "8ae9a1414645133ee53bd54bebd8626d22dd3a0d7fce852d1a8b33368f6f01cf11c8ebaef9a699ac430ce89781732d6f593f98a5b84ccdc29deb59d547059094",
        "l10n\/af.json": "696a358a8a6cd9508845c843dc9d282dbe87403f6aff7551f45066f4b5bd2d703f894dad60c607bbe3b19e3725babb6f5390c4dc5363148492d03629d5c2a92e",
        "l10n\/bg.js": "89cfa9f9e1191f7b605f1df0da9f5ebbbd9f7cecf08a119d8b472daa093073964a5d714a9354c35de545b9db844d2e1a909164cf65678fb64076e4f86d5e0ed3",
        "l10n\/bg.json": "371a892aba9088f13e411b17552e999a5d88482068d311832fd3f4c425949031d805cb41e87503786daa8e5d2aa84c048c284916e8999b6a965aa9822fba73e3",
        "l10n\/ca.js": "fb5b05fb65b95bbfb17e22844820f2d476b445793cef8858dc20ddb89973e49fc7cc2753e23b418a305fc274a0c657b72703b6e89d08f76ed2772428e1d7464f",
        "l10n\/ca.json": "39bc88c0c9d9f83f5c909bea4eea2e96aa5b0bf9a2e55510cbed2a9218644689025437fba1bed65e15a4e7eb66a432ce8fc6e8df8126d5a3a90dedfb611e275a",
        "l10n\/cs.js": "843b00b2450853eb156a25c803cb5fd1137829f9c295d7520fe8ff56f5e5f26551b1972a593eceac3dc7ffb5bce570b36e38aa712733a5a2178261393dbc8554",
        "l10n\/cs.json": "038dcd5dc395cb86b7247c7de30452fcd707afa31d6af8e4a7ee647d19c157a15cccc49bd9377cd8b99cb4197f07a698c16090c67d8da21214789d838d7c37bf",
        "l10n\/de.js": "0bee9dc25160cff541aa969d14f77a8642ccf670f9f3570a154434298f5bb5db8fa7c4ef44a5c8d752383deb906274077531137e79d5b9cddf7e8a07eeee6dbd",
        "l10n\/de.json": "8ff579c1ed3f7feb90a4291b1ea54746a5ec1e3f2ce38b26087d2d69cfe7e17b6f0ecc289e4b08ba1147125dfb9b6312daea1de965fac6f79c9860df76a43dc6",
        "l10n\/de_DE.js": "376cdc98896d3831876e050a2a17fc068cc51857734d47467a6a232239e7704d508c046f9707ddc498db483e0cec91eeadf9dc4481aed9da3d38c763d8dbeb12",
        "l10n\/de_DE.json": "85c8e5a0a96a523f0b670c9daf7cfe9ada038bef1d18454447b6952490c2419e430cb725928f8aeee20bb6a34d8179a501feca065e2452d9919f98fd7048f9c7",
        "l10n\/es.js": "18ad0c3cd8f4abcc5ba14682ec8aaaf1fec3ed27371be72d1879d855f7b0340b70e2fce8f53157acc60cf57e7326f4c2cb17b363ff18dca133906f0506dfaffd",
        "l10n\/es.json": "a3ddca2d4ef5886986e92d32281ea0432a31109d4c32e1acf21916771da57864f39c88433067865ea13ec698121c692988c83479242a74b4f3d420a48db434c7",
        "l10n\/es_AR.js": "524c3f383a1d42e5f9a3b3bcacc62403b2efe1f823fe5dadafe0b7e79612644e16de3491bd604cad3cacd9ddc65eabb0edf92f8fb99a495273ea65cec7943a93",
        "l10n\/es_AR.json": "b5fe6c73ff999a1bd60c725a9ea1035bf8d689ac2903a55c3cd008c8547874fff734da9b55c5807f467e70f9ca66c1da7dda652c5cf044f9df39b37d75fe7823",
        "l10n\/eu.js": "2aaf33afe3e322c0ba37401a5c25557657674b021ecddf00c864033705cfa44af5c87608b040e4dc10529cfb3982e014e226b8b42c89ee561f34d9dd3d4747bd",
        "l10n\/eu.json": "225bb8ca54dd5f365e5b37ade5db61fcf45282e077af4754a8f5b12ae02d1a4038b92a4ff94f6f9960b2c750e4811864b0047d4fe28818c722387219f78cca1f",
        "l10n\/fi.js": "ef3500550f29083d8750f27a5bbdbf3f848a1a2ebd8c6667d153a98964989916eee950553a5fa1e9f2a4ee5f1773f63d9af1501af1dc38dc2268ed12c037b68a",
        "l10n\/fi.json": "fdb472636132819c067e3ae0d58836818099736fdbbc7dd3813d0c3dcde281ff7b8214bb1a486bcc0782dd01ceded400d49eb8a9af4b1d8ac41c0134238bfa1e",
        "l10n\/fr.js": "9740dc5075a3940b1f23e6b64311e6ea4186e3ef3d86cc05f6a3b4c398fe611023ec359aefac57da256b586184a0ee8cfa4599458c86a207fe87c7834871fff3",
        "l10n\/fr.json": "8f96c298ae6aa3fe7e062197f8e85e27799437a9057752601708fbb787ef695fc8b1cdb05f9314a8d36550fb3fe3b46c308a5fb58fa8fc15a26c930394dd0a37",
        "l10n\/gl.js": "ffdcd7d37c4998f3c4d87b92dea52b6b72931c462b19a1bffd83840725dd4eba1d37a6b289c47e415d0482aad7ce477dde972bdedb91a6ca46afd221be03abd6",
        "l10n\/gl.json": "9ff6e3ec8b1a6386a42f22dee5a4b24acec236e1a25f1bb42080d52d85de88267b929b701e31f5f92d7785447322ad4778a1f12e27c850b90a719241f1f72362",
        "l10n\/he.js": "df72b398ac679f6c19efe275e6f55a1360ebe46f5208959cc476204e3be82af863c79377a9b65a2b84c2d10dfb6a392830fefe0545152d86b64b39cda6ab4f90",
        "l10n\/he.json": "f1e240fd442d7d281a13dd48a980c1e60130f41fba7fadbb87e87364e8c9e5fc6316ff08b9c3a50ed14a88eeea7e535a9e2a3e8689dc3d38f832144df651bd9e",
        "l10n\/hu.js": "73b32e30d6776869c9dc6438ea4d0e820f899a12b819dad511c0e54b9c75b7d74f0cef6f20f1df754c65b877b1f7b28cc3370393f495c89701e6307aaa755fcd",
        "l10n\/hu.json": "3a97be30894fd87f0b3e825b920dbd7eaeb3944f9a01208719b5fb376395f8cbef74021dcac5281c4dee0f281ce0a800edb12582e1e53b1c845915ee8005cda7",
        "l10n\/is.js": "ca312bb961a4546b74d255be2ef977d7367fb78aadd8ec5e8aa6944ba8aec6340f034085d5c0f17a5b55ead5ad1c69f670cf26eb5b5a9bc08a870d26b63f610f",
        "l10n\/is.json": "04bf498cbb5e590e4619ebe866ba63189283d9f0e2a2e540925c7534cb5da20ebe843ca8cffc4de3d059a3a1a51bfdad46764d27a0ae3780cbacdd4634bb3b9d",
        "l10n\/it.js": "ab528656552762a7925402be01bb28902f30700969c059de8cbc18dcda58893d5d808f0ab5cf7a4af37d2f59f30f6caa4134a71624343b71cc81501eeaa9e660",
        "l10n\/it.json": "0287eb76541d007d74630dee2e13befb771d7cb0f787a860f4b7167d652f2751ee97c89e4d2fe45e1e8da5db2896b3e6ee89b3cffdd60bf35bb97b7b2e7594d4",
        "l10n\/ja.js": "41cb093323799d1b6bb39590c6a58fb12d5b8d1b9c0b7f86f1a7147881d498729fa00e43f68623e91698a55f3b9e5946d1f82f4c580803697f31a87a33af4ac7",
        "l10n\/ja.json": "3bdd94fc8b7e3b4d7e75473b80627ef77f7ec046d3cbcba936f0109439670ba65288118efb31dcee055bf59922b35fc60a95d7fc628ba7e755a9ba2cd7c61fb9",
        "l10n\/lt_LT.js": "4e1cab0981e190eee33fb94c56ccaa304a36bce0efeb30ca79a0cc2d88f682e0155ad2a6336203fcf06d7274c600d2923bef924c1e3a3f59027646dda585a709",
        "l10n\/lt_LT.json": "ae2496ea3dc46df00cddd37ddc834c558b834fd78ca0e277184f1b0d81b000fad6239ad78ea64b3a8ce1c6a1211a8b08bc6723ac2a047d5803000f581f8c1e6e",
        "l10n\/nb.js": "2237d670934ddece47f7bc9dac4cfcedaf5347fba8310277521fa3f96f09c8138a680ddf2eadebfe43c993e15e5ee5178f415e34f0b7d5f0bc93b5a03921de50",
        "l10n\/nb.json": "222a008fd40e241a4d48899d36ad517539ea91a3d6b305204b996aee3bdc66fd829d1d67f82dc307a3d7d0112f6db45603de47d7a41347d38bc2b5ce1bb53a4a",
        "l10n\/nl.js": "3bfeecc3fdcb7b6669f803a025dd85ccc4805227a888d8b22bd4f794ec0bba710c75471ded291ee2fbf29eef0abab2a956e47edaac1873f81822794bf322e19f",
        "l10n\/nl.json": "dfd393a06b526e25225aeb6130ffbb361b67bbb5852cf4902f6202c7e43781b5dacd346a7b464c0e5f9d6237c4da344867a04ca9c9bfcba566f3da1299898b48",
        "l10n\/nn_NO.js": "7dbd84149ffb19f07e00c0a5d938c7140a42e93ee557b11b783afbfdb7d6af67461b34706d60eaca9d51ced65fc969b87f42ddf3f8a41894dd52c1927d138745",
        "l10n\/nn_NO.json": "e5d6f885b4ff43ad369dc8b57c8509f6e99a115a96adb7b841fff6c1a8bcabdd5c7d7cd7cca32fd0cc2af719c21822865e165dc3f29f2f387df308cc8e68a178",
        "l10n\/pl.js": "6d45a8ff69c8c0dce208e640054696d04dd18de39eb58b1e680eb1e96b3df2b30be0b698d81855e7fd1508634b2149f034595f8076ec98bc82dfecb38f24b93b",
        "l10n\/pl.json": "baa9688f48fb87a899c260ad8a2180f4c642e977f9560d28cf4717c4306567822b47799873cc009d423bad3b2c54c73de2c2d61961c6db4108b874047c5cd875",
        "l10n\/pt_BR.js": "dded69a2565a27115403d8895373b3fcae9f30d05439d3603b7779a88249997dcbb0c60a57f4319ef544c6b58f8e5afe5370456b4e6a516ad4d2976d4e925806",
        "l10n\/pt_BR.json": "f6a856e47e19ec762fbfa3927ea12daafa38065dbc8b11a4264019ad211a421285a15edd386798b3a15fa1e6fa1842aa4caeea555299fcf9faac82a85cc329fb",
        "l10n\/ru.js": "30b180327e7336db2df3725525f5b030b2b8844adc418e559c0e06da9a0cd99fe2c72619088042aa8003be2b32d1c304ccd6a80c7fb078f55f69bc8b16d0bfaf",
        "l10n\/ru.json": "3db933f74b26bdbfcd221ab8bf15bff9ab0df633f25c5667440b4b870e051c6682a17132e8a6aff06559c332b0bb45744d8a73748d7feda4c0d214c83f96b72e",
        "l10n\/sk.js": "21c5f641df268efb4228801cf0c0d4a403903b47d99480100f4aee248edbbe6a7aa5179fc3579e7e5bc88209fe6199a278abdec5300c533473e6ea6490918c01",
        "l10n\/sk.json": "bfde7010528789aec4b976b374415b440a86178125e04d16674fbcc80d51228b23d254bb8c3a0f898e9f46300257f48f05e783ae55d5585aad48af17ae52e4ab",
        "l10n\/sr.js": "dde88d346eb75996571b058f39126a35840deefe2b6e21fa4efa453a3558c6543e4fa9c67e3d1ea023216938779e7d20a5facd0592cc25b2751e50dcfffe12f1",
        "l10n\/sr.json": "87dd73c13037a75b5213b5e522954ddce6e09a5265e7eb0e675c4f1362988172a83052112b1ff67381e882a21673f8b24b256224c4ccbb9c1c50c5cae0a9c0a2",
        "l10n\/tr.js": "81ca3b2c00ea063734d430033b5b487ee811f760f0c6d1e5938b0b857d795d51eb2a5076e5092b88cb514368152745a2fb015f7cf9ba5549943ea4329d23c6b1",
        "l10n\/tr.json": "94f1cb8eb0bbabd3fb9302a4478e3ab42b9f294694e58af3df9c7653b72f02fdd9dd58b89244ae5e944ee75b3cbe17056c24d43e9f78c44aa1b8d6bce124f0b4",
        "l10n\/zh_CN.js": "7e4f725dd010a7f1ebe85574a5f990d6a0186f41134602ba151b3b0ba59deb412e686bf8b2c78dd5ca26a576571f3f9b1015474138239485d8a74ae19bf50285",
        "l10n\/zh_CN.json": "cacbb46d49cb533ce3b27fbe3c0fb9be4826c51494ce4d1d6bed103799df621bb871556feeeec779749d8a7a705633a91b63062461324fe672682f5f89ba9c60",
        "l10n\/zh_TW.js": "d8295a1e813e299da4d790641f865071d3ff1858b15402e91cb92cce68d079e3a93877b18a382a9e4e1a2ae5d1832e48854f8db5c97688b250f5c1279866fbb3",
        "l10n\/zh_TW.json": "0a03a451714e05a883baf1f9982611769befb0ae529da93162f702d28114ca98929a311e4d3eac0d2786d86217fe285458a55ea6b1f551291a6efc7dc2cfc979",
        "lib\/AppInfo\/Application.php": "1b0e22551f4f479dafd2e973b6c38d02bca3a4f1af94fc3006c59653e2f492cd93dd128ad810c5d48936b76b8371451f73700d49aa2a33252aaae68df5558d47",
        "lib\/BackgroundJobs\/CheckSubscription.php": "2f69ba89e248e4ac87a5772ee388a926960ff69012b0b6aabc598979695ea795c040a000f222dfd23066915514fd15b3468f6d84236aaad51585ceb5fc996c0c",
        "lib\/Controller\/ApiController.php": "9178e97e0355dc6ddfe86ed3afed160ed8c5eaee4d7d0129a1ab572811af42be6927dad2c4745c89d150ba1d455b30800c74ac99f5fa536258c93d7ec8c83a5e",
        "lib\/Detail.php": "f1c0266f5b3add7a16d0a41f452bc44538f93d300e279cd11dc8b8757759a828bb41288b579c40e383a69155dbfe15c311af370fb2f9a19e7c2974e1564fb548",
        "lib\/DetailManager.php": "595e54d661f196fd526eb672ea2d69f852c02544cb9e66140b5a0c91d044e039353ed831dfa3b32f202550141f30cd6156b8a6b14552012c93f546a61304d7ae",
        "lib\/IDetail.php": "07199c5765fb9ea174b03478ed79f9f187045fdb941bb5332b080cd0b2fec7f1ba7a10113bc876a01289b1e59d47950f20020435191ead2be56067e4039a1181",
        "lib\/ISection.php": "231316da5d59eebd57320275c8aa3aaaba4ef7193b5dbe0c4ea50b37d4a1c5ed7c762b9a1a68a16b9ddf9b9120f7282edcfd95773c88983272000e582e4134be",
        "lib\/Notification\/Notifier.php": "91955aaa0fbb8b09d4469376888652e5583b065fb379d0fadbc336715db6753d0e050b716b08f454b023b29fcddb18cfb32798634608674c79e40ade04da5e1f",
        "lib\/Repair\/SwitchUpdaterServer.php": "703d40ac02afa0d444141d490fee82a7457ca0b5f1b31c230307aa31fcdfb449c9a8f2b25c2afd6db3a95883e2a613d605a811c70006a20e28cb5b481d7a0510",
        "lib\/Section.php": "18e81a5861cdbc6292bb842bd32fb53da972a8c73f55e9b7dba9957205f980ff50341282c08e6fe4c470562152200fb985abfd3e574e86477910f8571fad07cd",
        "lib\/Sections\/ServerSection.php": "b1ed9bc4f4ab34f5a890256b52d60019f4a0d471a5117253fd2011b2fff20f5df6f59c331a0cc5f437ebb5429372ac6098771053ba647f9dce46324582f7b8f5",
        "lib\/Service\/SubscriptionService.php": "21f2be101db80e7c63abbf0629bbff4639064b8aa548cc79b3024bbe8231d2250f6b294f76d04423f93be9895ffeb95974a51331c0187397ad4da6b0b4b30a97",
        "lib\/Settings\/Admin.php": "1f94a9804adda021b5a27b70994f6e758cc68ad785ece5b38e7e72f77e3025adcc35eaf18fd2c3048f491a4332a9a2e2bfc0acaf512e852666c760080051056a",
        "lib\/Settings\/Section.php": "4d4b06acb5ba2e64f6f0b5a66b6ed37de1b5c758976382e2338e90ee39049592404a099b614ce640ed7adfcc392c9cef54649f78445b10c4297b61ed832c837e",
        "lib\/Subscription\/SubscriptionAdapter.php": "2de4efed687b4a7cc3507f95075c5a12e4c3989dde3fb8fa065aeb47bab4c19bee6c94d3e26a1fb73945d28fcab8c1d6e2cfc4af2e4d95a4a7868bdb37d31839",
        "resources\/Why the Nextcloud Subscription.pdf": "76c1a580a291f06583ff3af34023a97c111323eb95e32a49a80a00d52a1df2574e605562ae9ffbfb4edd35c54ba77751fb4bb8215f438cd3694e105d1b7e3d94",
        "templates\/admin.php": "aa575a6a87b6af0d7a7a72c799cf6398092e9b858f4dc717d08e30b47d11fca0822ec0021c110283ad9c43ec3dcc56dc175f6736ff04d9466d08f934181c29ed"
    },
    "signature": "Gw+WwjLXEmnqRPCxOP\/vyyQwWzIXX4dwkjmit+Kqqpp6Nu9uCSc1l9RZCyDatnEu1Gw3ZlqJGMUQ8d8Z0pr+NGxVLjWH1J6G\/dqGqyZTm1Mqrbi3apYk8f5s3BiBrP5tfJlssbG9Fe+gErAAAeV2JzyA+dHAWLk2DfpWP8dnD9dCndOLC7qEfRC9I7BhFCE6WsZ9MSy2C5jhEGtWy+sBl0Dk0BAprfC+weMxlu\/mDPWXgRmmVCNIJC6kx7w7H6CJxYXsliqF\/dRhhCXfLzO+l5uG4nsn74Eh39fnyeLsdbPHsbhnCt5E9XUv8Hh5mnaEy+UKUiEQWyc74eMWL6hURw==",
    "certificate": "-----BEGIN CERTIFICATE-----\r\nMIIEojCCA4qgAwIBAgICEAAwDQYJKoZIhvcNAQELBQAwezELMAkGA1UEBhMCREUx\r\nGzAZBgNVBAgMEkJhZGVuLVd1ZXJ0dGVtYmVyZzEXMBUGA1UECgwOTmV4dGNsb3Vk\r\nIEdtYkgxNjA0BgNVBAMMLU5leHRjbG91ZCBDb2RlIFNpZ25pbmcgSW50ZXJtZWRp\r\nYXRlIEF1dGhvcml0eTAeFw0xNjA2MTIyMTA1MDZaFw00MTA2MDYyMTA1MDZaMGYx\r\nCzAJBgNVBAYTAkRFMRswGQYDVQQIDBJCYWRlbi1XdWVydHRlbWJlcmcxEjAQBgNV\r\nBAcMCVN0dXR0Z2FydDEXMBUGA1UECgwOTmV4dGNsb3VkIEdtYkgxDTALBgNVBAMM\r\nBGNvcmUwggEiMA0GCSqGSIb3DQEBAQUAA4IBDwAwggEKAoIBAQDUxcrn2DC892IX\r\n8+dJjZVh9YeHF65n2ha886oeAizOuHBdWBfzqt+GoUYTOjqZF93HZMcwy0P+xyCf\r\nQqak5Ke9dybN06RXUuGP45k9UYBp03qzlUzCDalrkj+Jd30LqcSC1sjRTsfuhc+u\r\nvH1IBuBnf7SMUJUcoEffbmmpAPlEcLHxlUGlGnz0q1e8UFzjbEFj3JucMO4ys35F\r\nqZS4dhvCngQhRW3DaMlQLXEUL9k3kFV+BzlkPzVZEtSmk4HJujFCnZj1vMcjQBg\/\r\nBqq1HCmUB6tulnGcxUzt\/Z\/oSIgnuGyENeke077W3EyryINL7EIyD4Xp7sxLizTM\r\nFCFCjjH1AgMBAAGjggFDMIIBPzAJBgNVHRMEAjAAMBEGCWCGSAGG+EIBAQQEAwIG\r\nQDAzBglghkgBhvhCAQ0EJhYkT3BlblNTTCBHZW5lcmF0ZWQgU2VydmVyIENlcnRp\r\nZmljYXRlMB0GA1UdDgQWBBQwc1H9AL8pRlW2e5SLCfPPqtqc0DCBpQYDVR0jBIGd\r\nMIGagBRt6m6qqTcsPIktFz79Ru7DnnjtdKF+pHwwejELMAkGA1UEBhMCREUxGzAZ\r\nBgNVBAgMEkJhZGVuLVd1ZXJ0dGVtYmVyZzESMBAGA1UEBwwJU3R1dHRnYXJ0MRcw\r\nFQYDVQQKDA5OZXh0Y2xvdWQgR21iSDEhMB8GA1UEAwwYTmV4dGNsb3VkIFJvb3Qg\r\nQXV0aG9yaXR5ggIQADAOBgNVHQ8BAf8EBAMCBaAwEwYDVR0lBAwwCgYIKwYBBQUH\r\nAwEwDQYJKoZIhvcNAQELBQADggEBADZ6+HV\/+0NEH3nahTBFxO6nKyR\/VWigACH0\r\nnaV0ecTcoQwDjKDNNFr+4S1WlHdwITlnNabC7v9rZ\/6QvbkrOTuO9fOR6azp1EwW\r\n2pixWqj0Sb9\/dSIVRpSq+jpBE6JAiX44dSR7zoBxRB8DgVO2Afy0s80xEpr5JAzb\r\nNYuPS7M5UHdAv2dr16fDcDIvn+vk92KpNh1NTeZFjBbRVQ9DXrgkRGW34TK8uSLI\r\nYG6jnfJ6eJgTaO431ywWPXNg1mUMaT\/+QBOgB299QVCKQU+lcZWptQt+RdsJUm46\r\nNY\/nARy4Oi4uOe88SuWITj9KhrFmEvrUlgM8FvoXA1ldrR7KiEg=\r\n-----END CERTIFICATE-----"
}