{
    "hashes": {
        ".eslintignore": "ca0a257583479369e73803a54fc6e2d9c457aa4978ca882ce76bfcc46a15e076a6dee30431598968aae1f672417f8170843c434781d99949c20a810f23abb2f6",
        ".stylelintrc.js": "5d0c9956ae3a3a1e880bf35c3fd59840f331425e75921005c86bacacfb4e2e9ba805b8ae293702d6f2b893e5bf1b48882876a344cf49e076a527021d2d013677",
        "COPYING": "a0a86214ea153fb07ff35ceec0848dd1703eae22de036a825efc8394e50f65e3044832f3b49cf7e45a39edc470bdf738abc36a3a78ca7df3a6e73c14eaef94a8",
        "appinfo\/info.xml": "ffc33e4972a97f807eaa2dfe384dc8b30490e510699399c5578d9490c985f0881368f5e692798b87e1f91cf5cca43414efe334cd158f9c2ace65b1950979e855",
        "appinfo\/routes.php": "2af7e786b9bfa17cd6e9b16da1a91647e28d751e4a8b8857816fcc3484a06d68bcc7724605ca423517412e75e6854f5f6aa19d98eef653a3f55aa6eba446ec39",
        "babel.config.js": "f0971e838e68d5615c275ea4b7885c842fe314b6807d77a3f98470cf230e6f085c135906f21dd988235df3375cfb0456cad73fd025713c4e50b0f12f813daeda",
        "composer.json": "6f1f3aecccd6df8b3215e0312f82997230254c07d481afb2e0836f5f8cd2c0289d3af29fffca0a50a7a303ec120fdc956a68d7cb8bf78b1bb2c5859a265c3847",
        "composer.lock": "c5f61b58257fbc0c0fe53e72b5bb0b8bf50857cc9423621085a683334d073123cca63b4f4c7c2f0b5427a7ff3e51bca2d8656d56022ef1dff1abaa9572d6facf",
        "css\/privacy.scss": "4388b3b576a3387eacfbc26280551ffe930d6c630b0d919f91dea83916b2ae2baf832aef8d2071162ce8eb3149b71ee77315562e327cc3371cb346d4559e1025",
        "img\/app-dark.svg": "3446145da6d7e11cf2a4c1dca9bdf6ca59fa5a38ce0a311f74210f763ef9f9495411714486ef1c523c00f09240fe810bc299dea5026fd3406aeec6373d213152",
        "img\/app.svg": "1577634ee0e78d77fa35cf93b833e6ccead0b256f5e37f11a865d5ee3df379ba3dc4fc0cf54c95e3dea49190b3b3de2797ac54e9be56a4b90bf568d865babb75",
        "img\/control.svg": "84e6953ae066da70d4eebab8bedc32f0f4721361559605bdeadce22756fa70f2668634396913780f938cb3f20b9e3f6997f6c72abadb34b19508f96f18640573",
        "img\/freedom.svg": "2e616fd98a23fe55b637dbf74cb89072f04e84df529c05a041d3ee4aa2588845c393c1ab148f26890bb3b3bd2e59f4c3574b505f2e1a7cd8e04566e4dc25cfe4",
        "img\/knowledge.svg": "9a1baf2c4ea9eb8f63d35a493895c5488b5765a80301d1b5fe13ca176615a69f874ac98b2f9dc0e26f24d0c496bfa385a45ec96bdd3a6faacbd494dc209144b6",
        "js\/chunks\/0-67bdb1018507b71d5d1a.js": "15057116625a8ddd4e1d97b38ae09331a310a3212f0c2f77e3b8e4bed916988939beb2a081485c57d528d9ed487f7166cd6f0f2d11dd334de2f09272ead53c90",
        "js\/chunks\/0-67bdb1018507b71d5d1a.js.map": "5f1754a5e3dae68338b7805dc89785c779a64bef7b3fe94939be75a39ec8ac2b0c12aed62767019a7236c6b10bc7c851bd5c917f91d3d24113b5444fae7579ef",
        "js\/chunks\/0-cb3756be5d83e6808ba0.js": "04b3a37e8f4e866dc5327fb2b9a7b140d110e096792a32448aa8f6cc814150bf6dc27ce3ee29de6c33a7fd1ed82ee09244b03a04f3ebc06bf165e87a737720b5",
        "js\/chunks\/0-cb3756be5d83e6808ba0.js.map": "0031671ebbb10f568715cb9b15eaf7bbd8ca8cc55ce8cdd7c5c331ff08cfc8fa2cb7dc2d116cccf88148bec2253f769eab9354bcd0805ebeba979a781e1c52c7",
        "js\/chunks\/0-d52ff358baed002ec5de.js": "e3a2a6b88d29de93b8d04e49799371fe73baf7555c4760b1f7fefd05afdd9535342d191be20770e0be0ac91d2724c86c3a70bd2361c3af5a893ac8d270cb1483",
        "js\/chunks\/0-d52ff358baed002ec5de.js.map": "c3e529e720f35f879dfce9e47b7e4d7b9168052aa76024b32ee18046d47a770154e05eba351dd5f683a19df45a24f660c66e0a00f981f2fc56e1366094706446",
        "js\/chunks\/1-67bdb1018507b71d5d1a.js": "da912f687b2cea7d5ce24d18ff39c66726ffac610d396241df2534da8846aeb00e97945b83b9ba66005082bff45b93e788de5b7a655c8714fb40f7eb91fdc272",
        "js\/chunks\/1-67bdb1018507b71d5d1a.js.map": "426cd890d41a1ec3b129e4394968d0845c2a8660753d862b0949af39007a649fd0d85a44a3263ec226641405fac2f5af1dfd2b2314d4557177943c5a757e0bdb",
        "js\/chunks\/1-cb3756be5d83e6808ba0.js": "03236c810ff6ba53e566953d77cd9393d3c51b2acde56d53fb5bfd8a52cee8afa8102566a08b16b93a550014477be9702a9227e079bf983d1a9d1024561d1807",
        "js\/chunks\/1-cb3756be5d83e6808ba0.js.map": "4cca4e72917d41d10af87b7bc8de6a563b1deb120fa3bfa1b5d571b917358578f61590ed466c5cd3fea2d0a77fb83a5255cc0c35b93feb59c6a276ba06262fcc",
        "js\/chunks\/1-d52ff358baed002ec5de.js": "9e808dbbaf00c76d121875febc67a298e90678c3792a715d99a2b2510cd484021232fbfefb0b1cb6736411a2c4f053c46861fa093bee51c48f96b719eb8a9967",
        "js\/chunks\/1-d52ff358baed002ec5de.js.map": "61c179bc83d257c1bed8a86934d6c9cfefab647f33e1d5139ea8a32ca84ff10a6589e4e8df2f3680d36187b47bcecf39dfcc8e25cdebf0760acd2cf55df20556",
        "js\/chunks\/2-67bdb1018507b71d5d1a.js": "5e0b5ee0c74e3f349cbb78932af4286bf56229a2cb3e4d35f8295b8d1dbe676600a72b7010131cc06bbd2bcfd5226f95db4b2d617cdd3391beff99b8b7ff38bc",
        "js\/chunks\/2-67bdb1018507b71d5d1a.js.map": "d5e00d7eec211caf6c29e9bd38093b9d1aabbf5b33b0dafe8bf6acb65e00822a420f9648aee5f970fdb2f336c61cf70c39de6b8848f1a9788aa3b63c3937884e",
        "js\/chunks\/2-cb3756be5d83e6808ba0.js": "09b4d9bd845dc3fb4a3e592d87d1e36ffc15361d7af039d25c63041bed1b0da393bfd23063936b151d7f7d89562bc51075f1e606480c1b907cd102d82f72d502",
        "js\/chunks\/2-cb3756be5d83e6808ba0.js.map": "e1fed60cdbeb991c24a81365e0099281323d230fed0de825ee81d67d0950b2ccbdeb72a8b35f272fba44fb8ed250d79250cd4a40a1d6a28879a19b3b544e9b00",
        "js\/chunks\/2-d52ff358baed002ec5de.js": "ea289ac56a0c51a61a7651cb3892fa67eb95025b7a16c0da6e060dfc93325b4923c6ce1a3264f1f92e831c24ca96828542bdd438ce6358bfddf69386c204db79",
        "js\/chunks\/2-d52ff358baed002ec5de.js.map": "a1190ed8f658de5329836355661d5ffcb7ffcd2bc1225f5e93d4b6bf2ead57de5a67385124a9e6e0ef1bba70f474783bff37a383c1bd469c56c50a8505a393ad",
        "js\/chunks\/3-67bdb1018507b71d5d1a.js": "b9b3f5f39c6f0aac5ebe43d672f94712dc55358dadf1aa4931fee67becca64a8cccc6295d47499e5a8517b9cfc0e840ea6efbf1201a421f753030111871b04c5",
        "js\/chunks\/3-67bdb1018507b71d5d1a.js.map": "94b4471abebde41378562d12950c49e746668994b0a05af363d39edd0917af4f1ff370110dabde5d9d990a1ffd73fa680e62c436f8f74e782e3fb17f35a9fd51",
        "js\/chunks\/3-cb3756be5d83e6808ba0.js": "ea14ce1dd1d4f8d334a0ae978528417025a17af63b3a2a0ac9b8ff1e3c53db2ce3cb3e4f5ec6894b93222d21e9f04e4416b62d36fbc19b86a689a0fe71b4eed9",
        "js\/chunks\/3-cb3756be5d83e6808ba0.js.map": "8de70d059a0016ee824f1c0a4a813786ff49d46b919f54ebeae9649e65e15c42c83bca05722a78e522528d53939ed9eeb384e23ac477f0f6d79e46db53a53095",
        "js\/chunks\/3-d52ff358baed002ec5de.js": "3e8b05b15afc80fc3f6a0e3634e418d7fe5a81944b02fe8d5e11938d99d95b2d0912efcede6ae5d10a7c872aea2899c7c603f5af4e3c71dfff47cdd5cbeab3fb",
        "js\/chunks\/3-d52ff358baed002ec5de.js.map": "8a587ad2a67589ae4de797704d2318c232119f132784fa45e5e6a60ae7236a022b7b02fb86c7d3219d17cad84cf8b067ee13a753bc37cbe272649615b1f81036",
        "js\/chunks\/5-67bdb1018507b71d5d1a.js": "11daddd7c451c2575adaab6ccbd3cd9c3bb62380a7e94a733486b553402e9a464386fbfb1bb65f409d781d7c12101fa1b4b13c17d6bb4f996e2f0c860c54dbc0",
        "js\/chunks\/5-67bdb1018507b71d5d1a.js.map": "51d1ba1b71f4ef6009b8cfff8251a444d219ec6324ea924bd3466ec7b316237c1c77a71ae5550dcbf18fefb30b8bed9085c120794767db59ef7a3cb46769fcef",
        "js\/chunks\/5-cb3756be5d83e6808ba0.js": "24f854b104be56f56668db0063c49084ceb019a3ecea07eb8cd40e75750819495dca7e676cf07a6fada47a7f299af75566cd1f2fa6b2a9dcaa8e4555a194e127",
        "js\/chunks\/5-cb3756be5d83e6808ba0.js.map": "8c7bf133ffc25cb86fdbe02e76bf9814c44cbed87112568551ea21d1343accdc8a597c7e47a0ff66d5838880a36b23ec27d33c961026538bbd32356d8eabd52f",
        "js\/chunks\/5-d52ff358baed002ec5de.js": "9c7f165ce4b980e670a7c4c0bf50a9a4952df78330fe367153f39a2af3d2ac4e44ac82e3cea0aaedc58f15748e1fb9d825a443c25970db6f1495feac150c9a07",
        "js\/chunks\/5-d52ff358baed002ec5de.js.map": "12f64ed7bc6ae690c77cdece7c5838cd1963964a7564d3687707587e523906719992b474232dbf9a5908f50f3175b33c0664e88f5303c10024cc80c4c09450d1",
        "js\/chunks\/6-67bdb1018507b71d5d1a.js": "d58671cfaeffc5e8488efbc9682f4399fe445103fb20a60f4098684d60894c239d338d8cd870a767f3208a2afa8cc483ec0e1bf9665beb7c79dbd50d252f0703",
        "js\/chunks\/6-67bdb1018507b71d5d1a.js.map": "c96236442ccee8315c791ef1a8d56ff9517d89ea2ae7dd12070d56ab0c258c99aacfec214313b2e015a66f9d6032235fbddda19ffdcd1e5a104642d9cf45138b",
        "js\/chunks\/6-cb3756be5d83e6808ba0.js": "691158fbc002487ba5889b368926bdecf5dc5dd39f5554d083cf11cd66df750078dc8bbf8fc2a46e92d315cc08de919f980608237bb05bde5446f1c0f039fb0e",
        "js\/chunks\/6-cb3756be5d83e6808ba0.js.map": "a782b90ee9a043cc9a7f72dbd1cf262c5ff6e93c3d64585fa2395afba657aa9085c4feaacb0077664a74e9c4a3cf4d728e68d97425ffc6a48db576c28a45a55f",
        "js\/chunks\/6-d52ff358baed002ec5de.js": "db768061f55b49091725c5df11dd46681a5e4829e4a170aca447d6599b148ed91c855660ab487c691cdcd68a98b37b93aeebc64544ebea9e54e2c4767086e5cd",
        "js\/chunks\/6-d52ff358baed002ec5de.js.map": "17e8c029df050e22f0c452343c58bd82296bc1ab7a8a89bbdb5c181ad2a815dedeb42e5fa8c32414cfeacf50c2a585ebb0a04e274a443b6a2c03802a35086778",
        "js\/chunks\/7-67bdb1018507b71d5d1a.js": "e315b34239ace1f1096721b989b336a32e4ff45206a61baf6ccb74100b52416a73415c67c2bbb859e508c3a8abfd88d11629e76f46d46fbaf63c00bd2f81a673",
        "js\/chunks\/7-67bdb1018507b71d5d1a.js.map": "91c761783c72d028fca41877bdae9ffa7c328960a372433e6dc1ffb29f10f4e79514ac3dbddbe84a2e4ff55cd57d8d8e5b90fb33b742d0d51d2e774352b1e2cb",
        "js\/chunks\/7-cb3756be5d83e6808ba0.js": "5c572dda7cc0b5e559a9d9ae82c6cc82d7b4b4e1e65126987c5a37edb66d43b3de68afd274b2716f9a3efca362a3ccb1bcddca94c7d1aa9fb7c3f2f977ebb66e",
        "js\/chunks\/7-cb3756be5d83e6808ba0.js.map": "4d20ce1252172157c66fa754304f261d613c204386614e079b7d4372b294aab1f1d4ec5f979ba77e4883261ec5717f2d5faf12e86402743dbe6b3c3855cb647f",
        "js\/chunks\/7-d52ff358baed002ec5de.js": "0173d3d81a68bc00e310b126b91a81ea5228eccd6dbce5c69304fb93cd2f8ba199e3ffc34abf94f2e02d5bee53346f2271fad2bf055b1fd713ec9d8902127d87",
        "js\/chunks\/7-d52ff358baed002ec5de.js.map": "109efddce96bd357a010238eb85c62a158a398a28406742eae38d09bf45686f278d4c904afcfa29c3678024ae34f349246780bdc698f95f7568e3eb1344b0eea",
        "js\/chunks\/8-67bdb1018507b71d5d1a.js": "43be377c3e2c079452e013684b4fc890d1ac54c8180f61ae9ca3824a32b562f2a946c802eb018d9a92ce5d631f59b110c81c96c35bda6fed557e69cd0876ecd3",
        "js\/chunks\/8-67bdb1018507b71d5d1a.js.map": "72f24319bf0f01a9f54aecee9b1c3f9cd5050febd15fd6d68f7f65fed2100682e87cad5e9996d9492c3ff4ff6ad0944daa38eebac51d74d147a8279c2f3c173a",
        "js\/chunks\/8-cb3756be5d83e6808ba0.js": "a8011933ad9cfc56bb62eadf0510f0b49ee5c549095652160262cce25edbf37c4a1e3cf7faa1d5ac0dfbc305323bfaeb4f2bf6694a4f304dbab1044595e13e8f",
        "js\/chunks\/8-cb3756be5d83e6808ba0.js.map": "1b1bef70fb63fbaa597581451446423b37c91f4bc4fd929d5f0581e6cc14e1fae5c0dd9c7235e29cafac53623d26c477c62ee6d33e1f0e09dafb7dbb6617ff3b",
        "js\/chunks\/8-d52ff358baed002ec5de.js": "288c582f9992077fe02da82219c5fef8bf2a93c8202a78bccb73c3c95a099f343e6bcb2e1a6d646e47a511fd1a6b5115c9f8de157dafd64796bb292755db6d69",
        "js\/chunks\/8-d52ff358baed002ec5de.js.map": "dc097b1eafe1a34e3819b84351f701a4a97d3d814a9b070de64e773a0ba0ef424c0d7d169576515d555e388d50013abe4c86a8945ea7bde7dc229d0061ca0ec0",
        "js\/chunks\/9-67bdb1018507b71d5d1a.js": "92442622c19babcccf6f335f9c9c825af6394bb5ca31ae4bda0d79777009b9d081df9b2a99f26f9b6f3777d957294b9e22f74ae5764d6dc44045aff740b57ea5",
        "js\/chunks\/9-67bdb1018507b71d5d1a.js.map": "f31f16c3a3eac3dd7b0513ff5dbf09aaceda6631499c15ba78cd20f807311aec3cd3f09640ee9922ad6a0832571bcaf15b411eeadaab6626e8fb9e0f54d4b749",
        "js\/chunks\/9-cb3756be5d83e6808ba0.js": "62cc3abdae603a65cfeb4476ae5adbeb950394354a1fef7ebf8e4ce1c23ca08c2a41f2718c3bbcb9c11231f589d33d8c913b8380331a3b8c70b9b6f1a136b20b",
        "js\/chunks\/9-cb3756be5d83e6808ba0.js.map": "e63d57f2701fc51402ab3923259175dc6e744b84f3276855917b24fe52537c2bdfec8a31cf1efcf9403163dd8edd60864ede0062cb96fe32b717bdc6b95076ce",
        "js\/chunks\/9-d52ff358baed002ec5de.js": "af2c834775d1afd52fe3b342a192bb1bb1db0e76bd43c03231f8587362b0c2148edd312ef3a3505820bc43abadf0b676bd72246c79534ae8570384840a5dea23",
        "js\/chunks\/9-d52ff358baed002ec5de.js.map": "3078542e2fd0793cc71d5a2b77edb33f3df5e7bcf7139e3a48343fc53753af37a5746df2331cb2a43a1bf3abd4d257c07d8fddaf7a34abcbad841e960c1ba59c",
        "js\/privacy.js": "52e9432c098a718d2f5a0f246812c1278da813dd0a4b1b4fe4f0c2384fdd24f8ca4926de1d4dce006101af78f11ff6bc55c91f41191574f91e0b560324c1a90e",
        "js\/privacy.js.map": "24d7f061a23a9eb0d9d23b8993e1d866098e3a257d5e241e625a7a7a05f722ae598ed6746fc23110a81e9cc38f538cabd771ea7a2b7fe831e5551e53a34463fc",
        "l10n\/af.js": "b8d57492d5f9c6c7962e3cd27a2e798ed5a973249f365080d16ad78d711d4cc9a559bd5c1ac08f09609e0198cfb3361e0835bc1d7ed7400bcd17885cd405fa6a",
        "l10n\/af.json": "b49c287b57d57bb0d654c979227034e6c1b1aee0e66fad9e4cd7cb4abbf90a268b73a225afa0ea39f436d555e290b7704c776675cf5fe5b6c143a7b29134154a",
        "l10n\/ar.js": "0bb65ae59e338f141625c6fa23c3bdc32a27c88d9a936c6259f9ccbe81714713f3511b51183dc8a5427e4e6135c484c663c58433f8714328ccf6fe185d126da0",
        "l10n\/ar.json": "70b41267f1f1cf35aa2072f5d1edb8913888a508b2944c45e7c0affc8821474500400dc02d31b3016b06657958095d7e82a839762870444fb61d0a5212646be8",
        "l10n\/bg.js": "0287f67032ca74cd3b3f2b78d1b2b254f12de6c9e92990354ce374858731cf244cee60dfbc96c158af4d6bc127f4609144ca120bc282b43846ad9487b89b4ae0",
        "l10n\/bg.json": "bab1f40f3befa496d9eac50eaadf53cd606ecbfc2ac80077c407264790dae26504144e7141a1e057c51e3f4b93035aa80fc203a749df7fa878a90ca5af746fc4",
        "l10n\/br.js": "823a1f09256443b2b7202fdc2dc345042330a6a03e5b18fd65fea5af11d8e8b0ddeee2b8e1204efde5ea6f22f67144e2cdf789c2fc6bd1b7336965fe7f39f973",
        "l10n\/br.json": "deb1bc9b3924f51a576b3d496a406beffac760ba24abb2a88618232986a25bb3d30b16089c2d7b4aea5740016d9622fef412d39d1329724201d7bc407bf9eb57",
        "l10n\/ca.js": "4c4184244939d59a6507a3c7aac3353adad101916cdaa056ca5049f1df98dc9af8fd2ab804c0269e72beb4db8bfe1a9b9df47cc9272c212558eb166dc33de695",
        "l10n\/ca.json": "e5b5d42448e5837b47547fa42b87472cc379a179ab058f2e8faa6d280fc24d9e90b1542845c8a380bf34c59304b39aef2d4be2ca64dc472705cae4c5abc7e954",
        "l10n\/cs.js": "c0cbe6b59d0a8252b5b8fce07f658e01c3d6e909f53d09af346cb821523222832b5b8a8c96432882eb18e3fe9711c825d731dbda97b58d716a7728434cef8e9f",
        "l10n\/cs.json": "73a9aee2704fd9f0ea892eccbd425c73c580891be5edc2e0e451baf0bf15ad7eb7b7f2bf86b78bc285d646ad2c57d4894818fb02d5fb72b93c6596134186bac8",
        "l10n\/da.js": "3b93e0c5b4c3b0c3d42f8c6b0a6f07b7e88d175a93990759bc12e8286a12d289c3a6f48e00ddc8a7072521c62872fd850a8e00efb1ba373454a4f43071498308",
        "l10n\/da.json": "4edb9333aa463dfbc363841948bd8fd443354d177db438683034137dea814200b0bd35b4ecf19d221c3ab091dbe9cb9a008f58cab2ac8e2fa64c8ec90e652997",
        "l10n\/de.js": "624bbd675fce3e5fb49034470b7681e4d8705d8b82ec7dc2ae66211c362d9172c0e72be0f15cdbca7f693515e3ad5533fb8610ad8752a20905eb938c9f9f6a3c",
        "l10n\/de.json": "89614ed39723567fb86ae91eaee9dd94640cbb8fc71aed82c3bd5f601405f724af8cd0c1d800aac498691da43aac90a26c3b0f78c64a7e205c1fac68333783c9",
        "l10n\/de_DE.js": "4551f296c790780a6cb92fc6e03cd1a3e8874f41e251c9f245b55e7a9b4944326ffced00007d1f9faa173fc0c00307347c464bfde2ed57d2967faf9e2ee36ad4",
        "l10n\/de_DE.json": "f530e51862343f7ad453319c1f9f6f577e57cb6ea1bbfd48f78aa54c9ac2f7ab6260ffa0cb192d770cd72dc45f051cc757fd28c3c5ce36cc517b7beea0ca8636",
        "l10n\/el.js": "6660673707dbd87efa8324d5c22c283af266c942052c3b635ab4d09ff6decc443da13cb894ea4093d82f5d8479986634e4b16a27b8d40577ec5670ef36c081a2",
        "l10n\/el.json": "08da17b52eb7350297ea55ac87cff4b8aa31e8560c147256898d87675538917f185ade52e5edd853c8e516dbac6f9ddf1d3bdf0826ad9aec0a44a9ea55653a2c",
        "l10n\/eo.js": "8cb29b10385d3c93e802adda53c6bdabb4a1cbfaffd0b2da3588752ae05227bea5e180ad9e20c37a34318835f7386761348e9c99d0b51967a62084805bc46522",
        "l10n\/eo.json": "1f2d6f17031b6fc38c9a2c5150bf7b1398f4b9e6fef04a467d83ff3cef3624db18c2dc0d85cd5884c028c06419c278e9686a2420514c6a25b5b689b1e9334a14",
        "l10n\/es.js": "e26262744b6ca1985cad5cbac2cdf101488cdca58580904058f2b64b550356c72afe1c2d7a602e43e297b34624ac14e4027ca043c13d26641f47eb2c24c510bd",
        "l10n\/es.json": "d7d30f6977fef2372c3f9c93b7e3f1a62eee122b93d25f0564d39e26eae8b532c6f32a87105f3f73fdd054cce68ada94ebd839dd579f732bba890a37fe15dab0",
        "l10n\/eu.js": "9b74add52db04b17f745cf61e4b5979a6650e10a0929b00465153f0073c2cb8790f193c284fc4fbe7c8b22eaea271755a9af0858728fab591c6ae248614ba08b",
        "l10n\/eu.json": "81db19a049d9909c293c1bf5b4501646de31d814dae933f940075db32fc952e5da2b41a46231c73740e047975d545b7fd03352d60bde92920494e49035d3231d",
        "l10n\/fa.js": "c8c0d55c0c0b031a033142de83fcb871a8b54363752d2eb72c84a2a9c904e515042712bc4ae084595d78600a7c8addbd033036195b871baa6d92556037fe70ac",
        "l10n\/fa.json": "aa580d525091c20e0e82ab9fd8bd6e3b8aae221bfcd3a162ecebd8d28dac2265a9f523a9e478d390621d7adaaa304ba192a3aff04bc0eb5e84cbc0de20ff4204",
        "l10n\/fi.js": "d34c8b543bba8188f70ce8d82cffa2eb717e37ba2ef0b458edc4f17653fd6bb11e356aaeb800b025816a5be90ef27494989c3b2b9dc6b811dac1609d914eb746",
        "l10n\/fi.json": "63016ae09778cbb0769afd35048de25b76787b7f50835d7158c1a297a0cda0e2f1def0041c28c00a3c625dfac2ef9cc1e1def6033a0762525274ed9870572a94",
        "l10n\/fr.js": "8886d31934cfc7a9b6806c217992218ad6d0eb98a4de75ac7123936edf21a1a5cd2793b473d2aa395c7603afaaae06bbf05815af1e45ccc5eb3cadd7c481bbf8",
        "l10n\/fr.json": "58db340ecf379c7693d59c690873793e99c04eed03f8aa002ccd7a296d5cd94b38112059d3fb9f462fcdab966d13511fe54c35056855682f8ed9feed9a8c9e33",
        "l10n\/gl.js": "07365d37e42c059308f75b7c1b16a699f47f70ab99ad124e4441f9d7ddf12aa539c38b64764f21c2fe19bcfa2aa2f6e6c59ec9a0d459520ff5e8967e3853cc09",
        "l10n\/gl.json": "c6678aaa0c05f7e35f29906bce47cf5b612c5e4e7bc18cdc988582158d4dbc57d0d1095a10627cb27af0f61a224b5826347bca680241c34a60b016c64f274e05",
        "l10n\/he.js": "d4b2c3f29e9bf3745a741cf6d11aef5bb319e46c82069d9ef610dedae2f278b9f912407b5710382450c4f2a08694239e36767155698b8a596c8feaed7b233886",
        "l10n\/he.json": "1730750435abb582e42d76a42d51ed252f7f583f2113dba88b74bbf2e43acdc83f0ade4672ffbb8e088327f6687f9437fedf4c2408dea6123b0cf66b4db68cc8",
        "l10n\/hr.js": "b4c85c40363309acef99a710a090fb604263737c5f47151eef4d4beab9f18b7cd01011855a5b8aef6b2fbaacd77f39a9583871a378c0db644dc086cf933f53d9",
        "l10n\/hr.json": "122ea33eee5c209d45fa5b56ce25aed894dacb9b950735366fdbaf73e4a617bb6402f2a2c2cb675c0b8c4b335e4a9d55635c98cd1a9b05c3b0b1144535627aa0",
        "l10n\/hu.js": "cfa645f5766f01a35e838cbe3b85c97f285175f5452cfaca9dc5a884cf3ff80d5d0adbdfa3201141eccf70fe5deefb8c9a75bd71927a77f6262d3515a81190e1",
        "l10n\/hu.json": "3fe2088b4f70fcd2d47f2fe66527eb8e5fa1de1d126fa0a07e76633d60e339a658b70321877709ccc2eb912649fc50bb096e160176159cb2460f61376c831cd9",
        "l10n\/is.js": "dc3358c2e5b22d06382157a3dcbe3bcc4456952de9d925110751fbad7cac34c86ed17c255011cdb57cf1277b2f76f9eade1e4088c315411949200d67ed8fd128",
        "l10n\/is.json": "448f4b3f70463a6d3c6e0368794264a36e0077e6657c079e74bb1d54177f452738f1e19cd5f08659c113a8ee5e6f2af3ccbfbff303b6a6dc8ad91713a55c1dcc",
        "l10n\/it.js": "f0621b8b99ef1875c8230fec6d1ac6f8e67100b37319d98ceb38de34cf83a65e108953df6ac754466d7fe8e294f1e520ab00c5d7b3fb3ce32cf767312ce3a7ee",
        "l10n\/it.json": "ec12187813354d536d73f83a4a2679ff4737b46bd7b95093ee9359ad789e86014d6b2f84c3d66eb19373691429861135fd5faa11d3c6c59eb1bfc624c02eff42",
        "l10n\/ja.js": "d61c89923d633ee7527dcb85fdd34a5952cdb6bbc7f5582f7961dec8f68d03e398429f8ac52e5a8f67eae234b5b6d9954894ae182ad3e37997da7911023f9956",
        "l10n\/ja.json": "9e139c0c4e770eab0caaae86c450de5838e45cd0fe3ede21f721699e5d017f4e1be52efb1f5dc4da27d2040da34f4c4845e09ffcb7fbac4cb7105db3c013b9f8",
        "l10n\/ko.js": "15db4757f0145d6892d92b2d815ff5be42039ea8fd8a1e91884214d3a072c5d83206a404d3720bf9e676efcfe9da1e79abb2ab7a6ec29eff56e1a97d16b601ff",
        "l10n\/ko.json": "f0135e18c7a555ef7169b6b30c027c5e0d70e9d1fb34171b79d64e4186c97cc5f855dd65048f048797eadb998bc834f68ac2037d0e6b960ea86d81c94a8e1323",
        "l10n\/lt_LT.js": "07be92cc53572b9c3d30eb2b78bdf770f94ea15deb11f670fdcd4596cbc1f9bd88db539e991a1dc4767f81a775f075126d552b17fdb72ebbd061f7fd3b1502b7",
        "l10n\/lt_LT.json": "42bfce644ac845e68d352972567fa8c47259247641b3d2f0fe4edf18460fb89a179cd40bfc8504e5f86c4ee885bbaad6073afcde787e5ecc6fb63efc216ef2d6",
        "l10n\/mk.js": "afc610e7dc2e318fcbc4ea06dc7724b5fe7a388a16bbd26e62f8b1fa2f2504b0eb56a3238906fd9ec43010ac9965bfa0d456c310a6b91515fb8af5055ec144f6",
        "l10n\/mk.json": "a623f03a26bce0a640a6b344002732d271c34c54a84c001371f8b48c7130bb7c683358ec059d6f6a4eecb36e518ec2a3cd80e3a0ab0e9c2cd6b82a95d2832c80",
        "l10n\/nb.js": "c30bef822939d6700a1ab1332376c59a7a5b739884eea5bdecbc83f8728907f9a951e96ce4397972caf36c23aad60ba80242e54cad691644557b7d07e825c0c6",
        "l10n\/nb.json": "1389d900a5840065ad36211a408912e70ab66ea00089e527a7009fcf3db4442eb16b61c4e88051fa8587d94813e75f813377cb2b8ef79ea689f74fece0d6c338",
        "l10n\/nl.js": "fcca1cfaf4bd7b90db0a4765c44533c957049ef4667b189da29a7f401412929092a56128d34f4c5cd12ea64d7a2df9367536d7bf2f9dcc4ac5935eada7388fc4",
        "l10n\/nl.json": "43f1fb943b6f1e53ab1241476b12fdab3cf83267d39d3be9dd6b49e883f9d88324f83311b2b6f16ce1dbb3e509a81ee566390abef3730578fc6a63843fb7ad04",
        "l10n\/pl.js": "b88568ab80ac5e0e72172dab159aad7615f0de1d792e031a3cdb9c0a3946ee969e1db29d0086ccaaea50e430b18076a928328be069d5609534cfe87e0f51c6a0",
        "l10n\/pl.json": "a13c79fa721199d880cc0dbf2929519752b9d08450d32e4b840ac6f9f182ad3bc399d6627a23e6c3eb6c2d5e1aa41b5fe0bb144060f03a1affe5482b2d5cc7c2",
        "l10n\/pt_BR.js": "fd8d3f3031f3722636e47bd5c499a728b4a483a3313cbd5b1895e47c1b4e986aa420de706f9b6c6792583bdfd0ed58bd8b73089e8cbd96271917e45aca8da6f7",
        "l10n\/pt_BR.json": "5dc54d9bba58e384bf178e8e203cda390b436db76ef058656e054e85d8a47489604df69233f34aa9afda704c1c01f91dc2c8ce89341b9ebbd468f94f77cfbf68",
        "l10n\/pt_PT.js": "d5bc17e56a5ef6e08b7e47e2fb26d9a047242241723d96021f52c35e710c27b3aa0cbc692c65e2409e54528d4a3e866e32d7308f7228c82a62bb64a16ed38144",
        "l10n\/pt_PT.json": "8690f7bfbb7c84aec61bd143344c13027c387f0296fcea91370ca11e0f88a9ad614449893c6796a716beab384ff135c9ce109a803fd3bc8290160698035f9e18",
        "l10n\/ro.js": "999e5b9142ea508cdb18c4cfdc38ed0b135a7fea9728395f6b1e3a5f0928ba10bd98b25c0aba4f7227f7ee5c5bd4978a23bef0989d370f99575769121f520bd4",
        "l10n\/ro.json": "a9a669b298171f1d3302812ec8b86d54a2762715394247dd6818ec3f6de6338c5edf6cf1398032ac40fb4b1632c421f0a1dc445a06152430f8d614492e5c3863",
        "l10n\/ru.js": "fafa7da07a26379c13693f4bdbb972968e460047394d699f561c9e26cbba2414abea5e0bb56c7dcb9e650e16ecd58b5087756ec75596d783e70ac38fc9935375",
        "l10n\/ru.json": "a857a48991ae9f04567aec1d601a5e243ce9b7452d1ebfdd9f28eca47aff7cfe7fe0d2b6fa4efbf6fbd89e981f479da4f2181fbcf11804d212eea854dd662c3d",
        "l10n\/sk.js": "8bff46ff5b8e5de35a40fe772d03ea3db2f11d1cef5bd73cb3f31c04bc6c4c3ee9f11fa1333f1bfa214aefcbc5ffc80d70cfcd318fd90c705cae10d34ea22905",
        "l10n\/sk.json": "13f8cff7dfbc0793e0467bb1fd81e463c53db3ce7fc492049099143deb4d8f580ee8fc94835a00f1dbcb4792ff8d4aee24d1f2bd24a853a1e606d80a2ed61ed5",
        "l10n\/sl.js": "c512342cb5e5c1b9e02aa95c5d41baa5ee1201bb40b610e9e00dfbb274a5653296ae68f93e651bd8a2efba7fbb5a45a2632f0e4e34ebc103a88f498b2c6d3b3a",
        "l10n\/sl.json": "4bdbee65644f24d1c7a9ad12f6778088e0bada08cfdf91bf895de86befecf029a814c670e1db9ada04dab9adab9fd4a66fa65f732003277204d9627637d9ca4d",
        "l10n\/sq.js": "e1ea3a4818144c994ff7977203d84943c9fc28b35a1761ae6592140547e53786b8a2a493a1723739e752d8dcc5fddf24dacd4cd4e4f1a5c980cb8ccedfe25f29",
        "l10n\/sq.json": "a35394d4c7bfa73fff80c443dca3c8c9de7b781a2a5706ea0659ec82bee9551846c43f7e8e288bb38f11cf54417ce0a1bbd2867b4bbb7b0a7084f2ab47bb526a",
        "l10n\/sr.js": "3dcb495136e4c0605c2cfccd18926322cd20470472db37c8358b9668605eb2205c4a8e0f37d8783cc98558061437edab86b5c85f0963b51641e34e52389cc766",
        "l10n\/sr.json": "732c2a457bc7696d720e12e23d7409fa7cc033320a60eb11bd3c68f78f266299d6bd4bb2930f296c40389ede56e356b684c3c0009a5c639f930c4498d3814ed6",
        "l10n\/sv.js": "f205ea945ad38bc7027a8e487093fddb5d974c230b7ac1b15c03404e18b3d90891b7ccfbd628c37db02766e87d0d7f3bc7293e281085d954f92922afc154f91c",
        "l10n\/sv.json": "5a32725bd9e74ccf0f2e2f148a69bb35d0455546c4c111554b024dd088948ced45466075db961742d132b2393224decc458a3a8ae6140df1716f220d6cd44f4b",
        "l10n\/tr.js": "3f12eb1ead8951d6a0adeaabd929b7055ea71897508e68ccdcc57cc9039ce2a570c06365e14f2ec2437f1fa918d713e5faf110c7ae99d9a023db1cac986b2ef4",
        "l10n\/tr.json": "4170997b2d721dbb45b337e5316394e0174b846d86c767513b10d0939d6bb6c83651f3ec29ce2c6e20322089b6bf9708e57cf005141c2f358306ae48f5ee0fe8",
        "l10n\/vi.js": "c7f2fcc1255b10eced8de65df425eccc690afd59369bf352d3be1515aa706f843fa16f70d966f607c648d1ba10fa3b818a32e1ea4c63a88614dc65255dcf393c",
        "l10n\/vi.json": "e0139c50d58c68d02e6086b8b3ed1bac138bc74b54846bb995a6defc9b1525fd7b14c9fdc39198e6d7c1f411e407af8f22b3c9440af5e2add9a016b0325ceb45",
        "l10n\/zh_CN.js": "305d583df12e0eae2f48c562ef8995824abf5873c9449f57544f2aaea0e6ef0996bc7597274840ceedf011c1394bbf5889c6de7c909b6d48db91131a4e1e2299",
        "l10n\/zh_CN.json": "a8f8076a579a04692649af914419b70c715a2343e8d045922280c1b5c198e3ad9a99078698cea7382d8e4f1708027a9e2b97d69d814653dc36bd5f393ee4f319",
        "l10n\/zh_HK.js": "bf041cce8efdf839e1ca46d356aba6234b5718ff70cbaa50d2f21b364152acaf94ada4a9e7339b7098e239c49bf21d3ab3d3dc7e3fb567a0645bfb9377d441c2",
        "l10n\/zh_HK.json": "fda7ef6d7091faed8846512304da59e0566a61cf06898d439f6506dfb75681601da7a18909832ce8a3b539826332b0d7734392ed60406006bd36dcc2f47753f0",
        "l10n\/zh_TW.js": "86daa921ca897bc568fca9c7d4a5886e0d7be0cbebaa02b58995a52e34e41adf303772515ef9e1604c7bfb9fbc939134e52bafcf08526acc84199258920e61cb",
        "l10n\/zh_TW.json": "0aecc06c930402956b99c51c559b5a73b4f55d7cc95458786797923b8a04ff8f542b6d63ac7ab7b396d18da74ea747279f3bd3a36f9b0d1272d949e982639b16",
        "lib\/Controller\/AdminController.php": "7562d76189b4323ef184b092d9c921ff554440e2d57e0944487b018280055614d74500ce710cccf3950eb9daf344a42bde3073c314597636ca3f979bc8c25f14",
        "lib\/Controller\/PersonalController.php": "90acdcd9e387ea0701c9f03a8a92876a809f0d62c26441e0d68636d41530628af0688a8277c054ccb6d0e2724ba4c9040e7c5d39ee80e933457ba3e942a942db",
        "lib\/Migration\/Version100Date20190217131943.php": "1ffa20591d4422ca4e7839f5cbf8f59dd20a769ff5c0c70a4fdebdb63bcc13535eea7104dbc4ec1a4dd6ce57d4ce6e543e83cfc2b479bba5dd101d1d6e32e72e",
        "lib\/Settings\/MissionSettings.php": "967a77a4e8a3296abda06349f4d56a4c477709531f831ad2d9c321321264ac03b89fe6d63410f4c42225baf1a186be63ae4d227c3334ede59ade5c0ccec122ab",
        "lib\/Settings\/PrivacySection.php": "72d7831b3cd33a398d2d4ffc31f34b7bf83822b3ebbf5b6fbcf068f62670b756c0db714c32d5cb3e1a267ae9e273a1d4a273a1fb03311af4d2dc721681503265",
        "lib\/Settings\/UserDataManifestoSettings.php": "8d5999906be32133fad3caacca45ea0f98bec6c0dab8b1550a6c3e2c306b623fe384cc552554ae4e5be713c9b64ade397c1358d722a42bee7fa5d872f3f1d8ea",
        "lib\/Settings\/WhereIsYourDataSettings.php": "8b27a2d68320ff942253aa397fd95c6c12927cb1ac98fd9b9b9b06390cfd44f92352bb2de828b6e7d399f9a9c151a88a09cfa1e5430994cf0af542cfce3ac502",
        "lib\/Settings\/WhoHasAccessSettings.php": "9a7717914e37586d4b5371c7db0747c57aa647d94ccc8ab877cbd098e5645e345acd7cf2dd218c3d4f8b7a6f6fbf37bc7ef3ad455a3a9432a97b4f76a61e9050",
        "phpunit.integration.xml": "ec94923d03a922a799b234c0f5aca3a99377722395a2f8725787325d4e8c1e19cc692c53e6ea8b6678caa8cc70f0cdb32e8dcae500189012961bb38c22ce66d9",
        "phpunit.xml": "5224b6d8c68f54f1bba06d61472f0c1fe1a5e3b20c1e8d58e2c5658684441fbc6c39289807ca1ebb6f850632715de450cf54970b774faccc457aa3141056679d",
        "templates\/mission.php": "2f580da725164f4b5016ca294f7ea65412db071df36940edcd98d00e8713608c5eecf162c3919421caaf339b0f3a4af88fd783068289d295fdad005c47c1ca15",
        "templates\/user-data-manifesto.php": "1252b59114b3d2c02111a76e57c6fa31224797013d914770d015ff685483f9f3dfaa033a0444ff9fba5fbb258c722e618ab18aa763b41b655c480e33ff836a97",
        "templates\/where-is-your-data.php": "1b244dd2f34de7df402ce75ffd582a174c3444057c425313e92f517f6f7883c803773015ed758b38662942cc0a348dc91b33fb3e14fd095e4b60631f9fe1baa9",
        "templates\/who-has-access.php": "76bd746dc92e9d8bfea1418856486f8c093ae033771c1329793099ab6b09b9310dc2d9dc21689adaece1b71d0beb771b0269291369543f955b0039391557c16b"
    },
    "signature": "W+yPwmo2UYDl9zY8HvVm45pMSsw3vwb5rljSK6iGUm03QD66lv38ddNM4MFOkq+sgbBqv\/h2k6iTy1hri4q34IyCRKbyVH84gcRn+83ZEiVSu65QksUPyHmAU2+TflVLP0AZNEZ7cglwQgRIYrFXVzy3ZnyzsLrK7vETdBGbK6wqXIYlhwfYekVRqRz\/aawEgVgLwXgpQefawH0c+N7zk+jbEaCPI27o+yV4+2E9YXKKiDG3EeTdmIl0bP20exlgsQPzIEZr4ERac\/PSO2uxQbWPyn0dicgJWccGcnDiAMzDlF0GCU0FXyVY+enlDKWi8gOHr4sy1Nn7YgQRiBw3+w==",
    "certificate": "-----BEGIN CERTIFICATE-----\r\nMIIEojCCA4qgAwIBAgICEAAwDQYJKoZIhvcNAQELBQAwezELMAkGA1UEBhMCREUx\r\nGzAZBgNVBAgMEkJhZGVuLVd1ZXJ0dGVtYmVyZzEXMBUGA1UECgwOTmV4dGNsb3Vk\r\nIEdtYkgxNjA0BgNVBAMMLU5leHRjbG91ZCBDb2RlIFNpZ25pbmcgSW50ZXJtZWRp\r\nYXRlIEF1dGhvcml0eTAeFw0xNjA2MTIyMTA1MDZaFw00MTA2MDYyMTA1MDZaMGYx\r\nCzAJBgNVBAYTAkRFMRswGQYDVQQIDBJCYWRlbi1XdWVydHRlbWJlcmcxEjAQBgNV\r\nBAcMCVN0dXR0Z2FydDEXMBUGA1UECgwOTmV4dGNsb3VkIEdtYkgxDTALBgNVBAMM\r\nBGNvcmUwggEiMA0GCSqGSIb3DQEBAQUAA4IBDwAwggEKAoIBAQDUxcrn2DC892IX\r\n8+dJjZVh9YeHF65n2ha886oeAizOuHBdWBfzqt+GoUYTOjqZF93HZMcwy0P+xyCf\r\nQqak5Ke9dybN06RXUuGP45k9UYBp03qzlUzCDalrkj+Jd30LqcSC1sjRTsfuhc+u\r\nvH1IBuBnf7SMUJUcoEffbmmpAPlEcLHxlUGlGnz0q1e8UFzjbEFj3JucMO4ys35F\r\nqZS4dhvCngQhRW3DaMlQLXEUL9k3kFV+BzlkPzVZEtSmk4HJujFCnZj1vMcjQBg\/\r\nBqq1HCmUB6tulnGcxUzt\/Z\/oSIgnuGyENeke077W3EyryINL7EIyD4Xp7sxLizTM\r\nFCFCjjH1AgMBAAGjggFDMIIBPzAJBgNVHRMEAjAAMBEGCWCGSAGG+EIBAQQEAwIG\r\nQDAzBglghkgBhvhCAQ0EJhYkT3BlblNTTCBHZW5lcmF0ZWQgU2VydmVyIENlcnRp\r\nZmljYXRlMB0GA1UdDgQWBBQwc1H9AL8pRlW2e5SLCfPPqtqc0DCBpQYDVR0jBIGd\r\nMIGagBRt6m6qqTcsPIktFz79Ru7DnnjtdKF+pHwwejELMAkGA1UEBhMCREUxGzAZ\r\nBgNVBAgMEkJhZGVuLVd1ZXJ0dGVtYmVyZzESMBAGA1UEBwwJU3R1dHRnYXJ0MRcw\r\nFQYDVQQKDA5OZXh0Y2xvdWQgR21iSDEhMB8GA1UEAwwYTmV4dGNsb3VkIFJvb3Qg\r\nQXV0aG9yaXR5ggIQADAOBgNVHQ8BAf8EBAMCBaAwEwYDVR0lBAwwCgYIKwYBBQUH\r\nAwEwDQYJKoZIhvcNAQELBQADggEBADZ6+HV\/+0NEH3nahTBFxO6nKyR\/VWigACH0\r\nnaV0ecTcoQwDjKDNNFr+4S1WlHdwITlnNabC7v9rZ\/6QvbkrOTuO9fOR6azp1EwW\r\n2pixWqj0Sb9\/dSIVRpSq+jpBE6JAiX44dSR7zoBxRB8DgVO2Afy0s80xEpr5JAzb\r\nNYuPS7M5UHdAv2dr16fDcDIvn+vk92KpNh1NTeZFjBbRVQ9DXrgkRGW34TK8uSLI\r\nYG6jnfJ6eJgTaO431ywWPXNg1mUMaT\/+QBOgB299QVCKQU+lcZWptQt+RdsJUm46\r\nNY\/nARy4Oi4uOe88SuWITj9KhrFmEvrUlgM8FvoXA1ldrR7KiEg=\r\n-----END CERTIFICATE-----"
}