{
    "hashes": {
        "appinfo\/info.xml": "613246830530ede9673348bfe24c3c0b47335581f26d88946a7ba7714cabe4692d1a47942a5a4b9a6a3c5668a576e0be5d19949614571992ca1a95df76c16a9a",
        "appinfo\/routes.php": "80a159b1f9a63487c1782fd3dd089ab6f9bcba3184ed8aa3c8743bf5c931f89fa4d91edcb19dd4f00712969959a30b8c3fb0dc09302b3072463371a1ed0db1d3",
        "babel.config.js": "bfd85b6b9459d87030c229a5dcee5ec2bb8d0559547df534233283762660866925d1ab14366e17d6622e9031e6c1f8bd8dde0ff561bd91c8a65ccfb7a4bd4b39",
        "composer.json": "12d5084a2e99d71ea619492368cc5fe07cb14e531b95c675dfd0668f26809985e8aa5f5aa61e23724be23c3043289240c4b05949327bdcbe57d04972eb89d896",
        "composer.lock": "c6bc75c8eae1bc49b392c3bfbe9d37c822220baa14855d89e00f0549865d5c43b2a67efe3ce6db7cdd13de1a0464a1bea1ba81fe6fc4c0ec6355243a0492f663",
        "css\/minmode.css": "43ba091ca407accbf351edea67c528805543f8a527e88156b0d65204b790c649d018b9db9efb3d71d51bd35d07406d6ec0d8c227d7baafa677a6d23be8748695",
        "css\/style.css": "5f93bf6507b69c8ad3ec1cd95aece3fc4ed4362c34b3090189efd2cf32465c96271a4d280471f3a25b1e1b35a6039fff01789549e06dec893d2080ce5b46df19",
        "css\/viewer.css": "a7ad0fe200032cc6775b65dd88e282acd3ed20a1c635cdb3cefbc1bd9870f8963c08e5de1beef255da92ff61d99c6420eff6eed97cfa1a89618d4148104bfdd9",
        "img\/app.png": "adc79db10088068a705214a47fff1a2c38e822ac290e6ebca796b7a020c20c765932801f91039d55693ef5146febac06c6ab46c3caae6323cda5f8f7e6505a64",
        "img\/app.svg": "6435e5ffda7b883d8e03d6b2231bb2e4e1c9bbe5cec9446ecf1780bad20c27be8823bbd6c3ea0cf2a55283541a37031501578c906993ebd40df1d6e959f1fb48",
        "img\/toolbarButton-secondaryToolbarClose.svg": "199170af509daef5a000459307490942a8ca651974081ea33a214eef0afe0f3aa37556390d97e094126aa471631f5a8bef9b2be5cfb9f44bd150803e15230456",
        "js\/files_pdfviewer-main.js": "9f957984ad5bb50aa99793eb3d02c85b1fdbfca4fc65dc933de5c530b2fc388564bb30c07900db4fa8fd5cbec53964cbe782330c347aa8f7ec99b58aeb1bd407",
        "js\/files_pdfviewer-main.js.map": "5b088cef98c3101bcdf737ebe3346142016dd8f2407cab6cc2ac7dd367a1164d1d9bf067e05921d0fc44988f759b15b3271c45a57bc093e0fcdd43e60628f2cf",
        "js\/files_pdfviewer-public.js": "b23cee749b68fed97e694919318d42785af6619d8b69f1681059438d7cbf1fb134a735e3bb5365677c2eae5124b5ea0a030bebe7c43d9c72399c69727debbefc",
        "js\/files_pdfviewer-public.js.map": "c31219ab8695035af0067fb1d96d7ff2867df87ca6f00c1c59a0f9a05868d668aa2bff73720d23151e5d2b295c4b861fa2767db2bc9f9e10f27c838824ad5244",
        "js\/files_pdfviewer-workersrc.js": "934843b999d19ac4b442707f9a0b8a34d2e061b470349187fe8f84407264dd67dce9c9b5068268b9c0a2b41e28ac716f57602a9fd48c2129e9ea5c616b8b6fce",
        "js\/files_pdfviewer-workersrc.js.map": "cc95737b591216a4019d89cee586e3371b3c6f4a116fa01babb4c1d0584a366768f3e65233533e79e80bce22c3bda33f92cefc78944616970ed8cc601aca5544",
        "js\/pdfjs\/LICENSE": "27b8c0252eae50ca3ce02ab7c5670664c0c824e03eb3da1089f3f0a00d23e648a956bcb9f53645c6d79674a87c4cc86d1085dc335911be0210d691336b121857",
        "js\/pdfjs\/build\/pdf.js": "d950452d5fc4a05b0b5881103f3c73091bcd1b380a8799cfd650e41e88ca066a2126f6136c88b1d3e1b4d5508686e0f8fed6927124816a7e7ed181e32caec34a",
        "js\/pdfjs\/build\/pdf.js.map": "6b559f1c1e5117f9f894912664f389f316d20490b8a93e3f02a8896eff237c008e48a997c47375f4bfce432ff95dfa349ce2fbcea3fe244221bf3edb54f95d11",
        "js\/pdfjs\/build\/pdf.worker.js": "b44846ec14243062b11ee578cec5d35e1c298d3e34f25ad5588f39d96b5e43eebe0c6997b10643e9ffa840ed6620085ebf37a42a1c0e4e691b8cb11e7eb2c8f3",
        "js\/pdfjs\/build\/pdf.worker.js.map": "786d1ee1d76e447b4ee0f805b5ca2ce22bb665c22547a475208da8eb9876baa7171a8fbee01a99268b5ad475afba1128486ea90a61c644ff910c34d963cb37a5",
        "js\/pdfjs\/web\/cmaps\/78-EUC-H.bcmap": "5fd086c638e9546f31b9960dd41c08d7e406d1d5c343a876111672a4b093c3f0b258656ed3bd7f3293f9b2bdf90332931547b09ac33985da5c97be211af64508",
        "js\/pdfjs\/web\/cmaps\/78-EUC-V.bcmap": "8265c042528674bce1f96673c897099cb7934435843c272c068e8b04c7a2925d0fa440e57d61eca57df61e25aed97127df11890cdacbffe2fc1e933870e3020f",
        "js\/pdfjs\/web\/cmaps\/78-H.bcmap": "7ed6a8733d45b76e15bf60912535b0ae36d31ff9293478593717172de721a175475fb8c5ba495346afbe5bf2d8227f3784df227a97d1fcd2c2f00f6208d0d3ba",
        "js\/pdfjs\/web\/cmaps\/78-RKSJ-H.bcmap": "ddaa2003ceb14193155b5560899078399d2bc8fb801eca83c3492d29ab66963fdddefd8272d4940df8851bc483a223f3f9178b1aa08d32d816c360a02b8ef2a9",
        "js\/pdfjs\/web\/cmaps\/78-RKSJ-V.bcmap": "e2ab654021759e267eec0c3fba8f341ccdac3e68a84a20132e0a0be5d09b21cd5ef37c6bdcbfb594b1459cbe904293b891b4671625583e2221f92f37d4923e12",
        "js\/pdfjs\/web\/cmaps\/78-V.bcmap": "274ba34d5f3b7d70e253a8155589a29881bd2cb1bfd49417e9d327c4b21000241c1016755c08405a21788236de8646454b7f2254966c6d509e4b30b8cda7dd18",
        "js\/pdfjs\/web\/cmaps\/78ms-RKSJ-H.bcmap": "1bf13ef1737d13a39f0d156b6482a711414b10f8b6b13bc99fc16a9aafadf1b934109a33d1e22961943fdb30394acaaadededbe8d0e85096f9ea95454c948dd8",
        "js\/pdfjs\/web\/cmaps\/78ms-RKSJ-V.bcmap": "133712a48b3929d71d192c11ac78d333bd837b64d7f7974913090d5a001e956b79d4195e7fe14a97221b1097d615abad5d7d43ef2b50078950838881d5cb9fcc",
        "js\/pdfjs\/web\/cmaps\/83pv-RKSJ-H.bcmap": "410f7024d826498248b09ef067bd957871d6dcb1434bf8bbab8c6df571b7e0b2d7ba1175cabb8c822ac993248f21e0bf0cae57a65ed86fd301696d010769b95c",
        "js\/pdfjs\/web\/cmaps\/90ms-RKSJ-H.bcmap": "15ce6899f24ce3c24e53848757c8a804b64757bf45808181106c19b3760427413f99bd9f083aca6dc8a7cf0b93a0cd11160088eca1ea746524530f2690d719cc",
        "js\/pdfjs\/web\/cmaps\/90ms-RKSJ-V.bcmap": "c632648fd145fae79e0ddef43da32cce8efe47ca6e5d5667141fca3efa6e60733dcd59c95503135644c0fc73700a2293a4394d09e54d44a7b1046e358633a626",
        "js\/pdfjs\/web\/cmaps\/90msp-RKSJ-H.bcmap": "f2b6407c87afb83aa563f69e1d04c0b0e9996ce3fbf46871283001a4f4707d1eb23f650d478fc2c7cad9d1bcc4dc1c18eec21cfe01eecde4d775d20f01f80667",
        "js\/pdfjs\/web\/cmaps\/90msp-RKSJ-V.bcmap": "e3ea0d6545ed8ca06cb1c0949e687afa6a323095af531adbad6644f2764f38eacdd498e25a1056954abcb9940cb32965219e7bae6f89776e241ac80bf72d5a12",
        "js\/pdfjs\/web\/cmaps\/90pv-RKSJ-H.bcmap": "a4c639b0b5371248d0e90bf49c978553cbaf7584999de62a92c56de3d6403a5ddd3e4e07ec972e93ce967d12008e1c477a0b9cbe5db7c329b8dd888acd5ef171",
        "js\/pdfjs\/web\/cmaps\/90pv-RKSJ-V.bcmap": "d6b3af8e4a67244dd325630fa8c4212f24326f429c33d6b6e1865490589fe875bc6c555c7d9598872734d68d4d8e2900ff93729cc055297722c703e7f0c1da7c",
        "js\/pdfjs\/web\/cmaps\/Add-H.bcmap": "9a39a076ba7d3c72ec2bd9831d282022d607bd29c1a3636a593b09cee20a351c04c25203af4b7e11c13fcf568b5874f9c3c2b61ecc8d0f1794bc07a0a2dff706",
        "js\/pdfjs\/web\/cmaps\/Add-RKSJ-H.bcmap": "81bf58c0cfcb01b9ec98e4a7eef5e418498be803c0032e2557f4d4dca9acb31d3b9b5d7fcc8ba5a8f8e139b890382474aeadc79d29b94f88a4461a23b57d17fa",
        "js\/pdfjs\/web\/cmaps\/Add-RKSJ-V.bcmap": "4327908c4b92679fbb375d7a98b745ce2cd77404a84d83581984b4212db88da7d2c443671aafbad40c29add8666309ec1c7e1e33963bcedb0515abaaeaaaa6ec",
        "js\/pdfjs\/web\/cmaps\/Add-V.bcmap": "0fa35a893bb9ba2d177c158f5ed115e7375c7c470194650beadafbf78067a5232b20d3480bacf6f588f8df84395e816507ee56783a1e17529d3ac922c1b2e9c3",
        "js\/pdfjs\/web\/cmaps\/Adobe-CNS1-0.bcmap": "ce016c8c626a5a7e9af5418efad1e4d64ffd0218675e80ceefb91a0b797df5f57be3c743193788f6367ef0b6abd8be9b5c3c336b9b2ec8f08579e7269e3c5d10",
        "js\/pdfjs\/web\/cmaps\/Adobe-CNS1-1.bcmap": "af642dd67a674e8afbd5ad7971ef0bb1e53fb5318f6244178ce61f80b648d3dae07d61c143d6b978529347d3dd4cc5703ceaa55fb0fd89b74ecf0c5928c18499",
        "js\/pdfjs\/web\/cmaps\/Adobe-CNS1-2.bcmap": "ce5ff98934af00a479a23f3b42cad5d4eca8688ab0a90e8cb2f3e9e6f92ef9f3d4fe7ee021c65376879e8bfc24afd15780d0253074a381bf100985eb9b553a29",
        "js\/pdfjs\/web\/cmaps\/Adobe-CNS1-3.bcmap": "a75bd83ee550b2b1b1a81d8c4f66c0058bd021d497cf213593e8cf4e8bcf0f90e0838664e758fed414a3701fd87e53ba2fc4fd2307317a7d6403f906483ab040",
        "js\/pdfjs\/web\/cmaps\/Adobe-CNS1-4.bcmap": "cd584cf2c2d1a1240d1ff48b69f283364851cf488895a082f231cfa391ba049cffd8ff22882cc171489e9eaf0902f454ae1c26c8029758fee744db843d492689",
        "js\/pdfjs\/web\/cmaps\/Adobe-CNS1-5.bcmap": "611dfa62406cc4c6d273e3b6b864d8ef2b54a8a637dd7e24c6808cfac24c185e56637e30ad003ffb561813cb7fc0bf2c60501806da231bf62004681e46bcfbcc",
        "js\/pdfjs\/web\/cmaps\/Adobe-CNS1-6.bcmap": "08e6907c70f0bce1a2ad25d48aa260b0eb78967f74affc0ade5049e2fb594ecb7a90b9a56e0b387677b2b4ed93c4ff299d7bec26b007b313584d89a898fccf1d",
        "js\/pdfjs\/web\/cmaps\/Adobe-CNS1-UCS2.bcmap": "74d97bb8635bb72747a5460a420289dad8137a21020101a85a15c7bcba3d3e9e66aa969a65ac711fc5ff4413b4759c1eab586beddbcdf3839f7ca7584d1ae0c1",
        "js\/pdfjs\/web\/cmaps\/Adobe-GB1-0.bcmap": "b13b2155b4d53e64496eb3b45c43f141a5035c37528c762f415cb6897df1fd30d6747a1e213726fbc84083a2af1885cfdd40319016325297e4a385214b03030f",
        "js\/pdfjs\/web\/cmaps\/Adobe-GB1-1.bcmap": "2df3ad4b86dccbadccae0c2f79ee014b259c1a0679e1212e5a18cc8203e9f46a0e6dcf9228501f8d0d37d8e071890b695eccfac57ca1625213f6fc6de783cb24",
        "js\/pdfjs\/web\/cmaps\/Adobe-GB1-2.bcmap": "cef4ee5c03927705679385fe88a797989f1bddfa152f8267376fa2c74c3200c6f6d9c769f648e4ed17abb9b4554067a0de60bb9d0b61e92b34689ae27ab3b695",
        "js\/pdfjs\/web\/cmaps\/Adobe-GB1-3.bcmap": "3eacfcf63101c732d21c122261396246b240ccf38f28e6c0c27b89759a75746a26b62f6fc080c0c23c74d5e20fd2d6e1f8032304c76567f6ed7e4b80c95cc4c4",
        "js\/pdfjs\/web\/cmaps\/Adobe-GB1-4.bcmap": "7fc021d4d1b61b8bf34abddaaa0d3a9c87ef8eb6301e21d9ad962c131f9d82e6daf12fdccd4ae92d3d50e11fe522b1662df98048b9df5223d6401e2b8896b752",
        "js\/pdfjs\/web\/cmaps\/Adobe-GB1-5.bcmap": "d9d870a9b3ae62063e5024e0bb12322a196326ca805bcae9405bcbb33c5f0b2fc0c74e38fd4652b81f54fe7f484403f10af5e3c96ca84070e8e31d1808a95e4e",
        "js\/pdfjs\/web\/cmaps\/Adobe-GB1-UCS2.bcmap": "c5e2d52d527fe786866765b933dcdca3630b51acfc0c83fb566878dbacfbfb55513b346edd01832e0eb4bc0de32361db0d3f6a93814ff78f1f8e6c13313c8a52",
        "js\/pdfjs\/web\/cmaps\/Adobe-Japan1-0.bcmap": "981a4ebd0db82dd699a7cc96c580545ac0467ee726772ec350677dfcc45f36570de94a1f69459f68cc3a91676ef8dd7499d52497c0b99ff2bd572cb8310656ba",
        "js\/pdfjs\/web\/cmaps\/Adobe-Japan1-1.bcmap": "7275a904b5123dc96fffffdf17777400838f3966e9e06d3eaecb117d1dddb7eecedd44431787faabd8bdc078d6e445bfc54daa2afe55051c80ae7488a7c56df3",
        "js\/pdfjs\/web\/cmaps\/Adobe-Japan1-2.bcmap": "dc34c7ac9b5e43d56aee0976b615b76108f2b978ddb815a00501cde6bbd2a22084ac1a2de5a4b086b210fe49f66142c4e72bdfaad3794524f172c80e464782ed",
        "js\/pdfjs\/web\/cmaps\/Adobe-Japan1-3.bcmap": "e3be6828eb8d60297041feb64b7b045059201a233a28fd6c7accd10e9c2ee78a01cc26258e8454a4701cd71594d8b9b5d1c6783041f36613ca07318a9568bee6",
        "js\/pdfjs\/web\/cmaps\/Adobe-Japan1-4.bcmap": "185e251c8d73d2d7258d30d6ba1df9baddc2162464305c0934329762ae0c785d1aa427637ad64d5780f4c3ea0dec3f0e448e98b88c89eff16ee952e7aea563ca",
        "js\/pdfjs\/web\/cmaps\/Adobe-Japan1-5.bcmap": "1978a3cdb2207391454595beb70943f005f5880eefe5f0d1eea350fd6b8b095afeb5eaf5724cb73ff2c52bfa9c37cb4d567d54902bd925dab0320619667ea831",
        "js\/pdfjs\/web\/cmaps\/Adobe-Japan1-6.bcmap": "f2566097f409b0d798d03e2c7d24b6d8885e54b58f662e9d92da1c4a8560af61ada0dcdf0169648bf4e8bd63f5fa5e9030bad4df7f82d8082ac1e2ecd484ae26",
        "js\/pdfjs\/web\/cmaps\/Adobe-Japan1-UCS2.bcmap": "d0711b8e37d8be245984956492e245447ab4c3875a569c6f1475f1c116aa51916c773faeb7e09630875a0bb085fa0284ef5c7f82a574392fd4b85a8cd4b34737",
        "js\/pdfjs\/web\/cmaps\/Adobe-Korea1-0.bcmap": "c7c180a75c03644e1aade1da3f89d587d7a0b8e1b58b948eec33b7d17aac3db7b4e51de2ae7e15d365719a3fefbecd229d7adc880d207ff362907395f7a1de3e",
        "js\/pdfjs\/web\/cmaps\/Adobe-Korea1-1.bcmap": "4185ec176f75874e080b51baa4f17dec7e28e48043ba0f6847027d3361bda514ff60c23a0d8ce947db306ee567207494d8f7515dd6518d98ccc6b47b57f72539",
        "js\/pdfjs\/web\/cmaps\/Adobe-Korea1-2.bcmap": "96272a0b0b8e747b7e76769f0dfcfebd1c714f9a5bf839380afc348e2119027c4ada3c00b63657a3a7ccf69b13441a8898f8d7450f803d7629e738f4ed3f1996",
        "js\/pdfjs\/web\/cmaps\/Adobe-Korea1-UCS2.bcmap": "2eea89e61b303d0e96fdbdd6dfcb816992de7178e2a463a3fdba8fe022cf49aae397ac3f330818b12ba53b762343e3239c2aa8cfbc7578f652bfab74c8723828",
        "js\/pdfjs\/web\/cmaps\/B5-H.bcmap": "a8f29d9d91b418af5e94f367c8904a53047255f527fee962f21b8fdc780c94b49650ff1476f3d404894c25ca3c63f7206abafa9d212c75556832e96183e197e8",
        "js\/pdfjs\/web\/cmaps\/B5-V.bcmap": "2b0437cb034e2a48c153018fb7eed880fbf75459b17ddd94e243b5515ce56b2b457f6943f1ede2910263b97ce236429ca56a337e65f8633c54920dadb7d663f8",
        "js\/pdfjs\/web\/cmaps\/B5pc-H.bcmap": "5b8f22a1501c088c439ac40cd3ed6115d64ed68ce8e41256d9f05d3ccb3d49be3ddd6eb72f4f4c349c23544ebeb01e90348760458679a01396a9338046efc9a5",
        "js\/pdfjs\/web\/cmaps\/B5pc-V.bcmap": "ef7b81270fd2466d37c066d0d81d779127d110deece02718b453e13d89c1eeb32c19ba9c731f695bba5d9afde81f1da5d02215efb654fa968aa35f173f6c839b",
        "js\/pdfjs\/web\/cmaps\/CNS-EUC-H.bcmap": "0219f3190823e81566e5c09ffe90cd8dc4f69bb87d37d7196ed11f04ed0a3785c114060165e911d29121f899d0c968b068bbee7467f51981e36e57e65abdc8c9",
        "js\/pdfjs\/web\/cmaps\/CNS-EUC-V.bcmap": "9a8ab5da7b1f8a6afc0e1da279b6b26e17fe1e833e5304113e30865d619fd882f4f4a23455d2a92f33da7785d28439cb7e86e26f0d98b817a7ed69d6be16d489",
        "js\/pdfjs\/web\/cmaps\/CNS1-H.bcmap": "d768dd84fb9ad5c671714581b7ec60b5392dccfb607ad5b7824e41865c06eb4d3f4ca9deb5df5d6327c3f38743bf97fd2ac199bb0e38b5dd6e96116b58f27aac",
        "js\/pdfjs\/web\/cmaps\/CNS1-V.bcmap": "7a3f1f9f836d7cd519aa37ccae14c679e647f420ede30d8ddac9fb9fed075d31427d4030aa3de01ee2bc34780b210bea163e6f4d6c07b49523c8e08f6e63443d",
        "js\/pdfjs\/web\/cmaps\/CNS2-H.bcmap": "8fa2940a58cc61ae143dbacb6b09e17d6fc9c26ff80baa2b7a07537c85829c0bfd552278a109ae3b3dcd85ef7200579566f470d58cf38ca4165891da047a8cfe",
        "js\/pdfjs\/web\/cmaps\/CNS2-V.bcmap": "f34432205de2669f67af463e8653012ba06a6777e9fe3d1ccddf4e86a818589d87888ee9dd8bafb0d703e1750f6cd9139d75749c2fd9c72374f60fad9b2027c4",
        "js\/pdfjs\/web\/cmaps\/ETHK-B5-H.bcmap": "b23cf6cdac76a62a6f727fdbff52993a1227b934b31bfc71b216df35298baab3c1c021ed3ff981c9a85ae3858bdeacfb1cd56ddfcfbac8c2a5cfb40f761d7175",
        "js\/pdfjs\/web\/cmaps\/ETHK-B5-V.bcmap": "dad326a3c5b07a4ffafa1001e4aee7f47f0f673715814434a98cdc5312d3ef6338ae3a8be8f880f4788c91ef9a7c8de780570dbd5ae4581b2495b824e460f8ed",
        "js\/pdfjs\/web\/cmaps\/ETen-B5-H.bcmap": "8e2072a90c6c221b838053c24ba2bf0fb7886b3730350aaff819666d8360f51c31fb3b0343db1f7e6dc137f6ea223a9a98eee02388d22292de7a8ff6c50c3e5e",
        "js\/pdfjs\/web\/cmaps\/ETen-B5-V.bcmap": "9c7e3f96cf92e7ee0aa24b1c50f73ed359cd86d93bb320aac8b34d1b41cc660ff74489ae05fd015db29c5288a011b29eb0a5b41ed77107812b237796c634b1af",
        "js\/pdfjs\/web\/cmaps\/ETenms-B5-H.bcmap": "7084cc508774b116eea83bd64f5e17b494aae4caf82206dc67d80ca550ca68ce136addca5007cd43aa32dd0374e6eccec923b026c45845db6786ff0245bb012a",
        "js\/pdfjs\/web\/cmaps\/ETenms-B5-V.bcmap": "5438e12857ef7291df2360b85275f4452aede8d23cca2c4a7bbe7a948f444fd5316a0ab60dc68eb5f3f195fc24bf554561865638e72914f679fb24f08d3947eb",
        "js\/pdfjs\/web\/cmaps\/EUC-H.bcmap": "309f4dfd16dc8cd43fa62a07740f68349c15d5cffc3ceb6429736c34cd06f01a26356e4b1f27a80d4be7d6cfe22eb592cc20970a6036449e44e3b89a739e026d",
        "js\/pdfjs\/web\/cmaps\/EUC-V.bcmap": "00d93067613aaf9001c1df52707eb7a64933ebd3eb24707305fc7661aacf81f11e680c1efa8ff9ec5c3da521d2dc2b0572a2fade1b7d5b3e5c02ae715fc9fe46",
        "js\/pdfjs\/web\/cmaps\/Ext-H.bcmap": "0b2a3e07ffe3bea6975238936cec46e0fb819d3462da8bea45f5da3b946f95ac7ad04cf9c1523c2c262ad50a53c5d8ba65ade5a4a1e6cc1443fabfd3914eb121",
        "js\/pdfjs\/web\/cmaps\/Ext-RKSJ-H.bcmap": "34349caeec944bfaf61d114a871a310851bf662ba2fc6690778a3194d9151acff6b499af3b2bf1be9241cabfc01561a72107fbdc2a38aa7738aaeb1fe8bdf28e",
        "js\/pdfjs\/web\/cmaps\/Ext-RKSJ-V.bcmap": "80fde78e76962678861c0a4f3b4e57c2ca5712a44c62165a99e24d1436913f6cf0c1955e7381d5e3d40fafda233cb9f9799d1b07f63b481473f6340dec467036",
        "js\/pdfjs\/web\/cmaps\/Ext-V.bcmap": "4e586f0fa8646c0282a1cec803940589bdad3f994a4fd8b325f5960c2b758f6e62ebd7f2af8273c4a79670097573a49d207dea42024f2ef8788462dd3a1609ef",
        "js\/pdfjs\/web\/cmaps\/GB-EUC-H.bcmap": "06f7f9665ac149ee5ddff0f05dffb461e33f26baf8558a1b53ebc47d55f63f68e4f351e54fdbfa355b6ee433784c23fbe1a0ff5fa0cd302ac027b22bb0e658a8",
        "js\/pdfjs\/web\/cmaps\/GB-EUC-V.bcmap": "e98ac58f18f548cd41a0c2c991f84f6b452dee742581814ba94f97644574f1d365b3f69050040434e460b88960350f657d02ec732782cd384764d9e9eb1b55f3",
        "js\/pdfjs\/web\/cmaps\/GB-H.bcmap": "37d00316b45a87dfde428f20412946acc1030f896535bf9d70b8c49092342dd13a203c5d76b5467f649299f3e405aff6dce9cb7c93e1821775c186464c98eb6b",
        "js\/pdfjs\/web\/cmaps\/GB-V.bcmap": "bf2358c9074c7bd182e0ab3c5dcdf4c3151466361012daea9f56663cffa0d935812006ef533d1de6225a1598cf583651233878634976ec4c201943604903ffd4",
        "js\/pdfjs\/web\/cmaps\/GBK-EUC-H.bcmap": "7dedaf91e29a59f401449277714fbc4b3961c3c4cb7bd08583ea98048ce483e26d32c594e2cb107145064b3679edddef7a07cf70415f7b86c61d1680663a8f80",
        "js\/pdfjs\/web\/cmaps\/GBK-EUC-V.bcmap": "346a0d877fce9015f410f3c41c560161f34c05ff48462e8509f31823e47a521f8bfe10fca3a12bb97fbbb236619e9abdc7137576fa63e125e3a022f9d1395010",
        "js\/pdfjs\/web\/cmaps\/GBK2K-H.bcmap": "af37b9bc8cafba5eae06283ddf811f9b06b6ea651509f51037d50220db330e6428e2f710d9268b2b2fd1ddd962d49c2d90905525a010771b648bc2c3df383ce3",
        "js\/pdfjs\/web\/cmaps\/GBK2K-V.bcmap": "141e26b3041958053b72d2b63537e646dd55706c286307459fe310f8d6fbf57ca7a30d1ff9beaab401fc6fdd4ab31134079d70b9929cf782352aca46d6a4cbcb",
        "js\/pdfjs\/web\/cmaps\/GBKp-EUC-H.bcmap": "b90cfa1d13afc04d78b3f577066122e857a69b41097dbd2ff071b316cc5fc0836939bebbcc87ef6b303ddedff3e760fe96c62e5eca2434069eea7e6b621c07cc",
        "js\/pdfjs\/web\/cmaps\/GBKp-EUC-V.bcmap": "d8962d502328ed95c54ffab710df116fbc17f1fdefb1b980fafe9e7b83c3009c2c0d68e447f5697778ef344c15bb48354e333621ccb33b1cbf7c3f58cd7455bb",
        "js\/pdfjs\/web\/cmaps\/GBT-EUC-H.bcmap": "5686109777778013344557eee6bd0021804940d71c47f15b4061a3be7666c91c1af42a75de4675ca8677c17b17f4da4db47c228c3b2d3e4126673e6793dc76f0",
        "js\/pdfjs\/web\/cmaps\/GBT-EUC-V.bcmap": "45862b65c40baab78493c1a0f2196f7b9b194008e30216d3496dbdce7d71709f44fa0aaad6a7888352a93afb885538c3d602d3fb3414dc9b695ee4925945c3c5",
        "js\/pdfjs\/web\/cmaps\/GBT-H.bcmap": "42ce8ece9f2e73ee8622d8109a4c792700ade5e1090b9ca0aed4fdae2b41312573510dc4df0c4095c77ac2a81c3c71237212d186583004408d5540361bdb777f",
        "js\/pdfjs\/web\/cmaps\/GBT-V.bcmap": "cec48603f5c9c79235761f10bb1dbea55a9a5a7ff461a284a34a2ef1816325ab94a9b165795dd183d7548445bf82596f75822bd536a3cf0cc1021b2cb46480a1",
        "js\/pdfjs\/web\/cmaps\/GBTpc-EUC-H.bcmap": "3bc43d55bb23ecd6345aab6fea45924b5125360dba04b94f2a41959c413e1db2510db1b0a7dd05c6acfa3754d1466b7349f3e0d03b5aa9504ee042715e3b8362",
        "js\/pdfjs\/web\/cmaps\/GBTpc-EUC-V.bcmap": "8f559b0e8e8a8b438d4af5ece18641c554f5ec360362a2e857d0b6e84842842350dfae850cdb05df50433947fcdd496f9b8c6a45bbb3f8f55ad67670d7d01d03",
        "js\/pdfjs\/web\/cmaps\/GBpc-EUC-H.bcmap": "08816d963bc6d37c39817a1439202589c7d2791290ec97bdaf8827feaad1f4b4e591a460c2346cd2217c6f513a4c8807d892d947d3d1ad3d6045f64e2759c6de",
        "js\/pdfjs\/web\/cmaps\/GBpc-EUC-V.bcmap": "3b26ca759e1c6a191dc2e66896218c65cdb8cd90a37439971cb1a33b2fe162977900d64f7e66e15b0c1b85bf55a74c45143392f809fd50cb9deffcc1fc646e22",
        "js\/pdfjs\/web\/cmaps\/H.bcmap": "d802e84cf0deff7f652fc6786a5178a2672c68c455296272b4d66d844a564767e374682dd177d55695887c6e1d590f6b8e0f82585bfbe96ad4de39ac78e1a53e",
        "js\/pdfjs\/web\/cmaps\/HKdla-B5-H.bcmap": "f1831984fb8d5cd394228437bff40194b76ea49ce6150aa2cbc63adc5eb1f948b849a984c05758db43a7e2436b8894b8c6ab8cc30254ad21eb270f5f315200a2",
        "js\/pdfjs\/web\/cmaps\/HKdla-B5-V.bcmap": "7bb3c95436701e5e5cae7edb203faf133657f8b660a5787e4eda62eed18ec83da248db6ff7f93902f7c08f775b76facf8a59faa5a1b181e437d8bcc04fe7412e",
        "js\/pdfjs\/web\/cmaps\/HKdlb-B5-H.bcmap": "20ae60c32504d6e28c3f9fea74348c025971db2e45a6b05337888ac87d48f1ab068327a71e2bd9423cefbde585e464f39732ab32790231bd566964d7feeb59cf",
        "js\/pdfjs\/web\/cmaps\/HKdlb-B5-V.bcmap": "47d8109c237854780c2a8631f7afd869efcb9af6932398ae598944e8af93b358f38da4e8561f8c30680c29375e9d76d016be50c12eff1155abe0fcca7a1edef4",
        "js\/pdfjs\/web\/cmaps\/HKgccs-B5-H.bcmap": "fcd1755a056e0b40ca26ed8abbef7a3d302326e822196c5d7cb34463bbf04b571579828eeb5755a0759858e64673f574d058631eccce8cb55a2dfc43094fe589",
        "js\/pdfjs\/web\/cmaps\/HKgccs-B5-V.bcmap": "6555bb8920c6f99b094c624c5c0f92ecfc525fb2b93e1c9056d4992af1eb5573f838dbad21a0d3061388bc66e438476b62db85e231037b9d91adc9a3b27b99f0",
        "js\/pdfjs\/web\/cmaps\/HKm314-B5-H.bcmap": "6beb5993de3512f1dcd96663086a11c460858f1decd9b1a5745ed6a39b0e622237f2450e356401368480e5fbfae251ceefd5427c71c681507305ae4d702acf58",
        "js\/pdfjs\/web\/cmaps\/HKm314-B5-V.bcmap": "e2a9dd263c387f38f6dd23aee0d3877adb5070d107ad3ef997f67c6b0784e6aef7efee0984efbca4ad43a69519171b9b80f17ea42dcde469f4c9cf7420f72b49",
        "js\/pdfjs\/web\/cmaps\/HKm471-B5-H.bcmap": "1085049f7a01a99951b4f5d139f64c18b5463e2207cc3b41ccc55b4f99063b3effa83623a549eb014f3c74157b59e8b2170c4fe19270f534fcd904954e07464c",
        "js\/pdfjs\/web\/cmaps\/HKm471-B5-V.bcmap": "8f341ce27e4722d222162472639c100fa356251f26c6f757de14e647e6a15a60ace608cc0f1fa978487d71a28564a9d6c7863993a6e851936d6380ec3bfa1ca3",
        "js\/pdfjs\/web\/cmaps\/HKscs-B5-H.bcmap": "cc38d893ca1b478f7ef5e5f241af1b34fff6f170367b7b25298917ef4fd96531fe8eb7b4da3ac9ac93de1a400e8ce099d3375f81f6325fca787833337c9efe01",
        "js\/pdfjs\/web\/cmaps\/HKscs-B5-V.bcmap": "24061edde1f8a8ba2f7f52da6c2995c5ca486fa4eae58b6187c16d7ce758d007a111f38e492ba763fc367c64e494082468f6b59a42de65082efc9f2fb0ac4e20",
        "js\/pdfjs\/web\/cmaps\/Hankaku.bcmap": "be2e73abcb546c4ae0a168e9edf70187d51bb1f6fecab88ff620a65e0e3bdd3948dd1f634e8732a2f82271898ef4366a25596c81284644856ae5bef2f4d05ee9",
        "js\/pdfjs\/web\/cmaps\/Hiragana.bcmap": "b691f071512fcd0e094f9aa019cd1820f676dab391ae0a1e399706f4e626311be10ade9730b5960576dd61145e75c332cb57447e2231e0568753fba0f9801f70",
        "js\/pdfjs\/web\/cmaps\/KSC-EUC-H.bcmap": "b9f5aed80fc93fdb435ee259879f09aa8b46ee1ce9571b39e1b203e46cf8137b6b00e73883a73dda381592a225a0881ecfd02a47c36c83ad709d8df797eff88c",
        "js\/pdfjs\/web\/cmaps\/KSC-EUC-V.bcmap": "3921a2bf330bdaeb5ce7bb7bab7dd290d962755889d200ba1092886179a67ec2939789765d1eb6504338be477b39b5566877cb3fc175ed6a88c4016ede469a41",
        "js\/pdfjs\/web\/cmaps\/KSC-H.bcmap": "7e4ddbf8ad56c1312083b672e06daefc8c03ede8001e0094e48737fe9964bc79daac9be484a3cff1d221fb7ba0336dd7774068de82ecbfe2f517006181c7442b",
        "js\/pdfjs\/web\/cmaps\/KSC-Johab-H.bcmap": "2ac54951fd28d20cc80ad5a50413b0d286c5fb3f651ab0fb34ccb42c13f4f364718149216571ccf81f88504667ff3cc70250c5040d9b689e02ab7ab0bf49dd13",
        "js\/pdfjs\/web\/cmaps\/KSC-Johab-V.bcmap": "2b24d20e14e512082b16be3900065d17fe65b64252b9898f8c20facf4c48e373906760eaf00d3cf18a58992046696b9204df1d162e92351b827ad138ee45f309",
        "js\/pdfjs\/web\/cmaps\/KSC-V.bcmap": "af43b92d12c0fc1cc324b379e44fba512cc2c6adf86c56f9b6c560a83093f87aaf9e0026c03e4e73332af407a6cdeeaa4cbf761dcb1267599a93a367318f3b67",
        "js\/pdfjs\/web\/cmaps\/KSCms-UHC-H.bcmap": "a43307348dc37faf3702847e7501f86ecda4999f95245576e55e912588c5554ca1ce8ebbf35dad1cec07342518f9cc7d0186eb4cb22bd47dfa9ce1f7714c724b",
        "js\/pdfjs\/web\/cmaps\/KSCms-UHC-HW-H.bcmap": "f906fc760fa9fdb79134ac4a0801d67ceec60bf1785991d2310d995db9e659de3a584c030012acd6cddb233f0753fba5aed87138c36d5534ffda794cdc07a79b",
        "js\/pdfjs\/web\/cmaps\/KSCms-UHC-HW-V.bcmap": "9716341efe9327add9dc2c5c49e76f35d593457f3720c1e3352992140ec77072898646271b0b8f362091a7482b651196d7260d12d4a455341f267e9430218d8a",
        "js\/pdfjs\/web\/cmaps\/KSCms-UHC-V.bcmap": "d199a9b2d23276ce9f22bc2ff14ddbd585b7df8ed6861081cfcb259c8ce030b117a506024f71e3d44a6edc0bb9a043dc24cff26c76c0f44060c72a6c323eabe7",
        "js\/pdfjs\/web\/cmaps\/KSCpc-EUC-H.bcmap": "659b7a68292ec0cb85f7871a81c58ed4d0eb70de7a62a3c0bf53bbd1660708fc42aeacd29c8074f43ff18efa0402f83b3c8cada982dfd1d6eb3fc3cf15405800",
        "js\/pdfjs\/web\/cmaps\/KSCpc-EUC-V.bcmap": "aea6e9f075f8042063cf76ddcba8289796486760446fc35f622de6799aa97aa0f1922604017564fc5063a37aed8072ea83b8d44f9ffa19b0ec685efa2e47ba7b",
        "js\/pdfjs\/web\/cmaps\/Katakana.bcmap": "70440c73d91a06beff41cc30fed0a39c22f145d329350775853e19ec599408632f910d0a96a1dea359e31d4f2e9fa5b9777165d09dea23591c4293d84568fc28",
        "js\/pdfjs\/web\/cmaps\/LICENSE": "60f0fa222953cad177e3a8895104f199141c1f988e2211f2226f1a5b69da6a5125cb4c3daedc1d805ecec09053f5a422576a453e9cfbe764138a5eb260473a71",
        "js\/pdfjs\/web\/cmaps\/NWP-H.bcmap": "3ccb6b528cd64c3b826b0f2c6f96f2ec10508e67a65cf21e95e80e4ca23f603167481bab9c1331f5ff245face8cba763c7fe0acd80a55ec042e2fedf953f6a04",
        "js\/pdfjs\/web\/cmaps\/NWP-V.bcmap": "cd88f7a0574bc800ca5b2ccf36d771cd865fb6a57a0bd0417518cb40833a52934bc266072b1243257d31fe86dc689ca30cd363edf8a7f0a95017e707d13ae596",
        "js\/pdfjs\/web\/cmaps\/RKSJ-H.bcmap": "f9e1da68a101ebbe2771b4da3a7c387ab277f9f60442f0e5dc6805b3f0e0e5218d7214fcc80e8fdfbcb8023b612858f31918326c3b4bbdd1fa12023f29caba77",
        "js\/pdfjs\/web\/cmaps\/RKSJ-V.bcmap": "c599848de1bd56e9b3cd118922e2ed9bcbb847a137df3814f7e3a360d4196b6b0e5b9eb047f4b6e83bafce96e282c521482fe35cd8c19b3e0b5fb19b53313d80",
        "js\/pdfjs\/web\/cmaps\/Roman.bcmap": "1e532f75e5ce61ba9420fdb6e43d14871c2d2a7a21307a2c1c3d86ca51824f44d77a9ca9504bbf65e4bf8717f2a7a46b44f45c0be97b8d666fba279805d51f61",
        "js\/pdfjs\/web\/cmaps\/UniCNS-UCS2-H.bcmap": "43a801fb42dc9e61d324138d68f9757796d02e046cfdec19f7dd09932371a4c9e9e91198731311054d0b5f407e4a0e3b3aaa8e7277df816f07d93df317e9ecce",
        "js\/pdfjs\/web\/cmaps\/UniCNS-UCS2-V.bcmap": "bcedfeda8c5bcebd88147e77c27605f5617821c6a7a1a9d4831fce995cc1152eba8396d19ecd861cc8b57b893b6029e12c7e2c391fa00af75204407d8e470a74",
        "js\/pdfjs\/web\/cmaps\/UniCNS-UTF16-H.bcmap": "7fc4e7b3471896748f4a0498ddd6f9e328f31b5163e92f1a579ced1bc8004ca45aa58de05848f6ac0ca8563fcf0d17bc736d20d11fac4c7a591436465afb11a4",
        "js\/pdfjs\/web\/cmaps\/UniCNS-UTF16-V.bcmap": "0977a08ba7e7f092a59cd6393cb0504dd73ebbc679361a1d9303f5109157fa707caf8b08e9e61cd7e4152aa1a47c4c4f75a408fc745be8a1c326ef26abf8ff3b",
        "js\/pdfjs\/web\/cmaps\/UniCNS-UTF32-H.bcmap": "3b0e02981a0dfc4d27cfe2bc3e3c4f2eaaa38633f51a3201a30afb9eb55aa7d07d11800a8825fea674355dbad7df4ad72bd18bc60378d37ae1c34e2301a4b7d6",
        "js\/pdfjs\/web\/cmaps\/UniCNS-UTF32-V.bcmap": "0dbb264ef088e0de95f1ec6b9d04de8a35e778728c310362f46d082ff37fc01ffeb033daded9172dfbd4595e9f3bc8a9c1186e06c675ba546c7ff77733e93505",
        "js\/pdfjs\/web\/cmaps\/UniCNS-UTF8-H.bcmap": "8621211f25029e088ca516618833fe73417730315bc06c967b643b371f1becbc4fd6a0afa96c18cc91ba44294194961b41f7418024f7df292ee99a05f2138e0a",
        "js\/pdfjs\/web\/cmaps\/UniCNS-UTF8-V.bcmap": "cfc2e2b2ca98210f14907db9de6ef785c74289e1ed3c5d7d506fcf928f2236afa2cf5fd622b1d7af98c63ebbe556d5ef9cde43020c4cc42a015ba33f24885d14",
        "js\/pdfjs\/web\/cmaps\/UniGB-UCS2-H.bcmap": "dc98ca3c95e6a4c4221dea5a26c77a869676861879a4eae8b43723cf157265f793c61f7e89c739580d8ab92a85be5e4b08f83af032354391310291995200e204",
        "js\/pdfjs\/web\/cmaps\/UniGB-UCS2-V.bcmap": "251a06035e292eb7836f7137a1a831827688bc8aa2436937a9e8742bccfc937264d4ba8035a9e683c150a100f19458788b54a47d02254128d18331889f10783d",
        "js\/pdfjs\/web\/cmaps\/UniGB-UTF16-H.bcmap": "d969136d3ce948e48b3757af15952eece8b9daf959d9d248e85b6620eeea33a4d7db31ead51789f9e226b60379a13e0e944f70ae288bb729320d366a8c70a579",
        "js\/pdfjs\/web\/cmaps\/UniGB-UTF16-V.bcmap": "4a4c556e56723f7a0f1b83d74a78aeeb78615d2cc070981fa2f15a13713391ec1cf2c70ffee3e8cc37f593edc46fe001e8a0cc985c51a85d43cd8e4ce56ee97d",
        "js\/pdfjs\/web\/cmaps\/UniGB-UTF32-H.bcmap": "f3cf3e1f7e8712759399d27c394bfbd02e6597de42e082f4c202a5e382573561d0c2e77e9ba54d7b99174c5beead421c1883197ce6124f255dcf4a42444c03fa",
        "js\/pdfjs\/web\/cmaps\/UniGB-UTF32-V.bcmap": "71d886ca5a1e773785c5efd16c9c89c5354b603a4752ab94b8d3ca6caa1f6c0e7ec4b5ee8fdcf462c48c18630efe1952002595feb55fc62d0e3e6654aa047c7a",
        "js\/pdfjs\/web\/cmaps\/UniGB-UTF8-H.bcmap": "c600772c08df4b2afea7003947ce7b6be7e4d4055898d1aaab2e5469006e7402017ffb8e6db6cea108479e2d48dae417dacc12156b0fee5d33d7f6921b9de043",
        "js\/pdfjs\/web\/cmaps\/UniGB-UTF8-V.bcmap": "06ab567a91faa6ef69b7f7a0d4182a9b9a06413970de1e9d965133ec2929c42015bf797f9330b05b2c7b65cef8025d6ab190a4fb2ed0d3b3998e5f33613cbf09",
        "js\/pdfjs\/web\/cmaps\/UniJIS-UCS2-H.bcmap": "70a75d6fdf0d81f5000ee8c1a0536f21519534f49bdbe8b0817d53078fd837fbf0c7f3b3275eb912f7955785506eccd2bfd7fc81ef8198cc4ff64308c2a73433",
        "js\/pdfjs\/web\/cmaps\/UniJIS-UCS2-HW-H.bcmap": "0336ba0a5b9b7b483260d779058a868434ceeb7cafec3c6a24dcdab91246a9af90d8e0c4426230515566ba4e68e32822dba7c505cbf59b9afae5d70741936ae7",
        "js\/pdfjs\/web\/cmaps\/UniJIS-UCS2-HW-V.bcmap": "0b85c6d653882212d2cef36c1cfd9a426686e49cd090333f78909947eccf0106f6edd251580e6f39ffdb99f815e090d13ccb965dbd659feac3108b30a7d78299",
        "js\/pdfjs\/web\/cmaps\/UniJIS-UCS2-V.bcmap": "409bef75c620d30a0d3e396c9afafa1af09e5c56110c9b92a4e0aa677ba5c0a173cd04d6edb14fd0e8c62d374b4c54f3d1ff931de04d949ac5ecbd5bc2124449",
        "js\/pdfjs\/web\/cmaps\/UniJIS-UTF16-H.bcmap": "fdc7e30cf49f12d6f553bf2019ed99bb718c82a8f49a15ed1e32e52378a63679572e9d928f4fd1f3c4f197ec48d01306d257f9bc58a15964b3b9139f89a939af",
        "js\/pdfjs\/web\/cmaps\/UniJIS-UTF16-V.bcmap": "084e43b521d38a2d153ad956193fffd4f3951003902ac3175112ec16352421785d34eda14e32f5843e45500d083631857acb5f4eeb07f5f13acf04d886172990",
        "js\/pdfjs\/web\/cmaps\/UniJIS-UTF32-H.bcmap": "62aa57a00fa232008221b09351a343bef5785064a9550f404e782c5c08e30e3d2b61aeac51e670e4a1e9fa8ef798e92d4e64144fa391f36ed75c1fcfea4db883",
        "js\/pdfjs\/web\/cmaps\/UniJIS-UTF32-V.bcmap": "e960cda859d6f3f0837f55cda77799d33abeb8e401b55501b4f00d6d33b7f9b9c890c0c9deae2c1bb1e08ad58c7fd471d8700a076fe99391e4c61c72d586deb6",
        "js\/pdfjs\/web\/cmaps\/UniJIS-UTF8-H.bcmap": "9c0506a4f694aba88c312f2ba0e6d00aa55a6939ee498cc68e732ae97b7f87b72abe09941b32b525f85b3a6baea7b935d492236c000782d358b8316678ea5c93",
        "js\/pdfjs\/web\/cmaps\/UniJIS-UTF8-V.bcmap": "df4db0fdead7ba98c07e319bf563efe81ec26d9d72c291b87fb6db2f4561a98988ba1edf51efa0ef077db12908b86b1685a9fecff94d7aa299fe6b17cfbee5c8",
        "js\/pdfjs\/web\/cmaps\/UniJIS2004-UTF16-H.bcmap": "8dee753d227db57dd8443b43b2bf013ccec2be105c3309cf8a4b7fe34b2e68ca3657c6a2246b5aad5839ec84a4f469b5a6e315bfd6d57ea219ed03d1aaa8d504",
        "js\/pdfjs\/web\/cmaps\/UniJIS2004-UTF16-V.bcmap": "c4f1eed1397c527cb3e9232b37489e26b9ab371e48dd3d8c29ac9620d16208838110f732eff1733616126e5c5fe6e3c9ebbf96379718eb7824ecb1aa4cb3b35f",
        "js\/pdfjs\/web\/cmaps\/UniJIS2004-UTF32-H.bcmap": "be848bcb8828eae83a7b455e1243ab820f9e8a6acd3e9a6cff18bd5892eeabe20ae7f5b112529a05ddf346b4375e00e71a210b5235baf7cad269901665ccd510",
        "js\/pdfjs\/web\/cmaps\/UniJIS2004-UTF32-V.bcmap": "0ed9a88c730583e80c555a72e36c72771516ee603cebe210f5e69af02bf8deda297aa0d75715b092297b497f3a53ec1148614b9ee4dae26a0198918de7ef8c13",
        "js\/pdfjs\/web\/cmaps\/UniJIS2004-UTF8-H.bcmap": "347b02cd4dd8720bc29dfa7d0977ef7f3fa62c8b65d724f5b381d969b45089302e2a7ee247e257f3337bb263110b093fcf0613099e90e8a83e3c09cfc2fc95ce",
        "js\/pdfjs\/web\/cmaps\/UniJIS2004-UTF8-V.bcmap": "af115f41fd99e68add9e570d24f408c1005cb5384d4e42dae10b0a71660329fb9202ff96311bf8748e3110a7363c69449e590a96f0e672eec799ccd94683eab6",
        "js\/pdfjs\/web\/cmaps\/UniJISPro-UCS2-HW-V.bcmap": "39d748fe3d8a90c1fc466e487114573a683d37c968d17017d6d5506c72a614647fa59d1f626eb5a5d1b6eae144587cb45f0773c4610905bacbbde1a95a53c021",
        "js\/pdfjs\/web\/cmaps\/UniJISPro-UCS2-V.bcmap": "60d27d421228ef43b67cfb7b3d1541eb437dd391b6ac2324d772cf6cf6a05f685cb73d1c57f0f475729552b12e1ce958e30bbb8f5470a597b45fdc42837d51f2",
        "js\/pdfjs\/web\/cmaps\/UniJISPro-UTF8-V.bcmap": "9d49596928a2e405f2646816b4908c103fb7ee7a1a31f2ee5cba6b2d35527252edf0ecfdf195b5981b916599d71e12f908fa7886f2e5cd09c9572aaeed61523b",
        "js\/pdfjs\/web\/cmaps\/UniJISX0213-UTF32-H.bcmap": "789f859223a5db582da2c9edf537e8065bf8c1de414f276f718300828727de34362d41bb45d63e00c62c0323171503f22af4fca0fb4a335028b3a56742bffbf5",
        "js\/pdfjs\/web\/cmaps\/UniJISX0213-UTF32-V.bcmap": "8578c58b3abf0594d717a71c67352c5e6128af4252afdf1d0eb88fc613b6b7f23fa60db75a288e302c6843d9ad28fd48f2f9fbdcce7665d5fcbc34fef4ec9669",
        "js\/pdfjs\/web\/cmaps\/UniJISX02132004-UTF32-H.bcmap": "83293f3ad044f3b4d6a7c0574d868a4bdb5738b99ccb5b3b064560675312ea87c31dd3f35e769949ee356cca1c1e3177cc19c532bf6e3c46899ce912e30bad68",
        "js\/pdfjs\/web\/cmaps\/UniJISX02132004-UTF32-V.bcmap": "051ff9981609f71e68a8d1b699cf8f21c1fafe5c3d5bd406bf5f4ccd7b590bbe9f61284070d7cf22d5b52a0997a91ca5d1dd220ab0a583a0728d69e22c149ead",
        "js\/pdfjs\/web\/cmaps\/UniKS-UCS2-H.bcmap": "e5a351ae1df7fd5a45311a4e8c72e776fd783a0fac9ae03a2466f1ac9ab688b6ca779556c22c7d48037c336b87c6580343347c636a7cbae04f903b9e90fb0e41",
        "js\/pdfjs\/web\/cmaps\/UniKS-UCS2-V.bcmap": "5bf69399f5c9b9c9ec6ce94f0fc0f763eaac736ee75deb450f0ec8892b5dfab409f0350bb134f4b2ac129b9c94ae06c5995a7378a9f4fe08beb794ec14791d27",
        "js\/pdfjs\/web\/cmaps\/UniKS-UTF16-H.bcmap": "5a8a072a68aaebd2bf995fee7a13f8802bd6c26b94be993f56348225c4d1bf603491f3ef466a806a88b345bdfc47950a387716b1cc0a52c05cab25c5c2979363",
        "js\/pdfjs\/web\/cmaps\/UniKS-UTF16-V.bcmap": "09cbac1f894c55263636966ba71efbd99bdbab208ff7587f574e69a260c6d27641cb93624f8ad9f15b8e4b9ffd931bf660e715109e893b4529e48900b2ba31e1",
        "js\/pdfjs\/web\/cmaps\/UniKS-UTF32-H.bcmap": "a93fa72c893b9920aaf6d076e593c1884945769df7c9714dfdbad43dd6f4369f2d25ac8caa140cd4fea7d318503720f02bfa632c0d250d018198c946e4568b33",
        "js\/pdfjs\/web\/cmaps\/UniKS-UTF32-V.bcmap": "3bfc98c654ed73603eb13e758454d19f3ca3ab5e4f007021e230823ae95558cacc740d5d69b16ac7dcc10d7b4838dd1d90a6812435d48a376f01c0301775f640",
        "js\/pdfjs\/web\/cmaps\/UniKS-UTF8-H.bcmap": "81ade1238e3b3f5c8648b35dd024d58cfaabdd08add00d32f33489a80fccff34db0b08e2f4e704b659c33ee94289b275f08386fa287d1d4edaeb15809155a2cf",
        "js\/pdfjs\/web\/cmaps\/UniKS-UTF8-V.bcmap": "344f996806b03c29dfc473a3aaa2f2e5c37b2293b1c81eb0edc377475faf5ecf9f4d0d59ec20da36144fb5b2fa0ecf551c3630fd534c11117ea52f50dd8341e8",
        "js\/pdfjs\/web\/cmaps\/V.bcmap": "c9aa014d64545a9acfeff13e945e0009d65715317047e760963795d74c55881538ad9eb817db887c72b29bab034d852341fcafbd7c139e82c2ff59b33933e4e7",
        "js\/pdfjs\/web\/cmaps\/WP-Symbol.bcmap": "d689c8dbf5a33d11333bd9264870cdfa9f889356ebc7f772915ebd00d4a02c0881b81625e75c08670d6862d72ecd2dac37077e30913f8feedfa2a868f858cbdc",
        "js\/pdfjs\/web\/compressed.tracemonkey-pldi-09.pdf": "37b195d0abc7ed58e4d492500ff16b70a217deadb7d0908431eb6d93f41f4af47fb949bddf2ae389491f8a736f3047ac0a24e5b755b4d0ce6c7584e69ef14cb0",
        "js\/pdfjs\/web\/debugger.js": "f62980b65a21dd9f072c6b8a08b1b02456fd0f46cc95eb450919b1231a76addea2c2d7626d9388bb10e999da945a56cebb8b3f5431227a760a0f0cea66f9bb07",
        "js\/pdfjs\/web\/images\/annotation-check.svg": "7442036525e2d5c0ca86c3e6e343bf79f39c9d39ea4815bcbea3056f157465821fa19ef559c7079ea60c7cf99ab4a01ad47af7f46e02f8ff2822893b947b14a9",
        "js\/pdfjs\/web\/images\/annotation-comment.svg": "3b0e0c6fa42084f28edabbaabca1052afd76c3c41576f23ebee598960da96556ab088e8730206d816c6d1434bcb03b0ba36d50abce074dad00cbce99fdff841e",
        "js\/pdfjs\/web\/images\/annotation-help.svg": "735e99c561fe8a509bb5375f77cff79c601f9fe82c3af9254a657bc2b6274a77ccde0014855ba1e925ea2beb207e0b0c6b138f3f78f41a7e9df71f5e58f2c8c4",
        "js\/pdfjs\/web\/images\/annotation-insert.svg": "f8caef572ed87fb5dd3c421665cdd1f5e4f414a65148d3d9990bbec21d9adad86810c58610c800b7649f719d88a53fc924f0dda88b1cb7883e74b709774061c6",
        "js\/pdfjs\/web\/images\/annotation-key.svg": "e9e8b365bd41ae612560f438c6aeb0d1aa2e55f223812b26bf6cabf44b39bf2e1a42b41980fe60187199cea0f2adf1f31c7a0860be10edbc595832542bb1d7e5",
        "js\/pdfjs\/web\/images\/annotation-newparagraph.svg": "ae5816a3ba95cbff2bdf876f4f2f4a0bd7e347bdbaacc09a2e65d46d0edc256c7f0b896536ee5470a2d17cd903d3bae52bd506c12d77504ac0aefb25265eebb9",
        "js\/pdfjs\/web\/images\/annotation-noicon.svg": "b74f7a79dc719acab1f351ac70f00455654dda140d2bc24eac6d48c804bf24ef5938c7d85073004e20b0b3c52f1c38f598f811e068e5b9092e11085d468af0ed",
        "js\/pdfjs\/web\/images\/annotation-note.svg": "566be95c1dda2d5a52ffe0a6899f5058c547f91fcdc60dbe26a79b39fe427a79802d6d52eacb711acfee368318f7b0d54dc9067d88962306d4b0d4ed65d651e4",
        "js\/pdfjs\/web\/images\/annotation-paragraph.svg": "f016ff103e8de8e6cf19aee5e7b627ccce075844e41395cfa20342a0b42a13dce82106e4b06bbb1d7e7c135b0dfb8fba0ab3b0703f40afb9625048076ea3558e",
        "js\/pdfjs\/web\/images\/findbarButton-next.png": "56a163848b2048905d503f6eb95082c2e14ca2e70b6bdfe28509b1e23dd10e62308bbc5ba691c4b1e4143f0c7a41d1a25e304329d48cd99083ea6552114dfe43",
        "js\/pdfjs\/web\/images\/findbarButton-next@2x.png": "fa82d1141dc8158de3423f3171b5b27b1a5c670bca3cf0a698afd8be66d28591e7b8142cfcdfff655ae739fa0a34813d18f0018acf2b38dafaa73b01ae53935c",
        "js\/pdfjs\/web\/images\/findbarButton-previous.png": "60f03f4aa6233d08351797a6bc194c480c5f14a70157a96fc26d0a9330ad496ed3a4a6e78198bc3f4962a6479e9b9794326269be96313c0284f7bc3e73a24794",
        "js\/pdfjs\/web\/images\/findbarButton-previous@2x.png": "fdc3a9d382db5f053a577685741ead54f9c28673b1f1850f306c44c17a5f5681d08558257acd6988635dbba8e22b1e5ba2e61c3c9bd640735df72a3deba7f833",
        "js\/pdfjs\/web\/images\/grab.cur": "5737dc74030cc0c889a203cb05cf5ec09a9455a249bb6c799b1b0e82b9e8dc3cbfa81db5878551e2ddff11838776f6a8838bd80386be58be99907d224443e205",
        "js\/pdfjs\/web\/images\/grabbing.cur": "f4364998a75dc44d8b6d2d6d5ab9001dd140626274f66544585bc25b73baf95e4ceb8ecd3587b2be1bff307937c5e9f61604f9bfb8f6d1d596b109a898f2a160",
        "js\/pdfjs\/web\/images\/loading-icon.gif": "451db4141333fe6561e6259352b6259f80a2b080380d48117b693cc1ea1d6f3cecb5f4a4493af11c734989e4096b01bad2b31e47d2e13718628ac254c4deb70e",
        "js\/pdfjs\/web\/images\/loading-small.png": "e1679ff6081aceb386d0d719f9ffa89251f2438882308dffc646e6c531558057bcedf9946ce85eeb2f2f0b069ba4c03669f861eee503f72bde3b88d204cfee54",
        "js\/pdfjs\/web\/images\/loading-small@2x.png": "727daaa5e22a76e348e3efeb7f5bd31c21b9b80691bf0f1251fd367532cdadead5df9e2d73b8f60290c8220de2cbc8644774d555991537fa77d40637165eab63",
        "js\/pdfjs\/web\/images\/secondaryToolbarButton-documentProperties.png": "9b8ae566c9aa256c7a8bee67717ff5525b14878e119970e0b785743f08b773bdc8ec90a3071be5255cd6df5d6e13000e254defa2d57794e268e3605a66cf542c",
        "js\/pdfjs\/web\/images\/secondaryToolbarButton-documentProperties@2x.png": "b0aecaf656caab0b9407587d0fe3dfaf8d23f9bf2b5a2be5859ee9b90ca52744885698c7995bfb662efbb0e28289b3b0c9e6683b7598bef0e72f24ec8cd1458e",
        "js\/pdfjs\/web\/images\/secondaryToolbarButton-firstPage.png": "ea840d42e8ca8183355b5d90156cf36739102e1e5502c9a1052ebed927324e0b0e9e68a98afbd9a201cb75c08fabcab31c6788cb5c18742460b015e8a93cf19f",
        "js\/pdfjs\/web\/images\/secondaryToolbarButton-firstPage@2x.png": "551261346537a187aba9d446ad471f4f81895aaa880b5ad85619d9603fb129d4115bc6a8cf344a1854274ab269a0f669be79660031e025e8dd9341d506963cdf",
        "js\/pdfjs\/web\/images\/secondaryToolbarButton-handTool.png": "f2a70d0d7358d5fdaadb0bb95137e84e083707cb48139aeec833624c8b50e0744a66a3c3f602a12ea1a87b70232f862ad04cf7576e6cd24e504312faaf7b944f",
        "js\/pdfjs\/web\/images\/secondaryToolbarButton-handTool@2x.png": "9935303e4856131474d7e0fde9cc00cfdf1f7c4478e3f7766e511eb9ff00732e5233363c897c4163dbdc51d7c7c275e6204c00f0e40e28aaaf63b9e7f491c71d",
        "js\/pdfjs\/web\/images\/secondaryToolbarButton-lastPage.png": "f7a01af529c3d89f44487357b6107e0358c9011b7d3e44f3f6a70f0adc1780c4df09bd1326c6a4e268349cba7e54ea919c3885ff8bf21d2b94257404db7bb8c9",
        "js\/pdfjs\/web\/images\/secondaryToolbarButton-lastPage@2x.png": "bc8a288c8046c6c31f426fab9e54176a847e1678f7906f9fec228091c1128670992283246baa5ddcd32c62ddb41f97f6f22a3bf79a034f40729eee1bb5b6bdaa",
        "js\/pdfjs\/web\/images\/secondaryToolbarButton-rotateCcw.png": "b5b747c5e84980c2c29d5a3e5e3edea32833b93a88f3bad6238cd6935b1cb06276a784cda7d3a3443631e497a8847fbfddf8532a9923e3ec6ae199b835b2c70c",
        "js\/pdfjs\/web\/images\/secondaryToolbarButton-rotateCcw@2x.png": "9b2f31a73f2c623861ca760bf6d4c9ef841f4de8807cb5698a49f23ff6bb44132adedc90715b01623d059280f8c8c7366b7c034e06775813faab2d946e3ab4a1",
        "js\/pdfjs\/web\/images\/secondaryToolbarButton-rotateCw.png": "df2ffa3779660e1870fc28ab9b48a3e258974063c78adbf5c6739b22605305a69995a1c3575346700e5688d83551a77b6e4a0ae57e00c774ee6a1b0f4a04ed41",
        "js\/pdfjs\/web\/images\/secondaryToolbarButton-rotateCw@2x.png": "94a6a4e2ab6159737c969f2770b1a998d0d191fd2b57c8611f4d010efb52a78379ffe37842e490a6a480f9e479cc07a777644772861a4eebb45b6f608204c2b2",
        "js\/pdfjs\/web\/images\/secondaryToolbarButton-scrollHorizontal.png": "c71ed3d25864620a68f2cadb9866064fe17e3acfa45defac5ad43693bd206f10a458af5b99abefa741919b90f39dfc0c15b767aa52855042cf327ebf088a6963",
        "js\/pdfjs\/web\/images\/secondaryToolbarButton-scrollHorizontal@2x.png": "e2dd21351f19d6356067bddcf55ec0020de993fc00464074bd33c0464a63ba88bc9403c9f7926598c8bf814bcf4399b1ef3bdabc27a0c135a121f4b74e413690",
        "js\/pdfjs\/web\/images\/secondaryToolbarButton-scrollVertical.png": "02aa8e9ff4397ecf52d354fe845156253414d7a592be2d15b1fbde08dfa860ad6e1bd3d6f0eaa5adba022986210c46d4a45747d57d628265bb86ccc67510482a",
        "js\/pdfjs\/web\/images\/secondaryToolbarButton-scrollVertical@2x.png": "6b5b2c4087dcf10da71755ebf4146fc8ab28bf891c4e6a74f8bfd0e8f95ee1a585b0d53e7bf0ce5f148969fa51e3d67524abad75f8cb0502ea03c418dee6f5b9",
        "js\/pdfjs\/web\/images\/secondaryToolbarButton-scrollWrapped.png": "229e25b8fb4ebf14d9740fdbc50d4f88c108ea64f7e362bd76f7e33b4c9e3a5814d71fef7d670f68934a9f8b0cae364025e8ba3a23c45803b79c7ec8ccd0c1c1",
        "js\/pdfjs\/web\/images\/secondaryToolbarButton-scrollWrapped@2x.png": "3c9e34fa1c36fff670a30fb9c71cf3c87d727ea528094877fc17e064d76bc85c7aa1ba7b26e6857f8e5ff8da67083e225ea3c4a9c9139f205d2faddc2199b860",
        "js\/pdfjs\/web\/images\/secondaryToolbarButton-selectTool.png": "efd3d650690fc9c8050f059bcc33d2f56393dfc2f58a1eed438b19709ea2ad95d4c14d1a92f87d597c5b1c283aa6336d0adcf2de668074072f7de1deb1c099c1",
        "js\/pdfjs\/web\/images\/secondaryToolbarButton-selectTool@2x.png": "924d9e07d3ed243301e04f41add4791231db33e9c184651fb59b6524dfc8a417f3a2a9cdf39265268278c53266ff75a35439f1b8df1ea59db70fe574ed3f692a",
        "js\/pdfjs\/web\/images\/secondaryToolbarButton-spreadEven.png": "7e014fdb5a4276c406192c9de480a20f0a2d8fc0fc6cea456cced79f56eb3c3b6adf923d4f7e78499be0c7eea009874f61e95e4a5afa40a4d27f29d368c5ad8b",
        "js\/pdfjs\/web\/images\/secondaryToolbarButton-spreadEven@2x.png": "4c7fcf8868a2662c5fea59140c86d72752d27e8f526386f955d122cb8f9db5e14c9f0328996580cdf8761c7194378601b548817e4a65c795a724958e06dd1cc1",
        "js\/pdfjs\/web\/images\/secondaryToolbarButton-spreadNone.png": "035918452fdb42fe09b6a6f86b6bc2419a988ac114a690589510ffe80b08e931a13ef35ebe25209eaf126a9242de87772357043f72c056b1a74dda7faa3dafc1",
        "js\/pdfjs\/web\/images\/secondaryToolbarButton-spreadNone@2x.png": "93e0f0084ddf680dcaf5966a3116f9fd92361a383cdb229a68c93fedcefc5fc7237bcca80c9c949bd9f68a8cf36c4de1b1a2555941e17bf35a102b451429adc6",
        "js\/pdfjs\/web\/images\/secondaryToolbarButton-spreadOdd.png": "73a62305ec8f0847819220e323945d870681402782eea7a7abca88560c96b2e78606fcb3847040775b4aec7b9629a067c66ec8a476d1dfc8036d6e940c1fc4b4",
        "js\/pdfjs\/web\/images\/secondaryToolbarButton-spreadOdd@2x.png": "67b7f1f103ac07158d7ca1e3e9dd2a677d4cd60f28cfaa9bae221f726f8401ae385fd2edc56ed5b6081f50da734a13ef5a6ba145c983da8872e7ac6ebdd5e19b",
        "js\/pdfjs\/web\/images\/shadow.png": "43140eadb4030bdc2d30de2aa47817b5458f38c7a45c4d3097ffa0f9dcc86636c0e421af62f63ca9cf2c30aad8ebb046c4577059e6f9c652da61a4adc03debab",
        "js\/pdfjs\/web\/images\/texture.png": "ec893e352214af962a16dbc8fa4e506187be673f2af780c7ba63b76d4710560dbbd26b02f2b6f321fe9109eb460bbe329fc2ebb798adddc58e13389157f3c33f",
        "js\/pdfjs\/web\/images\/toolbarButton-bookmark.png": "537c09dc06ff1865d2002dfe8140553feb97cc2c76a78bf89eaddfeaffded2bb8606d1b2e651f49d9b994607413c54305ec589ad72788808ded6c6d80c547dc1",
        "js\/pdfjs\/web\/images\/toolbarButton-bookmark@2x.png": "5f8798cdbd67d31542fa746294d4787549da214248fa03010358b044b2d723a4d6f89b9ade48fe97208019cf3b714094761ad14c74180bb16f8e7094ec3102f8",
        "js\/pdfjs\/web\/images\/toolbarButton-download.png": "7ff01ef840f3dd29cf9953b40b0db3d0559e96895a63a152f9a01f6ff5659d01fbe09652704d2aed45d89fa124f71ab058f9327ade7c5d0ab770e13ec4442aa0",
        "js\/pdfjs\/web\/images\/toolbarButton-download@2x.png": "d25053e1e057a7133adde225f3737fbf9d537650c1775d8d5ade21d59a05ea89cda5640b0b29a4535adeeb245c8dd4f511f700ddce0d78c1d1b3e02e35759533",
        "js\/pdfjs\/web\/images\/toolbarButton-menuArrows.png": "9d0f7693ee97837dc9efb8c8a0e127a654c01332fda3eb23360af16e7ba460d7f2f5dcf3d268cd72f9455e9adde385bd45754eaad83bc4dc392547e6a5454c9f",
        "js\/pdfjs\/web\/images\/toolbarButton-menuArrows@2x.png": "f9f56e12dd6c8e323aa263203072acb1140fe84b3944a92d50552e315af068591c6d46873e6576c1d04d0829d91712d6a06a147e2e42e8a34fd53c35b6173890",
        "js\/pdfjs\/web\/images\/toolbarButton-openFile.png": "f6bc16ec563e614e54060bb7c0911fbe8bbf776f77ef189e8910cb6181e6919384f2e695b24c62d2cd6c419b4357eed408fb2d0eb4c96519d884247c9bc4bfd8",
        "js\/pdfjs\/web\/images\/toolbarButton-openFile@2x.png": "a7e513142db269919543525b85f0c40553eeb3fab968e159aef0ad06a2d912e97ae25acdc53ccc936afdab1bda3f1cc0a11ca31f9ad9db349b3a0363cda92352",
        "js\/pdfjs\/web\/images\/toolbarButton-pageDown.png": "ec30d35314201882898267e3ea8190aaa3c51ad8cb0fe8da34c2434390a1c45381a8670dd8b3e67c330689fe6715e89949c1080b1d2536544d1523510e6ad5bf",
        "js\/pdfjs\/web\/images\/toolbarButton-pageDown@2x.png": "a23935867ce6413a8f821812f2b1f8facb415d57d5c80b52527e151974c91639f78f9fd34bba6ffde9c700073144ec1872411135f8b4b70cd6873bc9dde97971",
        "js\/pdfjs\/web\/images\/toolbarButton-pageUp.png": "c95c2d441112d6ce18c021962897f7ada7e0cc66a3c536ab5d668deb22ba643a607ffa6bffb83bcc9614d80765d30a5dd519a340ad6de8a14825311fa2311881",
        "js\/pdfjs\/web\/images\/toolbarButton-pageUp@2x.png": "b6276ef8bbcd11e84ef5262e4703f3a320405cc9f652be3fdc8790ac3d56ca81f8ddd07afa137e6bc05213064661218aa4d17ef06d085285f1fee5aa8f84481a",
        "js\/pdfjs\/web\/images\/toolbarButton-presentationMode.png": "674f36aa503c4b443208a91b42546967227b17871ab9e6688259150f1c735a187dee737f51f3e01e443dc7247669486ba130c29acb78b9d4842846836553b948",
        "js\/pdfjs\/web\/images\/toolbarButton-presentationMode@2x.png": "4619843db06910e6cd4a62ef1f3c9299ec927744f6bccc227810c1a39a3f0305ca6d392d963e2669f8604abe83c3258c0aae9e9e9ef08c82502fadcc9008fef1",
        "js\/pdfjs\/web\/images\/toolbarButton-print.png": "3e42dacdffe29f8c065c8c1c8e09d864ba31766495a47ba4f4ffdf586d79656b91423e1445bf617e6ce9df9287b0f868e13e32533f8c51ce1c490513947ad1e1",
        "js\/pdfjs\/web\/images\/toolbarButton-print@2x.png": "96700b32691d52fcb1cb63d8e1961d80e1be144bbd346a057dae4a18b589c90a96eda9d3555e1350f62b89cce4a88f8d04a4f5f0207409f66cd22e2a78bb5772",
        "js\/pdfjs\/web\/images\/toolbarButton-search.png": "82ad162e40244a791a9b39e42f5fce43e209696a3fb94a23cf374ce84b09d700405a6d26cb3db9fc84a0d16a5d4ed0226e1bfc4b7a5d09442b1d8eb785c2a49b",
        "js\/pdfjs\/web\/images\/toolbarButton-search@2x.png": "80b30c162113d52b099c647ba519fb009b0d9d242b7fb8d6b23be137e41e922cef7966be307e06bad301b8479d3035d4fbfd29a94c12212ad6a72fbe3f7b6b53",
        "js\/pdfjs\/web\/images\/toolbarButton-secondaryToolbarToggle.png": "72352c3e9a1120a2b6ec41be1a5dd82ce4e56b183faf75c196fbd8c88f45a7f1261300a3377136c1d871d93ed45b3e6ac1fb46dbc0526732fff485cf5c355fed",
        "js\/pdfjs\/web\/images\/toolbarButton-secondaryToolbarToggle@2x.png": "bdf8ed7c79012c48912812c28693ed27e8cf2568537f4d7127f981cab539165e26ef3a61d7bf40e1c42e3e600dfc0aaa778e421777a8e37e9fc44b19ad034b97",
        "js\/pdfjs\/web\/images\/toolbarButton-sidebarToggle.png": "a18b81bfceaf82c7daf68f501186134ef01ddb64d130625074065aa23d78cd420c8a77e43d4263c649bc3125c61352ebcfbb0ff3ded4332562c556e58c7d9b16",
        "js\/pdfjs\/web\/images\/toolbarButton-sidebarToggle@2x.png": "59b7b15f94e851d8bb1f8674cac6e3e4d032ddc2f49eec970121cea8953b2d1c773bfde7e772a567bbc81406744b79f965df6a2c26645d7eab1f13ac999f4eb8",
        "js\/pdfjs\/web\/images\/toolbarButton-viewAttachments.png": "f3854ba432856682faebee10a06ee08831041afab7f83992745ab7d5a43abe4a2f36dcc14fd696c9f8499c510b8ada15a2a3e896844c48e83b146ce8fd2768c3",
        "js\/pdfjs\/web\/images\/toolbarButton-viewAttachments@2x.png": "fcdbfff6baa9e026251b58412f553646f03f74195edfa61375d653c4083601678f02d31c5ce53cb21b65c707474f26e6b03957292287975a713a2b7b44d127ef",
        "js\/pdfjs\/web\/images\/toolbarButton-viewOutline.png": "469d3af1c820e25f62e5add0a5950fc2d84fc3e0e47555b4145c4178026026e2bb22d47ed072656e36632041338e9b06c5e5e0347b5dba6f8181277e5fe1d9a0",
        "js\/pdfjs\/web\/images\/toolbarButton-viewOutline@2x.png": "b9c9ffa1f812712b922d1d68138c78101375d8d1221693eb551a56ca7ad4b72481e4589397f92d53bbcbd6621496407caf21ad658bf26e316eb1e65be299959d",
        "js\/pdfjs\/web\/images\/toolbarButton-viewThumbnail.png": "3b531522315bc5f7edc3ca870d2a91a89d4baf34dfab057ad58550fa35d68d8c40e905495050d687339c1150c8fb3b65eceaadd19e40a5102253ce2dcf3f9d09",
        "js\/pdfjs\/web\/images\/toolbarButton-viewThumbnail@2x.png": "e236e8733a1763dc3ae558f965f7bc08e1c6e785bca812b0667580db892aba1ca48d705f1227326ba7c2c763cb0e4b4bd6eda66c7d68390e99ef2d4517769714",
        "js\/pdfjs\/web\/images\/toolbarButton-zoomIn.png": "a715ede13848a77df5ef2110dfe10b83c76f9c545c83e7272fb16a926983c8f2578b9411c09ff437163f1b0b3e67687d88a89c6003e086b0422733b32fa8ff27",
        "js\/pdfjs\/web\/images\/toolbarButton-zoomIn@2x.png": "d06d32f5358c0bad9dd8cef2fb77b735a1c8121d7efe0f81e38dd2923b8547f3d3e5fd43ee0714cc1dc3b4eebe161b2973e854daa238e54cc137907c7357b188",
        "js\/pdfjs\/web\/images\/toolbarButton-zoomOut.png": "76e02a0294473d7c62bf5e8d8373b40dbfdec859ba1ada0c36bea2f7891c9866a61db519d5e45d4736f95d2eb9885596cfc38aa62688660db1069374c38763d8",
        "js\/pdfjs\/web\/images\/toolbarButton-zoomOut@2x.png": "707f82778eb62cc7370aed263f88dab13d51b4ee0ea0e7195ed94e88ad63c22e03dd333bfd7187466185c908a772eaadfca3a19e72532542d055f0e168c548a2",
        "js\/pdfjs\/web\/images\/treeitem-collapsed.png": "f8620d76b0553280fb2174d6c450a7f74161087de30e0d07fbcb258d2ac6615d32e7d6cdd51994e8e21ff8ab3749d603f8e911df81d583b7a29066c2cbedc558",
        "js\/pdfjs\/web\/images\/treeitem-collapsed@2x.png": "11e21c749356895f5b5e387814011ef7258c4272cbde7215cfbfdefdda439b4bb24f4426aea7ce7e8a061c3f7127c99ecbdf5d1d368b32b2de441913cb7bd432",
        "js\/pdfjs\/web\/images\/treeitem-expanded.png": "e3703be9af2f76b11bd8062ae876503ea5e15e23aa487db83a040e3705fc3b31eda68a693cb6c4e9421e4b1409eb309e878460f93357a3ed64ffe4e331ac4b8c",
        "js\/pdfjs\/web\/images\/treeitem-expanded@2x.png": "fd935f875812e6d33ae3f1b633d6cb9eaee100e93dba48a7c54bbf6f1763c182d7c4aa934f4c2d72ccdc7ca1448dde75152d806622cd744454f2d3c5dd18f2ae",
        "js\/pdfjs\/web\/locale\/ach\/viewer.properties": "0f24430615ca89a94acf9d5831c45176802ab7c95c2bcc309e927b1407aa96df558c5a16230906d2f757455364a321d3004b61d83152c82e37cae107d841ab73",
        "js\/pdfjs\/web\/locale\/af\/viewer.properties": "a5840cd73b8262838966d1d281c01df8116f0f7a39382bbb051f4ca47d7901b82db98f8ed8e05d6ad678aadec6b299ae133f5cd7edfa9f5aaae22b4e43f289a2",
        "js\/pdfjs\/web\/locale\/an\/viewer.properties": "1c8645f3620add1950331cf742f88b65d1ccc64df44ed0f1f22fc3ed1ff2b2cc9ca208a4dbd3db5d39b20ffbe4c987a3bf0644e2804042d834c54ec909ba62e7",
        "js\/pdfjs\/web\/locale\/ar\/viewer.properties": "cac552bf0240e99452d284897c50f73baf8a8de74207f7d3291d414889e2906a010d844cdae2020298a1ec8658edbb50ef8693566c80fc599a754f35f2b3b7cf",
        "js\/pdfjs\/web\/locale\/ast\/viewer.properties": "ec7dff67fbd369cff20e419086738193fb4aba9fd9f034baeee583f54d3387dc328539364b3af32f6b2661be6950aa3eeb6ef28fbb5fc2d1e96227c98f0e822d",
        "js\/pdfjs\/web\/locale\/az\/viewer.properties": "0d09e5954b132a3ff6847f3f14315a95c5eda8bfa1670b6f5de355418577544805c705fa061edf066d99555a39874dc5f2a600c5368a13efee3600ee77fa669e",
        "js\/pdfjs\/web\/locale\/be\/viewer.properties": "cec7ef6527ad7872e189803a483ccbad97a7cd73e5fb10f369b9a4b9315da9e56c48575b640fa6630849673609663bbcba0cb0e782cfcce1afc795b36cbeaa94",
        "js\/pdfjs\/web\/locale\/bg\/viewer.properties": "d6b5f5881521887864391d8eda5fcf37328e0aa98ecda3c307a6d8e2c50003273e5afbea9be46824bd8c229b2fde64d0749d513c0f77a79c15013cb9ffc028bd",
        "js\/pdfjs\/web\/locale\/bn\/viewer.properties": "953390cc8da30a92793975a17952568e8598d4ed36190a6fb9a14d602eb1b715ea1ae0a765f43f13c3ffa3af21c112b5013788f2fc4fd1911b492dcd1d933a51",
        "js\/pdfjs\/web\/locale\/bo\/viewer.properties": "7bebeb4da85996adbc462513abc92d330527bb77c37dba711485948d28a00703da9e2d95c47c05d13270c895ebd6a205b96b8fedc82e926c4624f6187edd1de5",
        "js\/pdfjs\/web\/locale\/br\/viewer.properties": "90326f80e2109db40cba843d1dae4499862edf66bc869667f67bdb964ff0421b85b7967507d64855f3f2faa74a80aa288ab31cb19e14c1d3152d02a6a906b58e",
        "js\/pdfjs\/web\/locale\/brx\/viewer.properties": "6bc91921d4ad07a4c1d7fcbd04bb7da4faa4d85c2bdd4ddf550150d3a47439b1bd2e155692bb08420170af8d2c81c5ce42171b5e35efb8d0ed2f05414e884035",
        "js\/pdfjs\/web\/locale\/bs\/viewer.properties": "07a445b7c876f8e5d36e995b137823abfd4d2479a8a1fb546c8af693ada72c81705dae9fa7ce341ec4fb7a5bd9cfabad42deb95b4b7ae32dc2faa1404e0c5145",
        "js\/pdfjs\/web\/locale\/ca\/viewer.properties": "172f449aaafc3a986d1a30711106e6e6752dbf2eca3d701f5d1df37ad7fa13ba88d90935e1abb9248769e7d3052a923281ce218a0a22298d1f25999b40602132",
        "js\/pdfjs\/web\/locale\/cak\/viewer.properties": "4f0cceb2c59e2d00f0602eb7914d8b43710a4e59c1c448f5736e49540c9d3638b4b947b23c25279b6ecb0d4b695e02e9e4a51063ca73696b46c56b99d3da88dc",
        "js\/pdfjs\/web\/locale\/cs\/viewer.properties": "b337a16eeee07710a4e7fdd61b18ae4a2e83e13de0f2b4838e439b39af31552f10f4b4aa4f4202bcaa509760eeb2ea6b490b1b230bb2130616da344b2ea8c8b4",
        "js\/pdfjs\/web\/locale\/cy\/viewer.properties": "fedda915d4b6de7f41d7b6f015dcc3225ae26f4686a31933778d41742ea56f0bb956b6bdcbbe4962af5345ad5fe8fa59a7eff00873bcfcfb216ad0407e505157",
        "js\/pdfjs\/web\/locale\/da\/viewer.properties": "ea0ff8b36f1a905c98056ba8adb9742d761e4cacfb0a1336f29daba3aadc749d807c940a3ff475f2629e717b4212a5d66db0eb1c838e6e17d43ad33c85b6c9bc",
        "js\/pdfjs\/web\/locale\/de\/viewer.properties": "273e1c9445a4ab27f6ab5d3ee085a0b617cf286dec65340bfebce52dad648c079ffd116c5074f80c1e2557f8bf1ecf51957a998bd37390eaeaddf78e143a0d0b",
        "js\/pdfjs\/web\/locale\/dsb\/viewer.properties": "b7a2ac0f6ca75fa29cec8e62ff41e731436d644c41b0de9193a79745b63151f69ee80573f296bb3ae28cff2fc759fad367b7f1d9a467486c302b458178ee5086",
        "js\/pdfjs\/web\/locale\/el\/viewer.properties": "e1fcee87aeac7f803ae0586227759c2dc61c4d6bab821f79a8e8dd71e61b8505d9760771c08d3e68821c2d5d4aa301d7fd6f3b3c9e196bb3be4225b35fc933e5",
        "js\/pdfjs\/web\/locale\/en-CA\/viewer.properties": "0cf39225849e66fbd0ec8aa98f792b10a3f4cc0098c9f4a4ad33a3db56efad04a68033f2ac7e38b6c4509e23aeaee22f19c2166d548a468612229f669d7840b6",
        "js\/pdfjs\/web\/locale\/en-GB\/viewer.properties": "0cf39225849e66fbd0ec8aa98f792b10a3f4cc0098c9f4a4ad33a3db56efad04a68033f2ac7e38b6c4509e23aeaee22f19c2166d548a468612229f669d7840b6",
        "js\/pdfjs\/web\/locale\/en-US\/viewer.properties": "dcf95b62d3d8aa2f45a2498f0384d52fbdf23241355fcd64d1a60aee45b233ef21ce17163c03bef8fa6e3aa823d820904aa3bbc8cc6bca85b95fb50fdd59101e",
        "js\/pdfjs\/web\/locale\/eo\/viewer.properties": "6f0b86242a76ee26ab6726a69e069f161c3ead51fa743248060717aaa68fecf0fa09ed3cfbce77b6096dc30a78f3ec2580e3895a9e61a666473705ccc4188ab7",
        "js\/pdfjs\/web\/locale\/es-AR\/viewer.properties": "24c0e476adeb285a11689008d50609f71c7b92130e3d61ca5e1e1e514201d8e015668bc98fb2f8f56fefd3d1d792883597b45a6814b620f7c39cda8f01758c36",
        "js\/pdfjs\/web\/locale\/es-CL\/viewer.properties": "f927a96260e11dc7bb995ab34fb533a3e1953325e1e7372eb924991d2a8eb718983196b8c5651947d4b5e7b86a04752966c0fc760bc810deb7c7aa00addf7df6",
        "js\/pdfjs\/web\/locale\/es-ES\/viewer.properties": "5ea896e316b133ace83794d4e244b0b8ea9ebfc01be214e83a86b2d361002771a1c217ee30fba30e5c608cf5eea32934ca194f09f255db65b1c9382294b701f8",
        "js\/pdfjs\/web\/locale\/es-MX\/viewer.properties": "0d4c8c969372f786d11e2b21f258d04a36b19300b38ecc0167aa00ab9132e514c82936e13ceb9f198d1b0ef0a6a881b5672e92e210621c5d7e65a406eb1e0a1b",
        "js\/pdfjs\/web\/locale\/et\/viewer.properties": "f495185681f55345839fac1c87005dd473b5e54b2bc87c5b26dfc834ff8b522e635d90c8ef57f1e1b2031768e4486cb30c338ec41bb0bbadc1a48d93d6d8e275",
        "js\/pdfjs\/web\/locale\/eu\/viewer.properties": "fc8e66dc9826929298e83f575dfdf505de4b5c15358b3390818e4a7f08e051307625df4181657a84fd754897f53db4ae6b5ad337f3b66c2983fcb3ad44b930df",
        "js\/pdfjs\/web\/locale\/fa\/viewer.properties": "0807eb7dccba33d8ebaa52878de05e049d7f957c153e9f5e5b806895eb1acc9a177a150999bc7360d989ed657cf987110d3afabdf9eafa5c6949978336859df4",
        "js\/pdfjs\/web\/locale\/ff\/viewer.properties": "ebf2499f9e5a82ce1f56da351f1054bdc6fd8302844d99e2983c312d7ba3167d6109857e255b0d2642050f587130d449ca1c2e94f0c744f02337f9177b1eac17",
        "js\/pdfjs\/web\/locale\/fi\/viewer.properties": "131c177d4cb05c1072cc525e001e2bc63594a38546053f78d7c1a40329369f94d675415961fd0992898164aea637f079eac0e8e87d6b49a2b631724ad420fbe1",
        "js\/pdfjs\/web\/locale\/fr\/viewer.properties": "c6b4ac2dc1527abed16b88fb34c9ce3cdeaf6a37815c3a082442ce93c40e6594fbd1af6d081fd074d8799d5bf50ce1c1bd18f9229e410abbdf0ec608a82500d2",
        "js\/pdfjs\/web\/locale\/fy-NL\/viewer.properties": "179c9f99570545e03cd1dac7b9122af0f66cb1ae4cd17f488cc7afa9a4b69c55ce28134c34eb314e0ed45bd1911dd2fead7ee867672c1cde98c81d14edd058cf",
        "js\/pdfjs\/web\/locale\/ga-IE\/viewer.properties": "347764b64a098c2b837b330c096cab7f047e7fe235d0211dc21c76e23b6385478b01d61a369b6f22f1ce2b9f04c07efa24c117e5ee40fb437da3760f7bf7a8ed",
        "js\/pdfjs\/web\/locale\/gd\/viewer.properties": "f4026388ee18c0180bfbce9b3b7f4718c73ea84d916946cfbf257f9e4bbe0e04a041ce2cbed93fc814ea2ae7a40934aea6425f2d2fa2d58aeafe5821b8fb5099",
        "js\/pdfjs\/web\/locale\/gl\/viewer.properties": "809b123ccdf10e29105f34593e71bfb8bdbc73965f2dbfdbcab553d876f4eb0d5f8c2836e0ae7962fc45d9978d33d654d8c15bf32b3caf1edd040392302e6a8b",
        "js\/pdfjs\/web\/locale\/gn\/viewer.properties": "b6eef8e86aaa6c751f862d73a9ea3342dfa2b5956ba9a3a6675ba69d7bef66e7f32257f68e733cc97284db79bf0871bfadf7645e6ba2dac91ba1421dd08c29c3",
        "js\/pdfjs\/web\/locale\/gu-IN\/viewer.properties": "2a7bd2590fe52bc6a8205cad8ac40846212b5b355f9bbe06b6b27d2d7cf8ae9a3829e720b01a562b27989b80a5430c18ee297d189ce0ab2312b99e3233cf1703",
        "js\/pdfjs\/web\/locale\/he\/viewer.properties": "c9a16921e666d56b20c0f343e5bc7dcaef1de6a4278ee8c09e1634ba9ee87647ecc1be1eec136e0eb238e4d867a9c9d9c7501236a36ced66426e8066125b7ed6",
        "js\/pdfjs\/web\/locale\/hi-IN\/viewer.properties": "865e5b9a87d252a03ee0dff95300ff4719ee38515ee2746d40d0f35aff272fdf04a7c5b674a369bc6df0b10715998e154da95d7041fcca497c0413c2a9eb4702",
        "js\/pdfjs\/web\/locale\/hr\/viewer.properties": "db4bf6e558e54411cf2e18811f255bcb306e0d7eaf86b2d5a3f0da2bbf9956ceea8a86a9f64dc5e5bbd419213609dacee2b330fb6720e63a4de73b6e24d39814",
        "js\/pdfjs\/web\/locale\/hsb\/viewer.properties": "99d9131445ebfb415a6ac09f57ea3d67c83cde115862e4ce52eb339451007d5a6b14ae62b575401b4eb59d3320a67327b69d69cf114dfe9cbf3a926e5c04ee5e",
        "js\/pdfjs\/web\/locale\/hu\/viewer.properties": "0b25db06be2b7a94def16b7f711927944cf824a3f64eb461fdb6ac0a9d42de9bfba1ea53005543f131bd573e22470391fb74a8db16654264996f842aba19166c",
        "js\/pdfjs\/web\/locale\/hy-AM\/viewer.properties": "abd14edcafdbc1e63518289235af53d79c5d624cba858f47a3e5a842f2e9f074b7ed1a345fdae2a0b1d63eec92ad79278809e4ca8e3eeea63dfd269fe7c596ed",
        "js\/pdfjs\/web\/locale\/hye\/viewer.properties": "082554ac55fd5882026cb393f411a1a4a45bc6212175c8927d7f3c91a8d6ca124971d2adc2706b47732e434ac2b3e1ae1b9527a2a0bf5f8a3570f31e916ae9a9",
        "js\/pdfjs\/web\/locale\/ia\/viewer.properties": "40bbf8c28e4eff9f75c0babdc35a4345e4007c91517529827b24f409e324974cfc3fdb6ff95c6cb837c13214994ca4c801ae458dcb13a5b6a9d43795fcffe5c2",
        "js\/pdfjs\/web\/locale\/id\/viewer.properties": "ad4aa48a142f618bba3379caee837fdd077cf8c545a757289a3b5e9ca495fcafcb7efa6b86997c3f45cb71d0e7fc381beefbec82905ee27b9cdc3f7a9fc1e0fa",
        "js\/pdfjs\/web\/locale\/is\/viewer.properties": "6ba3a229673ff525426047d01e0309a15f5a97688c9820f0d2960a5913b359547e6898171ccefdcf51d559d65726174cb761f78fd06f282a6782f5a9f64eb497",
        "js\/pdfjs\/web\/locale\/it\/viewer.properties": "e1f97f15a5747edd6c072edc0101e2fb4163571b48c58645e925663515ea84bfaeb6cceebfdda7012eed8d69a026a9581edbfe2cfd8473ded3685a8b868b6ae5",
        "js\/pdfjs\/web\/locale\/ja\/viewer.properties": "f1633551b8334566084c7f5939ce13d8554a2d874f0d24eaa47d7bec9376855f053dc0c9560e553aa6add2ae0002729406eaaf1c3f2426187e7f802c44ac5c5d",
        "js\/pdfjs\/web\/locale\/ka\/viewer.properties": "e205be84ebc320008141fe19191750f030298dcdb6f4df58f2575d6a5b807a86f5607aa8613b198174f641fba03bf521baea2c81776f1a5f065521af14872eac",
        "js\/pdfjs\/web\/locale\/kab\/viewer.properties": "1b47554039acc7f89ae768d5054e877c248ebb26dddef7c7c8ab8e014d967f7e59aec051ff97a704f1321106e2c3447809e3a36226737c7c44b9d1523a46d002",
        "js\/pdfjs\/web\/locale\/kk\/viewer.properties": "4d7a997ba03f1e0d67765c319c113f1a5823c550ac7793acd365dfad0ee824359dd4bb14fa69cabdf2bbc84d1a943761de287c3176381f367c5b834e8497d57b",
        "js\/pdfjs\/web\/locale\/km\/viewer.properties": "985e629154fa7e6c0a8f1c8b8b12d115dba20bf51955425694e86c24e770e089b27d5b754f9904bea535eec9cae2c59083b31c2fcc20dee4b8fe6c03d34c0c11",
        "js\/pdfjs\/web\/locale\/kn\/viewer.properties": "19cfb234c2c5d048497a10108ed23867a3290bf8dfb26983a533274223730a2bbe7b9e80850c379c143745bdfdda79152f33ff224b9a109b627f674f418ed7fe",
        "js\/pdfjs\/web\/locale\/ko\/viewer.properties": "49074696797d404853365ce035097ebc6872b6c16b6dd594b3dd185341732f516d8a252259174e02e76862ad4ce9c2ccfdc0aa2483a6d5f5c41ce14a6a1479e1",
        "js\/pdfjs\/web\/locale\/lij\/viewer.properties": "2a7501d85e6ea8a184a6cad9f72f677cecbb8ac991cdbdd06d5f9c22af4fd46a8c11b8b63457e421b711b42e9b8ce1e02529c0ef6f8eef75630d58e89c1ccc02",
        "js\/pdfjs\/web\/locale\/lo\/viewer.properties": "60dc2a1d2878db1d9f6f1bfd3f8c57da67c2d62d3f7a6276f1560044c779d5a2e08810b9861da18163021b4fe8c1c52edb3ddc76259684ab3f4ebf09321ac585",
        "js\/pdfjs\/web\/locale\/locale.properties": "1563cbb405760cf69125426e59eeecf0d0b7f07b37d5aea5255583a27924a71b58861460d68db3002ab584319390b98f1f0e2bed2f7c75e0006a39f98be5d323",
        "js\/pdfjs\/web\/locale\/lt\/viewer.properties": "a5f1a373b1ea1942c2ba41c4ad9d3f389aedede9168d944fb009eb7df0380f12bd7125ee699ca0c95fdcd8e62fe0d6ea4280c6b08fd3e388be3123b4f9255546",
        "js\/pdfjs\/web\/locale\/ltg\/viewer.properties": "2669bd3b6222e6eba33d117f72394167b9410dca387c018283e9407af6a94805331146948621d1e94db07b4315231d143f3749d770b159ae90ed52d03fc197e9",
        "js\/pdfjs\/web\/locale\/lv\/viewer.properties": "7909bb1147d62175c7aa11d4d5d3d2658637ce6791dcc3919973a0502cbe66dfdd99662a036776b7cea8135cf0f269b0deb42121a06c601387ea3388d6a326f0",
        "js\/pdfjs\/web\/locale\/meh\/viewer.properties": "c50e60249b54e56a67833ed5a43cbd62f69d84813745de566167d8c5400c69511377d1c58435d507a72831481687026c4402d802a1833486cb35adcfbc8b8bd4",
        "js\/pdfjs\/web\/locale\/mk\/viewer.properties": "1a62ee6f5a70c6b656bafa8cdab569843ffef8557f91d9b908ae866928fc6f4d45f8ae4318e16359cb1bacfa459f7c68f10bb3d4e1b8eda5accb26937c1436fe",
        "js\/pdfjs\/web\/locale\/mr\/viewer.properties": "2d43e83d5160b1dae3ac9cba98bc1a693797d20c096b9d449b52f97c7c00c482e6cd1973ae0bcd19f4c92a0ad40f7e039d198a23bf8544cfdd402d181b4b133c",
        "js\/pdfjs\/web\/locale\/ms\/viewer.properties": "54f7c44cd03be9f2a9b54bb194bc1eb07142bf1a6d1b80212fd487836eb891ef6daf04033e481be2cafb30cec7a85cc25459be4f6c7465bd1ca74e34cc7393e9",
        "js\/pdfjs\/web\/locale\/my\/viewer.properties": "7ef5fd4ccf3c46a1a0048e0442d6b2ac16f71eed82af86d6db34f115f52b53bfd0f0ba3a8187b595b0d4b1cdb38a0e5fdd211cf98ff3fbbeeb020fe07f2f5dba",
        "js\/pdfjs\/web\/locale\/nb-NO\/viewer.properties": "47d90d75866cdfaf13c26e249e64e577229647f74efeb5e7ff2b20f015ba1508e5cb4e27d9ce9833ea0dcbc6dc3fc0d6a835e2f8c4255541962bfa84d9d21214",
        "js\/pdfjs\/web\/locale\/ne-NP\/viewer.properties": "5f145d1dc99f11e8652c11e435cf3f5d924b163696a3ea593bbb8f46861c2c711e9b592cc2c173998f158ac1ec8f9417f15a6ee1cd4c36e2f7211a7ac9e069dd",
        "js\/pdfjs\/web\/locale\/nl\/viewer.properties": "9a7eec1e44139bd0cc4019bbeb84a2fb8632044db69818f5bb3b3efd1d73c20a9e61f481015aba4eda3740f73912a08ba7afd4234254e125d66033eaef2c959e",
        "js\/pdfjs\/web\/locale\/nn-NO\/viewer.properties": "a476c39379741d596c34bc06dab5d17f95e6746971624a4d0c2584aebf6af8c43c91455695d0a2eee7da3106e82e9e8f82ad53af44619352f27b78592e0662d5",
        "js\/pdfjs\/web\/locale\/oc\/viewer.properties": "b91b2de7fb20e5a631f46134095843495825e088e7ae0055d91e52fa9565619c30fdfdd6a3e4ccbb17dede3641dbacec49848ce63bdfe1122fe266d79fd0609b",
        "js\/pdfjs\/web\/locale\/pa-IN\/viewer.properties": "12299624239d6c62fbc388481bf549597d96daf0ff0ac83ab7b59a9cfc22cfa660557d9065ada45d4f4c8fc1a5e02b5473945720b1d1cf8d50884c6156bdc8a0",
        "js\/pdfjs\/web\/locale\/pl\/viewer.properties": "0a01b54b95a1c04ced3338b461784415c686b5aa3e0febb6ee16045a22083269465b329c28f9833f8c64c650b64ac69b8c7fdad0c72f73e3f3f3f1ddee4a71bc",
        "js\/pdfjs\/web\/locale\/pt-BR\/viewer.properties": "0bf546c681237f3ba3da94b79a4b3d13fe3bdd6a32ab532a8b9654ce2b676fe02bb665f6d1ebe4867c9249d7b5a1b78d0259077af63897acd28d00eb882bd5e2",
        "js\/pdfjs\/web\/locale\/pt-PT\/viewer.properties": "565bc46175f68f643373694ca1f09eb16a3448e6ebdd066db61bd842742567775eed4f702470ba8d5b84501ba6111dae7f942a43f0355e19b7609452053cc74d",
        "js\/pdfjs\/web\/locale\/rm\/viewer.properties": "51a9eda6abae282187c0e99700e40404653eb3741a976c5eb2ed82a25b638bf76b7b34288af949ef3a730a93c40867e79353a07fae1487387669fc6319080410",
        "js\/pdfjs\/web\/locale\/ro\/viewer.properties": "549ac33329f82aa8b78f3baf8001993672144442d391faf76e34a1fae9e7d7f64a04047c100e62cd89e78b754c79fea330a2bae21a65b942238446174be30ca7",
        "js\/pdfjs\/web\/locale\/ru\/viewer.properties": "d7c71832dfd9f4e994406ce080c0a673fafed0b2cba354edc6f5fecc0cf4b4d2975c62e21815ddad8b4333b4bf5cb5231a2ce3b88321fa52a24c924720b2d6af",
        "js\/pdfjs\/web\/locale\/scn\/viewer.properties": "a8778910f17dc6fb194bdcc779fa0078cfcf3708f72fdec72caed257b7cf070e5c4daccbc1e77f1371331f670727fdbb607d4e666092ba06cc403699933310ea",
        "js\/pdfjs\/web\/locale\/si\/viewer.properties": "b61a082f5b12c950e9447eee92d5be70b9de7015e0c7e79dddb7e7ecfb5750dac2f75ba92c7e22620bc8a06335f79924779b580839971cc5f88ba9d51701f62a",
        "js\/pdfjs\/web\/locale\/sk\/viewer.properties": "377a697ef9fafc09baa144a34c8ec3bcf537f94b6595e4d97af1ba0eb38259d531186b93dfeba010695121f4f8a5bca24ed6181e6d554a356d2b50ca9465fe5a",
        "js\/pdfjs\/web\/locale\/sl\/viewer.properties": "e95583211aab3c98aa6f97f3ed6b5c224c97ecb00d38376b1615fb02af78170beccac83b34c976d18f2bb8a8be5113780aaef9e0ee2dccf4c86dc37213a16e30",
        "js\/pdfjs\/web\/locale\/son\/viewer.properties": "5f7993250db23e0b4ee0a293ded012135f07216a202e9196403d98d30e463538ce34ed23effd2b4e2b9468c160b60f9e5e239ad994581a7cec2c25ef80de78e4",
        "js\/pdfjs\/web\/locale\/sq\/viewer.properties": "346a4169a8412a457cc75e79a5e6fb125421311036ba6c030ed0cc8213edd41368a21c3be9e5a4974992943605cdf274732716bace5484bdaa30afb7c9cb4d71",
        "js\/pdfjs\/web\/locale\/sr\/viewer.properties": "8dddc9313648ebde2c3b713de5628eb05fba7b14ca8aa05ced47a4156feec4707ed68c9463fd6c7fe7e68985e5bd800f1657b7f6d8f1ff07cf49de38587df7ea",
        "js\/pdfjs\/web\/locale\/sv-SE\/viewer.properties": "c238491da0eac897a6fe8130213544e2509ce821ec74ef2b65b03ab01f755fbee1c0bbd860c931fe6329534ba1766156133d204822287dcaf3b9e038fcb8d578",
        "js\/pdfjs\/web\/locale\/ta\/viewer.properties": "cf7564659d903ab70af2b62e28aa7616d141e51b3f51e0e82ab2ae4dd06ecce18c7dc964547b3b0ed445972291c62227956b458d65992cf508dff19f5d06700d",
        "js\/pdfjs\/web\/locale\/te\/viewer.properties": "1fcae77b17fe3c157c5bab6ab82be7b0e76598473657e24e771acd768b14e5c9be5d63084331d210af6caf3dd6b5e3eef6e334156713fb54cb055ecfb2ae8f6f",
        "js\/pdfjs\/web\/locale\/th\/viewer.properties": "ee4adbad2a6f547ddef0df613c95bd5cccb9140234d46f96f7001ee485b76d2feffd02a14471cd5351a8e9ae2c1a33ff34e8750aed3675709fdf4c72797aa572",
        "js\/pdfjs\/web\/locale\/tl\/viewer.properties": "e237c25c56715a27dfa96a03b88e147b5c981e2b3f8651021be8811c0b83e29db3287a44f7f34b45aa943f29bfb823207a7b466e395c53b1282f28adf1084e8d",
        "js\/pdfjs\/web\/locale\/tr\/viewer.properties": "600493c56c782449510c3f1af2d9ed74a11f21eeb1577c770a7a2fe6905310f544faad35ef95d5103f8f31cb8d2dfd7384c0ef2c5a0864ff66e824ec15e20441",
        "js\/pdfjs\/web\/locale\/trs\/viewer.properties": "16c6f3c175480b2cbbdb10cc490946e434f08114fd024ee750c95df97ebc91e8af45fdf16e1815e37b7b3a632d7e020a06a150e570529739282783518159c586",
        "js\/pdfjs\/web\/locale\/uk\/viewer.properties": "c99d375fbb916dd888d56e341d4a97205cb61eee09010eca472ec093800b73e785f313fd9e6a23947ecc699c2c017b9d6531fcc429185cd42b39d17be9093458",
        "js\/pdfjs\/web\/locale\/ur\/viewer.properties": "ca7f26ea271e1e08111982049153be338d4c3974cdaf8e81afecc59653b43d473b8de7701d0e20dd62e9eb1e8e3ef4206d39b00aa7c6a9515eab2c2c1c0b6bb9",
        "js\/pdfjs\/web\/locale\/uz\/viewer.properties": "55f07857e110c76c0d9c1cf7a0baecd2709239ece860ff33b73c332ed49a83af6c61b449da4e2e7211b4f37f3d97f7d66cba757e7226dcae07703b09411dfa71",
        "js\/pdfjs\/web\/locale\/vi\/viewer.properties": "a3bf93bc359d217f8ebd7da5612fa0fde43c4ca1b4651836aade5a1b1ca75d25ca02e4049770f2e8bf8f4723cc53e3713fda53ffb420e2c5d49edbc53ee9c221",
        "js\/pdfjs\/web\/locale\/wo\/viewer.properties": "ca76c9191d3748886174d2d33b7b50b5cc2b32d0fb8a01b3829aec8003829a8e6831b050aae42fcb3e4a50307e6708681f54564fb674943257e2994063e1d469",
        "js\/pdfjs\/web\/locale\/xh\/viewer.properties": "8f7767088c6a021c32e03680a20d0f5b19fe04c82a936215e371d5945bc1c3d1baa80567c268d22dbf18a93080c335bfe750ddc49fc7cf677512a4e66aa35e1b",
        "js\/pdfjs\/web\/locale\/zh-CN\/viewer.properties": "52e13d8d1d5dbb840663a65b56e62acc82f51878022acbdab886da1473eb2f8b8e8b1785b89c435a097ff53199f01827bcf0bfb39b1fe02968a8282653ff97da",
        "js\/pdfjs\/web\/locale\/zh-TW\/viewer.properties": "8ec365f967f0ad4b8d406afb1723d1031ca83f99cae46f537a6117de62a2a90a4c5a70d53dd7d676f57232e4c8f010b4a45750a9ca1fa38ca9ac82ee51945b1b",
        "js\/pdfjs\/web\/viewer.css": "545c7075ad4ad3880ac99d8617ac9ddf5b35c586ad472561eee010b007c3b5044ce8251fd7d4b06e77805c70bac904bb93d046de89215d8d42756e50a05bbc90",
        "js\/pdfjs\/web\/viewer.html": "80dd710c1dabe7aad7c9315eb54d595194614d2eb7e6d8d0754315e95f561cebe78d604d8cee35695aea12372a2b92d3809cd7ca2ea79319aff8dbf2c5022809",
        "js\/pdfjs\/web\/viewer.js": "2bbfa64a9a37690c1671d3a658cdfd28f0abfb456fb7c60a8759022ebeac05931bdd99bfb3deb2aebb68e74c43feafc3c660515aad00dadab50480f064c2f171",
        "js\/pdfjs\/web\/viewer.js.map": "d91e749b257564ac3c1186445f4eafe8d44cfdfcc764b6084fee9111b0103e65c67a3e9b679059c3458edfbc876acebf4e136b8fe82c3ba2514fa225010fc8f1",
        "lib\/AppInfo\/Application.php": "32c7fabfcecf3873a55ed372557529b1ba6d3115a66d56c3821702f1c1ab7041ec4c2b2d23937b3ac1746c73db8e7ebdca2f237d9edfc243be7af8d913fae83b",
        "lib\/Controller\/DisplayController.php": "9cec5b2ea66582f1e30a9d8484f8194876405b2f5f0fc38d78ae5d2923483e6b15f6c3f877728dfca5d427669e074aef039740ae816af03b8617f4e7020bcc84",
        "lib\/Listeners\/CSPListener.php": "3c91c005de48626975c59b351b87def724f82313a9eb6ee030875768d55916f97eb40c9f406e90fbeedf58d70504f8f4d476b88c5d69770b27defe9fec5c0229",
        "lib\/Listeners\/LoadViewerListener.php": "f9a3d98c68e7185895f12b1daaee85dd29de2318dac525cecf479437ac3440d7e1c2998491997d0b553aa9279c2cb3ec914d32d0ad4a11c4b92d30e4bc5ab55e",
        "pdfjs-get.js": "553671c348943940f06adafa9418d220e3cb47dec7d3c7059253d8067a5717de8abe60de22b7322e455cfdbba5909309f511d13238c4bbf0131e1bca309615bf",
        "phpunit.xml": "8ef85a8c6850f20f964337b0982da9111af15b5baaff582975eba62fa31428c7ec18ba4da8623332c7b5d55f1a48dca206390c4e473d0e8577126565bbe119a1",
        "templates\/viewer.php": "6430a7fc34547fb3dfd0de7114782c0c23cd776cc35641c1790992fd811f08c756b59bd3526547b77dcfa9f107c2748e7bd648964d412a884d031247c33feb8b"
    },
    "signature": "0ze5lSZQDDyv\/OvsS2RWRnGOYG7ZyabI3pXG7pKQEgj2RloP47LQRXM5otHxDM+89yvsgZ5Ov2CqInqTjt2Blx6GvGecPqxaA5ifagM1K4U4pqA3nteVDfpzSvnv5sr\/GHI6VtkxKTsX1+atwHRK1XRbnPugxdUjGMq9Si5tfCHDJnL1ExSQYPNYari72y\/G\/PsLPut4ETTgdnKanl4pwVsByxOogVHpz5JC36eI0kEtZRhdPRiBeJ2KGZLnVtIBSiFKA6eYVr4AICoF\/MNJ7eGLXByEO7+iYUzsRLB9ybSvYMGpsbyG\/wBowL+M7AtgmJzRo37dy9KskwBhQI2f+g==",
    "certificate": "-----BEGIN CERTIFICATE-----\r\nMIIEojCCA4qgAwIBAgICEAAwDQYJKoZIhvcNAQELBQAwezELMAkGA1UEBhMCREUx\r\nGzAZBgNVBAgMEkJhZGVuLVd1ZXJ0dGVtYmVyZzEXMBUGA1UECgwOTmV4dGNsb3Vk\r\nIEdtYkgxNjA0BgNVBAMMLU5leHRjbG91ZCBDb2RlIFNpZ25pbmcgSW50ZXJtZWRp\r\nYXRlIEF1dGhvcml0eTAeFw0xNjA2MTIyMTA1MDZaFw00MTA2MDYyMTA1MDZaMGYx\r\nCzAJBgNVBAYTAkRFMRswGQYDVQQIDBJCYWRlbi1XdWVydHRlbWJlcmcxEjAQBgNV\r\nBAcMCVN0dXR0Z2FydDEXMBUGA1UECgwOTmV4dGNsb3VkIEdtYkgxDTALBgNVBAMM\r\nBGNvcmUwggEiMA0GCSqGSIb3DQEBAQUAA4IBDwAwggEKAoIBAQDUxcrn2DC892IX\r\n8+dJjZVh9YeHF65n2ha886oeAizOuHBdWBfzqt+GoUYTOjqZF93HZMcwy0P+xyCf\r\nQqak5Ke9dybN06RXUuGP45k9UYBp03qzlUzCDalrkj+Jd30LqcSC1sjRTsfuhc+u\r\nvH1IBuBnf7SMUJUcoEffbmmpAPlEcLHxlUGlGnz0q1e8UFzjbEFj3JucMO4ys35F\r\nqZS4dhvCngQhRW3DaMlQLXEUL9k3kFV+BzlkPzVZEtSmk4HJujFCnZj1vMcjQBg\/\r\nBqq1HCmUB6tulnGcxUzt\/Z\/oSIgnuGyENeke077W3EyryINL7EIyD4Xp7sxLizTM\r\nFCFCjjH1AgMBAAGjggFDMIIBPzAJBgNVHRMEAjAAMBEGCWCGSAGG+EIBAQQEAwIG\r\nQDAzBglghkgBhvhCAQ0EJhYkT3BlblNTTCBHZW5lcmF0ZWQgU2VydmVyIENlcnRp\r\nZmljYXRlMB0GA1UdDgQWBBQwc1H9AL8pRlW2e5SLCfPPqtqc0DCBpQYDVR0jBIGd\r\nMIGagBRt6m6qqTcsPIktFz79Ru7DnnjtdKF+pHwwejELMAkGA1UEBhMCREUxGzAZ\r\nBgNVBAgMEkJhZGVuLVd1ZXJ0dGVtYmVyZzESMBAGA1UEBwwJU3R1dHRnYXJ0MRcw\r\nFQYDVQQKDA5OZXh0Y2xvdWQgR21iSDEhMB8GA1UEAwwYTmV4dGNsb3VkIFJvb3Qg\r\nQXV0aG9yaXR5ggIQADAOBgNVHQ8BAf8EBAMCBaAwEwYDVR0lBAwwCgYIKwYBBQUH\r\nAwEwDQYJKoZIhvcNAQELBQADggEBADZ6+HV\/+0NEH3nahTBFxO6nKyR\/VWigACH0\r\nnaV0ecTcoQwDjKDNNFr+4S1WlHdwITlnNabC7v9rZ\/6QvbkrOTuO9fOR6azp1EwW\r\n2pixWqj0Sb9\/dSIVRpSq+jpBE6JAiX44dSR7zoBxRB8DgVO2Afy0s80xEpr5JAzb\r\nNYuPS7M5UHdAv2dr16fDcDIvn+vk92KpNh1NTeZFjBbRVQ9DXrgkRGW34TK8uSLI\r\nYG6jnfJ6eJgTaO431ywWPXNg1mUMaT\/+QBOgB299QVCKQU+lcZWptQt+RdsJUm46\r\nNY\/nARy4Oi4uOe88SuWITj9KhrFmEvrUlgM8FvoXA1ldrR7KiEg=\r\n-----END CERTIFICATE-----"
}