{
    "hashes": {
        "appinfo\/info.xml": "9c7dad59f88bc1a22e1ee32859dab8e6259835ed6a803f0b0cb48f5a575926cdfb1d074229c8e81cb37dfe38ce3353fa0bd361d8e23cf935ccc20e4a7f083215",
        "appinfo\/routes.php": "9e84d005d5da08b498a85321f732b0dbffdaa5863226665ef3facab9c9dce4f4ff46567be766c063ad8c9e63585eaf4a1f750433e8196b28c6b00cf8de333245",
        "composer\/autoload.php": "5e59fe28667a26582dbc0e312816a53b867b4871d7d1ed83ed181b6282cab56fbbe0cbae64b0731f14949a6c5bd5a4f8f3670cb28506b7f3cb1e559d36827c0d",
        "composer\/composer.json": "66b0e5b361e56a850f438c0d0b748dd57afe1c1117a4a349dd5fe4d83d99c908c10d4fc2eec0e982a4785fdda34a5a03bf2c61f736629ab69233c60cca3de708",
        "composer\/composer\/ClassLoader.php": "2b6fa585122ace1ba816410acbd8372cb75329917aae6363dbad48e396cca581452616e1386a2e445a8fbb0e461b988279103f4f89adf704bce7726f761abf0e",
        "composer\/composer\/LICENSE": "f3bb64009f41a425df5a9bbab53490f0eb9b74fa8d6aaa2f57efb928edc4ffff330260666edeaa04a91fed708c3663371cf01b284f3a08d6698aaef7a23f355a",
        "composer\/composer\/autoload_classmap.php": "56f8fe4d34e3d97a20fff5bf4cbddafe1a4d5a2a12e738a2ea099de0cf11c18f8fd7cc4aa080098328ceb16ba62879aaed3d8e228ab363027eba476cf3d6102d",
        "composer\/composer\/autoload_namespaces.php": "dd8ee31d2faa9014fe567e1f954b5e7f450cf06feacbb96d4df663c59b1a36a0b7d26ad41b46354bd14f282fa7899298137208d1851099cd3ada285650efd90f",
        "composer\/composer\/autoload_psr4.php": "8018dd82d9cc9d4f282c569074fecf9b1c90bec325e7b291ae714b6d05e3c2246fbd2ebc4b027d7044978e2eb5e66b06c13d7c8ff079414ebbfe90866b49e71a",
        "composer\/composer\/autoload_real.php": "b2d4058139cb278e5df0a20914eb0a7da467a48d3d85078f1e20040aefa4072f684c85d43379dc79136826f9767cf791afbc71db819084c69261647bd03acb04",
        "composer\/composer\/autoload_static.php": "1d736cef50e65654f237ce56820eef54003dd96b5e69d756f75fcfcc76928802d3731efcdc09a6190bb467f47d2fff6e889213798a0803848ea24d8607358ae5",
        "img\/app.svg": "2cd521d4e4efd51172602501fb316371141e157364ecf36f73b1ccb8475ef8a72d46194f75116d0c9ea3fdc57f3dbd8841ac9806549c4cbb6c53cddd8a777d9d",
        "js\/files_trashbin.js": "c78a60c911ce57e86fd680c0cedca8b9255d23847bba0f889a0a56db2957952b95c7c2da04a55f0c441367b5fb1b576fc48c304850fc56c9ba11fd836530aaa0",
        "js\/files_trashbin.js.map": "515f36ed779d6e0e47904bb7be8c4034fbe6b613a4477539fb26cb8db00f70fe79799a22d1eeb9ae73247c9f36a48d60d6980d84c1f97150a885ba925ac2c68a",
        "l10n\/af.js": "8ac1eeddd58649b2f88681f51809d73e007c19d87da0dabd268eaf2b8692aab435764c2271e55ef2211e37171ba58afb7646dc79f02e74d188dd2c477adc669f",
        "l10n\/af.json": "eeb7e6af2c6a3c55b3a4910f2cf6a59b506fadc7954890f73937cfba685c68e62eea82bfdaf751d46d8652062970b6f291ed1dfe425b49ea45640426e1757294",
        "l10n\/af_ZA.js": "c4a12f2159815c3b0d383a4cf74509e9bf0dfc1dce1621729198710489095a15f3cff025977a976b7f03de662a8a4875f8e9c1c5ed94d9e50d30d2ac56214fd7",
        "l10n\/af_ZA.json": "792b7c171eb41665f21b08e9061b1b581fea601bf604afbb36848e52d331bbb5ad205274d8f8fc2b4aabfcbe3ab716eea0bbb0b65d6921ab699a9689cafb6528",
        "l10n\/ar.js": "96d8389511870724ea0439a78d31d6124aaf1bf0a08fdcdf7f58dabda6b766f3e899ad126fba77b406a35c8e1fd6a716d2d35d3a549b4d131b4417f46cfc18af",
        "l10n\/ar.json": "f3594430e7ba80e091eeac27b97a3b496622cd2ec9e389bb791eb7d4d714a529329f43959797b83773506ee96c8a7cba0e2f9439be86930ff25519f235544a20",
        "l10n\/ast.js": "fa9906949e6adb8888becbc80d0ea41281bded91ca0840b2eb253d54389d7e4722df54c40c35c0b125a4999fef5b7e2c6c6eec44b8306c06e9aac414a577dcad",
        "l10n\/ast.json": "ab51c8e300c58a4cd93998d41463dabe980981d5be52bb6df4c02790fd9f2b8eda6dd9b322513a4d9a74a3b25c10fedf3ddda960dd071bb752f38e43de63a5a0",
        "l10n\/az.js": "ae9e534057428cb5362ab83a7d72d016ff453ccb1c6f1c87bbbeb67bab1694c7b564fb917f3b9d6c00b20bc3d3385b8ca02730ef2d8abb5e9d54dd6602bc4b46",
        "l10n\/az.json": "8db85c4c07263a6efea812a5c7f2acf5cdaf954f66dd2b3533d0bd02a014ff772320b634531d5b04c1dafa46979e9d479618cb4f8c7707cc2b4c05d4b8b27a6c",
        "l10n\/be.js": "517f25feb8837c658b1636aa8d4c3aed76d1a406b52bcbd821dd3ea6658d343f73e830c7d2deca588fd7cbf25bf5862cf0ba8d017c3f00aae07bb5a9794eb591",
        "l10n\/be.json": "66259ccb62b1d1a29add35fcd06fec8ebab8df3fcbd0e20f7db0b8757795f3c6c180131a340f0f8851a71dad0a5ca5582cc853c5195f42bdac1d940f6fa2295d",
        "l10n\/bg.js": "fc445f6bac9a6396e4090b332f0429aa108b08d2c42c4ff51ec437ccee371f5594a7b42a3955d53c9d55ad649aa279ed18987cbee7bba28735a857fb2f081e32",
        "l10n\/bg.json": "ed5aaf4a37a0c2680c1fab36604920a23f4ccc8d19823ade8ee7137c046a2751412420f6e855e1b67bbb9b4905a28b30ac5f2d7e9ba5df233fec11270387ab8d",
        "l10n\/bg_BG.js": "d6ffb2d65bc27999cba23e3dafacb266e99e2020df0c547ae53c2467118f2f02d8767364ee272354022a355b3e57eea46b418b006e0987093eae6130c5676bb7",
        "l10n\/bg_BG.json": "e7001b480bd0f88837147594d9bce4847c7a882b29ab11d4fde1a3f66558cb76c7966ea40628df76255c30e67e08808023ddd4e59856e58ab294e8b8edbcc92d",
        "l10n\/bn_BD.js": "d49a48ee1a3aa3a9b967ec43ce927bd415c5c559984fb5b2c7ffd4da5bd2c58bd522d42c0fe9bc31276b1ba1f8d8506a53c6d963ed64e089400af7b69f3a2c2a",
        "l10n\/bn_BD.json": "f262b63c8a770be26fe7cc9c28d1cacdcaa7b05f3d34d3697ff9d9effd9cb488f5fbc08fcf2cd7aad1af0df1514f639ba0c61e487add4ab1e7cdb087d4843f10",
        "l10n\/bn_IN.js": "79ffaa2a60c00d2e902f2f34830e1c9d90f2a7ea03a1331515e7edb0f59a094b20e59026041b436bd21d8b3998cddf80e4cbdef1c3fa4286786fc6c1f033b23c",
        "l10n\/bn_IN.json": "bea2091b5e9897f37b6fd7433995d675d3ed0a06f584ce25db14afd098ea77e1d29728f4d257bd640a82f9cd3ddd3c51a2119c5f2d334d248bd1eceef2f330d3",
        "l10n\/br.js": "e2c1c831be5c120893d2350077915bbc97d4c3ac83eb9006a1a80a51dfdf2862579fcabe5df538a40f8ea4a75885682216b95ef69714b064a58927daa5be86b2",
        "l10n\/br.json": "2e64f1399e8d380b5f70ce6e6d83b2a8028daabb5bfb413d607992bfc114e24ed26ff1dd41d240cf40de0e987a04bc23cd99346679737799b8cb69a792df9c03",
        "l10n\/bs.js": "aacc759a682c3207c3a9beb4c6073130db0953967f743080855843a958ed14d5c5c8a0b295244b9017383c26017aa8f583882fc9d3e5d9c75497a098dc6200dd",
        "l10n\/bs.json": "87ffeacc42d666cd5c2465df8cc01800566a699eb1c50dfc3572beea85c7bcea53943206719c386c9085634a361f34b5db8a94a6820bd891c50afebabe0497a3",
        "l10n\/ca.js": "2251436f4cdcdb18e592e813556aad36295742d1b9f61d8a35bf198cb93819c12e5bf0b0e04219f7e90ae8ded11f0a2f787173b6bcfe7320429a1edc700f8a25",
        "l10n\/ca.json": "c6e1f1decc913d01934646c5b1017558dfc9b948cc58c7cf4f269ffd7e609a805bda460f1ebf697d9f6f4b5049527599ad330a74bd9c3455a162d9e16bb2b616",
        "l10n\/cs.js": "aed8ca5607acfeb1dd105711d4b74deb82defc8c025873833332071ceab5de40bd84d2521c00bb4dc5a7c9da850fea1fa3d66d71e52f267e76f33895ecd382c6",
        "l10n\/cs.json": "05324bc4c66dab65585e14eccf08d4c23cb22aedbc59a80aeedfd7f7fc589df22a061d7089a91eda5c2912482f1d8a8a9c33dddaf307da7cd195cc1af6d65604",
        "l10n\/cs_CZ.js": "5f27073301f6b481ada257f7676b758e466172fea55cc827c2273b9f66f4f0816ca91d8bfac5edebe80a414db0edc749fdd45276e53a010ceda09ee6a8d72dc2",
        "l10n\/cs_CZ.json": "b36f0bca545cbd4ccbeaf5886d73481c12c544cfcdeff50838f61e3f9dff2627a9779bf270d53f3dee833e6871dc7a4ab06238f1089d9838cb58da9a3b324bce",
        "l10n\/cy_GB.js": "25958ce3579bbdfc8a7dad5ecdaa1cf20b192481b881e6efd19c16e30ad2d06d2dc9d84f8ffe76cec9cd4e86776fc2b8e252d8d60993cb7a1c54ae162fc53a86",
        "l10n\/cy_GB.json": "7a1a7b96a0668189921cde31c87392d07d6bc4cdc24d46368d6021e3160a2f64cf6f1994ccfaf220474d35a8bffe3028e8aa71de0ee3f111d79fcb08c38cbc56",
        "l10n\/da.js": "249bb9215e131e3ab4e4f8ba3390cb5532886b59cc223a987f09f5988f31229066588e9078c5727ce4c22bc7ae88c04d2e56d565b5b590e8a7ab40e8340ebe36",
        "l10n\/da.json": "fdd4aa617ee6b0774f5ae536593280fc069aef23ebe8ef6df86faf68f90a430812ab384e5295748175c9e86cae0224cd8edd2480346be89bf3557fb5f5197374",
        "l10n\/de.js": "28241b265ea7445d6bdfb6db7217ddd2a0cecd9d1a623adaa713c13ccc4f61b9fc57f583d51e22004119aeea1a4304e45950377f6829bf4370d44742afaa2d89",
        "l10n\/de.json": "ce0517c18ff75ccecca9e68b700ebeb5d99add49dbe4db783ac2a28340b5cd41f765c170ad73fa908369b5d21b47a7d18cc484b242f9edd1225e3b74446aa880",
        "l10n\/de_AT.js": "4e9ab76598de8115dc19b60b3b2be9e03164d18786b451cf23eb1a6eb88cd450b85246eb8c6ef073ca10dfebe61809bf4dca217f4cc9faa4c8b43f229573dcec",
        "l10n\/de_AT.json": "b8e2fd3c6b4ff0f7aaf205638d8f575ab496ad7c7850be3e0b63a27c39327e2268d58b0cb51410957014c3556cb5b671d36e36b454498bd58015527811b4e2d8",
        "l10n\/de_DE.js": "7fda3ebe54789fec9e209d67fad1564a20cebf629db30918ccdfbe2e077240564d88eec984d55817c63b0ca1ed6a6da2621ac20e3a7def2e84119f2fca865930",
        "l10n\/de_DE.json": "2b37bf357fe28de45009fa1b813ea501683a0291e3f23ca26e821dcb57b4f3c9d6b85daa136ed228d5734f3bb5dab94d872cb289f83e84dc708f06b014043346",
        "l10n\/el.js": "3f5c6b286b998ebf0c7662c4ee65e72d2fe0dc5c1d24d1a16231fd94ab3bd8dc8f6078ef409386c3e0b8ebc6e208b48d0c258bcdaa1fd3bd2a4a88e67f88c383",
        "l10n\/el.json": "48a2cfb4aade2430587cc1fafb33b8c322638306bdf8e95667ae1c617922ca92841e0f026734bea2e96a4c9a9e0544f2295b1d1a4a768e0e32f4d8ea2eaaff4c",
        "l10n\/en_GB.js": "ae6eea7d5d9769f9f38b7e0afb89b08c0596b36d088f40f5f823091f911a250ee2c9774be24feae0f75efb353c7ad234c16babd6493185e6df93e7c3d51bb16e",
        "l10n\/en_GB.json": "0f1d21c7f4d0c5eaa18ab0c4b72b2fa2053b54e1b30d33168e9e36e8cef09add0dce7fe060d17862a75c2b1c90b097704dba6b9a3c27e9451ade405604301597",
        "l10n\/eo.js": "da13caf32cffcedc6e49de428e830b3ea0e1b63eed1b3ddf679d494195a5a8cd326c07b4619922407755384c98000b9bc8d82c65c6c08df749cf3bc908f75329",
        "l10n\/eo.json": "895df46c0594808ea9ca07685987da33471e9c83432c738f610f5319ecedc0683d77ae9fd9b0233ea41ca601601a93ad41859b229643b3687fb7e5a5fc3f5dd0",
        "l10n\/es.js": "ef97eb0e4e0e800134a2cea9c4ff0780025bc9707ec4a6300a878eadd84cfbfa35226fc2a9cffa93982dae7bbd159331afdc36c9e4a2bad4136d5177d9e052fd",
        "l10n\/es.json": "d73fa3c2dd44a5fb92dccf47fa3ba867a71f006646fa6b3656b82a89c010165e12d22beeeae2ba955b1657f116dcbc8d4df0cc0f7572d6cac7321b1ba0e3f8ed",
        "l10n\/es_419.js": "2d9e2c09312e9bedaa749e8ae4c432622840443069bfdc894a4f801b813178d33d49820a9e50fe7c12d7b61192afe55660a8826f50a1a63d07c7dd2f55e3093a",
        "l10n\/es_419.json": "26acccb04478980114ea78f6b6ae27348cdd6559e686ab05b9c1f7c808fb565106b31c24368531254baee08799ed45736425d053d3cc29b26589bf083402088a",
        "l10n\/es_AR.js": "2d13fbef176aedfa1bd4381a882112cbe37bee5a5d422269639044f0dc162c6f33de0d1fe0cb8742b0db594e1c5ef14df662a85f13700b5bf297a88bd25aebf0",
        "l10n\/es_AR.json": "2f801580a126d028fb44822089d07b445afe812ca5a16d5d66514ae336696026798a2b3d51b3b6e589e067194ce13c3d6c2cc511b059b6c5bd23b1268e510699",
        "l10n\/es_CL.js": "2d9e2c09312e9bedaa749e8ae4c432622840443069bfdc894a4f801b813178d33d49820a9e50fe7c12d7b61192afe55660a8826f50a1a63d07c7dd2f55e3093a",
        "l10n\/es_CL.json": "26acccb04478980114ea78f6b6ae27348cdd6559e686ab05b9c1f7c808fb565106b31c24368531254baee08799ed45736425d053d3cc29b26589bf083402088a",
        "l10n\/es_CO.js": "2d9e2c09312e9bedaa749e8ae4c432622840443069bfdc894a4f801b813178d33d49820a9e50fe7c12d7b61192afe55660a8826f50a1a63d07c7dd2f55e3093a",
        "l10n\/es_CO.json": "26acccb04478980114ea78f6b6ae27348cdd6559e686ab05b9c1f7c808fb565106b31c24368531254baee08799ed45736425d053d3cc29b26589bf083402088a",
        "l10n\/es_CR.js": "2d9e2c09312e9bedaa749e8ae4c432622840443069bfdc894a4f801b813178d33d49820a9e50fe7c12d7b61192afe55660a8826f50a1a63d07c7dd2f55e3093a",
        "l10n\/es_CR.json": "26acccb04478980114ea78f6b6ae27348cdd6559e686ab05b9c1f7c808fb565106b31c24368531254baee08799ed45736425d053d3cc29b26589bf083402088a",
        "l10n\/es_DO.js": "2d9e2c09312e9bedaa749e8ae4c432622840443069bfdc894a4f801b813178d33d49820a9e50fe7c12d7b61192afe55660a8826f50a1a63d07c7dd2f55e3093a",
        "l10n\/es_DO.json": "26acccb04478980114ea78f6b6ae27348cdd6559e686ab05b9c1f7c808fb565106b31c24368531254baee08799ed45736425d053d3cc29b26589bf083402088a",
        "l10n\/es_EC.js": "2d9e2c09312e9bedaa749e8ae4c432622840443069bfdc894a4f801b813178d33d49820a9e50fe7c12d7b61192afe55660a8826f50a1a63d07c7dd2f55e3093a",
        "l10n\/es_EC.json": "26acccb04478980114ea78f6b6ae27348cdd6559e686ab05b9c1f7c808fb565106b31c24368531254baee08799ed45736425d053d3cc29b26589bf083402088a",
        "l10n\/es_GT.js": "2d9e2c09312e9bedaa749e8ae4c432622840443069bfdc894a4f801b813178d33d49820a9e50fe7c12d7b61192afe55660a8826f50a1a63d07c7dd2f55e3093a",
        "l10n\/es_GT.json": "26acccb04478980114ea78f6b6ae27348cdd6559e686ab05b9c1f7c808fb565106b31c24368531254baee08799ed45736425d053d3cc29b26589bf083402088a",
        "l10n\/es_HN.js": "2d9e2c09312e9bedaa749e8ae4c432622840443069bfdc894a4f801b813178d33d49820a9e50fe7c12d7b61192afe55660a8826f50a1a63d07c7dd2f55e3093a",
        "l10n\/es_HN.json": "26acccb04478980114ea78f6b6ae27348cdd6559e686ab05b9c1f7c808fb565106b31c24368531254baee08799ed45736425d053d3cc29b26589bf083402088a",
        "l10n\/es_MX.js": "62a7ed096cbd7907f9e91ee5ea16824ed097eaac8370aa3b40cd07792e04cc898a5ce7581da6df4ff83e70228735354490d2d425d65548542c0c1960f15f5415",
        "l10n\/es_MX.json": "d996d715ed282b0233de158bc32bf50df6bd206106efec212e0f7014670fc5ca4f4804513c22a4ed0265c52ff7a05d9606d990699b3724ee430d4af9ac147a11",
        "l10n\/es_NI.js": "2d9e2c09312e9bedaa749e8ae4c432622840443069bfdc894a4f801b813178d33d49820a9e50fe7c12d7b61192afe55660a8826f50a1a63d07c7dd2f55e3093a",
        "l10n\/es_NI.json": "26acccb04478980114ea78f6b6ae27348cdd6559e686ab05b9c1f7c808fb565106b31c24368531254baee08799ed45736425d053d3cc29b26589bf083402088a",
        "l10n\/es_PA.js": "2d9e2c09312e9bedaa749e8ae4c432622840443069bfdc894a4f801b813178d33d49820a9e50fe7c12d7b61192afe55660a8826f50a1a63d07c7dd2f55e3093a",
        "l10n\/es_PA.json": "26acccb04478980114ea78f6b6ae27348cdd6559e686ab05b9c1f7c808fb565106b31c24368531254baee08799ed45736425d053d3cc29b26589bf083402088a",
        "l10n\/es_PE.js": "2d9e2c09312e9bedaa749e8ae4c432622840443069bfdc894a4f801b813178d33d49820a9e50fe7c12d7b61192afe55660a8826f50a1a63d07c7dd2f55e3093a",
        "l10n\/es_PE.json": "26acccb04478980114ea78f6b6ae27348cdd6559e686ab05b9c1f7c808fb565106b31c24368531254baee08799ed45736425d053d3cc29b26589bf083402088a",
        "l10n\/es_PR.js": "2d9e2c09312e9bedaa749e8ae4c432622840443069bfdc894a4f801b813178d33d49820a9e50fe7c12d7b61192afe55660a8826f50a1a63d07c7dd2f55e3093a",
        "l10n\/es_PR.json": "26acccb04478980114ea78f6b6ae27348cdd6559e686ab05b9c1f7c808fb565106b31c24368531254baee08799ed45736425d053d3cc29b26589bf083402088a",
        "l10n\/es_PY.js": "2d9e2c09312e9bedaa749e8ae4c432622840443069bfdc894a4f801b813178d33d49820a9e50fe7c12d7b61192afe55660a8826f50a1a63d07c7dd2f55e3093a",
        "l10n\/es_PY.json": "26acccb04478980114ea78f6b6ae27348cdd6559e686ab05b9c1f7c808fb565106b31c24368531254baee08799ed45736425d053d3cc29b26589bf083402088a",
        "l10n\/es_SV.js": "2d9e2c09312e9bedaa749e8ae4c432622840443069bfdc894a4f801b813178d33d49820a9e50fe7c12d7b61192afe55660a8826f50a1a63d07c7dd2f55e3093a",
        "l10n\/es_SV.json": "26acccb04478980114ea78f6b6ae27348cdd6559e686ab05b9c1f7c808fb565106b31c24368531254baee08799ed45736425d053d3cc29b26589bf083402088a",
        "l10n\/es_UY.js": "2d9e2c09312e9bedaa749e8ae4c432622840443069bfdc894a4f801b813178d33d49820a9e50fe7c12d7b61192afe55660a8826f50a1a63d07c7dd2f55e3093a",
        "l10n\/es_UY.json": "26acccb04478980114ea78f6b6ae27348cdd6559e686ab05b9c1f7c808fb565106b31c24368531254baee08799ed45736425d053d3cc29b26589bf083402088a",
        "l10n\/et_EE.js": "150a64f1b6d475d8d1cd5982f672378b529e9819ae9a640a3fff9b5cc6dd554a18c56cb372d28bb78bf6b0173a16323fd41cbc4df98d68f96e4844a5d351aa44",
        "l10n\/et_EE.json": "6475135083dba719ce4bca8b03a0489d6498239ac10ca55cad121d6760d2c77e453f1c957d14b3e6741578f005f79a5bc2a00156ad6a25d4f00d444264768eba",
        "l10n\/eu.js": "c64db8def87ecb1672ded7b9d193b5ea56b77f365caa2d2629d3f43b310b5341d2c4229ca39a588b3739146be4dd4354f4a534c770ff21158942b701c8b6c8ca",
        "l10n\/eu.json": "9a2fd84769f7fc6628a5a7c0f3343a44daf755bf8ca9cd66cee0d72bff5610565ad60858b046ae0e9ab16e8818ce49fd8b54bba4570b9be7cf6f6f818f1e635e",
        "l10n\/fa.js": "33f2c0dc775021814383f310b2ab401a80402aa78b94676d0b4f9e430dc527dc1207dbf0e6b43e50f52ffb2428584f4b2166a462e1008a78028bdc7e38e19644",
        "l10n\/fa.json": "2397b1652edc6252fa1586164bfc22a7f540b08d8e8123da4a9cafb9b3d2c209fc33e4c3d4b8599a27ff6a0d1b7d7686167386d1a9126001b2395afab8ede0df",
        "l10n\/fi.js": "b2173c69c78cdbf63aa1f8c4bf22f66b943301c8062cc28229ecccca659391dd507216cd7622aeb19e5f40e8f6dc73d89a950610e7a675df3a0efdb3c63ce3fb",
        "l10n\/fi.json": "0d0ae0388d701e30bc78299f2596309c459e927a3d79ea5313512f9f2dfc453ae773f7acb6463f38a3a8282113212aebf6413a67f5ea7a3d1a19967cf98e9cde",
        "l10n\/fi_FI.js": "5e63df6a42d4e93758ed14b2c46d30e10137a9e2824bb201508f490665c4b341e837df9d849e7ec880f69e7a7f50bb7957df58f185979e6bdce193ce2d2dd4c5",
        "l10n\/fi_FI.json": "461c4e6150380b7c2fa179f3e73a6612a7f822c7487f24b34d202f82c2105cf22e0d9f76fdec875ce83bf516c350545ee46d846b12fd0b25de007bef544916cb",
        "l10n\/fil.js": "6a6596741ccd788d73ef66f197fc07884fa37d25036f523a22d150ce20cfd42e190df389449752b6efdf9f330d79fad7f4642a7f6be563c33ae4e1500af30172",
        "l10n\/fil.json": "ed304fb1fa28e2d28a01f022cad834ef596da11a4aeaaca0ca906f525c840c01100db58fc55b35748337b0e72b901ea5174cac15344b6ccd9cd00a0eaaede7d2",
        "l10n\/fr.js": "a04cbdc2edaa42bff83a29c784dcaecaefa1032d55d1644916b56893e7a010b8964ef57c88061409c84bf6dcbdf89f8767d1cebf1ad0452ac83004290d64b674",
        "l10n\/fr.json": "b4644feb50155a9c51077f96a79d89cb6b61c729655dd68e1aca9bfdd087ff3393c29209df343a982f157c11cc2ad5583c4134c67a910d2fc8d6d03f7f00ca6d",
        "l10n\/gl.js": "0395afb8c0ea13578a393a9c82773acd9796f9a8dea0709b72095631b9d9956feba20e1d5a2e92af4135074e66d2e38b846f321e8f289e9cc6a68293dd3561e0",
        "l10n\/gl.json": "b8e10e193f69322a11b11140ad7aad41a455fc69d87dfd6cce52a72138236f74bc4591b4111085cafc793470ae3de68e6aed1e555cac96a02db32f7ff32ffc9a",
        "l10n\/he.js": "ee8bb8b76aca0067cd86ead10d3a1ec6d2063aebc1d040514b5af99fcf74d9657544e0db5d8b91b23ebba8ef298499e37554da3435209f3d76631b82857d5f88",
        "l10n\/he.json": "01ddd48a14797c1be9ac63837c911b552f7c2b608a6e1c2c74658fc627587d9c47b445e9ca5a9b9d0ca49a3abaa43cfbc33509ca263d8d27632d9baee462af1b",
        "l10n\/hi.js": "bdfc3b7d99ded0dbdf743fc1bb058149cb968c610d8d243b3ccc23dd5b563c008d3e5285970813d250a7f9a24da75f13b3d764b505c7b0d999108fde0f125404",
        "l10n\/hi.json": "009ef9f99f07a60611c85b278bc64cb8c76011b0c6e4c51208d90796428a8f7d64085a0ae6b8f1a60bb409a7c59f634861c00bf4c9f12b3c64ed861aded5ab07",
        "l10n\/hr.js": "c0caf14c73bf482a1c59e641de6811835bfa3bf84b2b46cf1578bd140d22d09f5017d441152bbaabb1180992baa66ed0ce3c3d83a3f3996f657f9e3db16350eb",
        "l10n\/hr.json": "8d6a476b45f3f5ef1b5abec3880bf9d77a8a641e31de9fa5b4f833498497416d5323d8cbf6cde58ae32a85d540e4149cbd0fa1d95333d9de22ea6927b875fe38",
        "l10n\/hu.js": "5f51aa8da6b5fe92674cd919ab4a3eee0bf5ea3ce9c3002ee971440a66f370a6e5c6fc192b3b0fc43727c91178d272f7206da2bb48293a69c37ff665dc12a650",
        "l10n\/hu.json": "5f8a2c7447257b072ea724e168ec092ffae5438e71e8dee8b3c443e89a59a323c27496c2e5c03a3f5b2a341990cb94520b223bb6de1c21eb727f983b58a6c5fb",
        "l10n\/hu_HU.js": "4f0dac1595148405185cf54a8f8f335a22a7c7a4f25a6083c96bcd1aa0e9a0f8428b89d361dde23faa34b50147e7996a12e9cb69c2ba3739e0d7f33abc94d67b",
        "l10n\/hu_HU.json": "667a3886e9f249aa83101f3eb0938dff2fcafdac5b24392c3b53c02001646d79a729db552a4cc5e4e8afe5e7c49f069443c4e0aae895d4fcfee0074cd821947e",
        "l10n\/hy.js": "4284e3b2d2bef37f773808e74e7c85cb187ea75af81229b98cd5e9dc55c82367cb76321fd7f3849c794749d6b4b589a2ac593a5775db9edca8eace3b9a9539e9",
        "l10n\/hy.json": "5f9ceee5901b1f2eaf3c6a9df8c20efb22893bb50da687e6563fdd72254dab03a93adfa7f293f7e787a123464002a9a8aa0f7783ede04292ae49de69aa071e7a",
        "l10n\/ia.js": "f8305a42cdb34c08565646500d9e69b76c60c2267eadcbfc91111c8d475d10b76655080dd5cd54193f6664d44f844c857650ef702ef9dd02a0e4f56ce878034d",
        "l10n\/ia.json": "18d03ec7ba9c16906cac25e8fde096a1b2611258d011d39a769f8acd35a2267d34f34ffeb761fe80202f1d1820609cc4c7ad9b38e3dcb4254d546767567ad82a",
        "l10n\/id.js": "d1a4a3a074bf2a856d988f27bc444a831372ffb7e1da5572bc756b66e1736ad1b562ab5160990850daa46d61b57955aa6b2da5aa60325b3e83ea9214bb95dc0c",
        "l10n\/id.json": "b2c3de2e49520fdb1ce577db3ec17e2fc3b74b0a3bc835a7454d508c4702cd6b490f000fedb7cad09ac0b94ebc9f8e59e57e83d5acfaef15fc7e72bb9864877b",
        "l10n\/is.js": "ef2a1b957fbeabc33afc2335cd1be3eb72aa344ecb8c6d0f09042e54e983577d6a2fb5fa2d507d561c9fe46c9485b9f3e4e5069d3f53f89b791a0b91447b6945",
        "l10n\/is.json": "c53c60441100c7f4aa58685cdf564f0628f929159da2bf455fe21f59e2f945e48b3278575386e0bded1a069eabb0fbe68414bea43c54eda061e888852831c32c",
        "l10n\/it.js": "758c46fb1f1a47bb22efb5b5d822581b6535351d4df52c28a7755f87a8b417ea57c6b199241a21ef725247f0eff00f9035523ecaf2a2231db96f26b6cf06e5ad",
        "l10n\/it.json": "eaa0120b00e08b24c4fd735081020d71cd16559824ac9375abac3d55f34f87991551e83b060313199538c6e767af637549520f247def560f65c513889c0b6d3b",
        "l10n\/ja.js": "a4064385b0529b7a320a52934a19dc09802c8b1aed3806280d850374a1e5916b0bd5602fd8d8d850eef86db707b44b983a293cc47147e759082772017151c06a",
        "l10n\/ja.json": "db9bc693ac0cf9b84914def137e7be81009ab7c4110dd99a5241b491c9a4752054f33fe28ad317ad81b23ef29ebd70c4f740551e3c3082a4b92198755803c2eb",
        "l10n\/ka_GE.js": "47e063284a8f6cf3ef786dddb6dea7d1a90435f306b8b23c69cda234f6091f6c9216edb0e56d36d4d2dee030bcaa30032c8667580a84e4e60bf25ace612f82cf",
        "l10n\/ka_GE.json": "d6db6c19b1ac9289821168c5a50edc3a7dd406761223c3eb0c0e0bdd0326e481164367b9e981aaffd515fa012094d8334780cf5d03ee030421d42e28c64f8153",
        "l10n\/km.js": "f5b2e22b35e5e0d06443229142abdc9df3ab81f1c4f14b367bb30d0ef77b8eb7eef48cac15b181f5d7c4b2795eb12d8630e5e48a18803e48afa4a4fa72a25c03",
        "l10n\/km.json": "97c3d6a38207467b5ef687ba4ed752c33dfe5d57f5a12d68624b8d0a94cc7312739fae30812cf27a321f054501e84bd3d9e7b3042a1c97a97534241379f8a55b",
        "l10n\/kn.js": "37968f3a1b832539c5b9a29c63a4221bc006fa3e1792dff5b9688b1494cf3b265d7e053aad024ff1824b64f77726f337972a3d00212d9e30237e96c95532f342",
        "l10n\/kn.json": "c4b4a8d51c601c92a28f8104b2ec5bc382c54408a85d48282eb4608fcb95d0ba73a31023c59339c29ae3af909a4f4eba41fd6db4c266d25ff834ef95ded33b8a",
        "l10n\/ko.js": "31124adacf818626377ff91e26a703bb2ebf9051775d9c2b87391aa9187bc052270400d0b8ffbe8823231f0e8289bb67239a940f639892d63709c966052f7d00",
        "l10n\/ko.json": "82b8e154ac619cc7feae54dbf78f526c2354e5ade9d1a85621774b020482c068067e600573cce8c0dc530895f75e819cef936138a66703813b5d6b186b087eb5",
        "l10n\/ku_IQ.js": "30e0ad0b10cd9f8ee20c744d6388ec87e90cb0e7234d70780aec1bcd6b0cbb553340a1bffb5de1d1a6db45ea9608a3e8f9a925d442321ef16339c6619f85022f",
        "l10n\/ku_IQ.json": "66f74edbb4ff05f63cd9c8f19930ab237409c246cfd4fc9f8d953da372a0339a25afd21e66e3f0574bc25d68b103e0a4afa5255e0f518495627463eb7c4e79f8",
        "l10n\/lb.js": "6e91cca031ced3303674f3a8922a52e7c0ddaf9484b07a7870cd8a369816dc22c51b072ea1f0ed7512b29c4d21b44f803ad72485c361fd1a23d113e863fd4529",
        "l10n\/lb.json": "ebe07a9edb6697f16c8997b60ecd8e57d251ad04166e4eebfa41e0e20eedaba5536aa0eb72cca23a8e32a718fc7cbcbd56e330480acca102e17abaf2354fae6c",
        "l10n\/lt_LT.js": "c93dd325bdcf923187d7701c4f864c6c18bddf18e8135f8c445d21762a8aef19e371869597c61fcdc4d8b8b741e5451a684cf69aab7c61f295bc12b183105998",
        "l10n\/lt_LT.json": "3325504b00e11b41242cf285591ba2aec485de1825ab2775b25c7ebbe998d6d3d7fbd379bc500d90a6019454807277655c00c297441cba65f3a79a9ddfe91ea2",
        "l10n\/lv.js": "0ea8740c2c1b8ff3c1dc363ccbcabc8d4f788220b9a056e32a6fc2d9252da732914cbbab86e7ba32a9258a0706d00ca45600417d1d5b853fbfb035976a2ff18b",
        "l10n\/lv.json": "84dd7d7653f8bf1f848425c0624f42ed55437d525d99bdadae49b10f08ad6959ef4462220bbb59cb83d815414dac5e880cb1b5a8e59069f67f45c1bf662d1d10",
        "l10n\/mk.js": "d2a5024fe466162feb0df23bf40a337a1079d4b42db3b83785e4bd3432e3c07ee031be9a49dd6b379b896cdf7ca3d95aff76f38c8400f05d783e916f102d3890",
        "l10n\/mk.json": "1d636587f3ec5980ff489ec2e15c2a40da930e3aadcf81abaf6026713887e4e5e6c5ff096f4f5cfe85b17bb278cbc8ae4f0a5691db5b955f3feaf773f66cd26b",
        "l10n\/mn.js": "52224a19583b055b53ac8f5958d5ce9476a43f847acdcb311d0300a9a44f69fd32048168f3b1987539dde382be632ebd44394dfe63d9657653c61faf62d9b1d6",
        "l10n\/mn.json": "3ba3b5ff844d5844946563b617c14abb78eabec07f956e26b2a2f9b39b6353655b7470e59ea62d45f7ff4719fde0aaa918333a0b228089d6ba9adda09b347aa8",
        "l10n\/ms_MY.js": "2a8565ae5c19999303fe565f634689e57f0f44229eef591ece1c13bb72ef99b5b506bb03353e48f8d7bd1bd4908408826a7ecca934556f1caa74ef6887d9a8e0",
        "l10n\/ms_MY.json": "4cf791b1723d52eebab485b73f01d6b27f35cb4105d91f4bdb534c0c1d0ef1e5079a66dcdc09d2429d52ebbb9ea30cb41db20d53401d8f79c178fffecab69c8a",
        "l10n\/nb.js": "6d2d07b7002cc36431b97cc57c5648509e3aec08ed68e9dbaf3fa6d293ecba3a69b9c6fa3a1b2ce4cee9f53ef922142568ddf72dc1b2931c1b28a7047037d2ef",
        "l10n\/nb.json": "739c1c43cb5dd4e19c6bb0f1dddc08c08c4219dd2347c3f93ec37616e21e2d539d647839296609f300ed7f74d1760c3a966c501a3f662aee766d4dc7c0df5e40",
        "l10n\/nb_NO.js": "238efd2a05a92635060578db18e1a0f340d961b37284c0afbe7bbf843ccb1d48a1c637c4afe8a51fce9d1a5ea128ec944373cea6fc8041c3bb3d66a2d4558c64",
        "l10n\/nb_NO.json": "3a492c904886a63055797c0308f7bceebcc51420d3586cb769f27becfc5d1696df863e527b66a54fe9ca40d877129d9bafa28f27a59f6fec4d83fa4115519e83",
        "l10n\/nds.js": "4e9ab76598de8115dc19b60b3b2be9e03164d18786b451cf23eb1a6eb88cd450b85246eb8c6ef073ca10dfebe61809bf4dca217f4cc9faa4c8b43f229573dcec",
        "l10n\/nds.json": "b8e2fd3c6b4ff0f7aaf205638d8f575ab496ad7c7850be3e0b63a27c39327e2268d58b0cb51410957014c3556cb5b671d36e36b454498bd58015527811b4e2d8",
        "l10n\/nl.js": "03408adfaa0e49cb4f49a63728248971c1af5624c78fdb329929bc751b4dad94290ae61ac48dc3169ff858c2c66fe20fe02fe82be8e2909a0a985b66448ed90e",
        "l10n\/nl.json": "13f9896374aa14cd2ccce3ffff3d09d4c39bc5bed2cdc211d54d92f3f5045436b950009d757e2c272958bd79b33e838efc3338bf6811c7620fab13822a20ee34",
        "l10n\/nn_NO.js": "50b48ce379e6289bc5773befa1142c8560a0f4dc535214753caedb9a70f635dc21e1eae1f31095891a51574f45733d89528ddfd0ec1e58ba658e13424388e09b",
        "l10n\/nn_NO.json": "32ef60f8b26dd473ab6e2c71fb74ac7b210a4b4433237963763d3d31896d9fd1872fab7218c6b36b23dc7e3be1cfe3c05755cb20168d7a1c3351060562a73b11",
        "l10n\/oc.js": "5bcf49a8170df455b48a428a6fa92484918b1892ed53b25acf5f3a0c3ccdb1167378e756edaed875c4d27dca8dfe52820b3612715bc9c4136e583b84521e0f0b",
        "l10n\/oc.json": "4dd08b08c988eedfd40d92f880031db222cd504daa9226d2172f73af4219a6a4c0393087c12b637474b0b0f6ac2c0fe0a24adc5b68e7ea3d342c52aeab3962e4",
        "l10n\/pa.js": "d0a693c28a3e458065a90ee22b9a69f43ce7e40fa4fcdf3ed2a5d77ab385a3e22e7c675734a4dcbade9cde8e7637593ebca94d72175d4643cd305b15280ec47e",
        "l10n\/pa.json": "47266f6b4903b10175d03ac1b41d9fa11c44694aa985859cc47dfd8966fd0f24af4fe88b43666d87e6a6068b032a4e4896679877054c1b684093e475e5edd5a2",
        "l10n\/pl.js": "34d747ce598d3c3a41b2b9c7743281588764b0f7678bb7681266fb56ab3b7f21bff9edee463740b35894d4a796d9b57ebac5a5bc6c6ed70bdf5c37c941500b2d",
        "l10n\/pl.json": "e97cc44566f1e9b399257c3ae6129456623b3ae80598cc36352875e3cf3258593ec9838afb26c882e475704f58d743d9ebc66ca6395cba9a1d2b96af12616153",
        "l10n\/pt_BR.js": "293f8ac972b552281c5ed95092d2f8201d3f3ed6be064e5861be87c3ee647f8d0379cb32350cf8b0ea3f1d1c6c4fb8ce9a65d854bf3c3332ca6429677e965dcc",
        "l10n\/pt_BR.json": "45105376e0cfe33e322f329399f2061d132f1c6f1138fef45ddd6e1c2dad5e88eceaafb20d82d5efd9fd97ef521b49a01a00df210eecb63671efb143a3b70450",
        "l10n\/pt_PT.js": "e7aa2cbc53a93c8d6d11c6d84d8894b62c6be15eafda492c87f49099576a7686cb28b8e605dd162166fb7396ae3615fb5f98d84361b830274d012dc5ea889bc6",
        "l10n\/pt_PT.json": "8abecb7ddc4d97b4309c7d8ba91ccd6cf7b65ac0251f05551e599d08af9a829c8627c65e44f9c5aee45c9a82607f95f758d22e674dcde94a1cfd08664bd26e54",
        "l10n\/ro.js": "85935883903ab91f0a5e7de19114174f91bf503cba4c0d5080bca8fa215847541573ac96899becc1e6a1cb8ecc853a5ca37eee8105d69ceba020bb4ab45e1177",
        "l10n\/ro.json": "880f3319261ff81754582a236d4127649b5f01862e11771af34e1adbbe04dc1269e4532478c7392f1acd862695f45a8b7850213f08fc5bcd70052ff993ccf9ac",
        "l10n\/ru.js": "232463dab2379b0b10e095ac365b127fca076e82ff9973f59bd8219969cbec1e33e510dd43267320c62859c395f3c9b2ec7fbba188b01bb58a95399d86da572d",
        "l10n\/ru.json": "71ad1e2b62ddfdaa9d67cc397f7088b9740a19c2df2b5616d02296c42222ca7b39295dee4a24848db9df4ca61dced26f8ebc43e3e6de1625ec40ab2a882d3f44",
        "l10n\/si_LK.js": "7d6cf35f1f9a36f5f8f21a1f010d6c834015f9ddafa93b1d99ff5bd36993192a2f974d7f2831925c4bc90796917eb482c95bd084d6e5a8b53024247c4c4bd8a8",
        "l10n\/si_LK.json": "8eb8215011d6b71218c9ca89398fd518dba60abd41eb0808ebd0f1191ca66d4226b71a366a65099c25ff75a325ae68e829b97392815e4381be2c10ea6330f092",
        "l10n\/sk.js": "5b2b5784e860675ba1fa69c6989a4f9c2233a9fd9a91f98efd66861a9912a15147901e482b87ab6474aac8c7d7e55053be77206249d7b8257648968e0ef25351",
        "l10n\/sk.json": "046eb08ce47a0eccb07dc521ba0c6ab39acec10e9759a8db2c7128b733326b934933a3c6eb986cf0a25278da31a17b5e55ff3dc69e9ccac0a70409d53d991349",
        "l10n\/sk_SK.js": "72ab1a8c2e3ea142562114b8ccd79f872b0a56c73384f2755198e39ed2c82cd24c201f4e993ba44b0d8228065585dbf0ae10444e9e4fd9d5d0e572d789355307",
        "l10n\/sk_SK.json": "14820b3d3db0dd14dd5d78df95a06cf43af6b4e7b8abf74f96ae1b160aab710c92c8ae0bd4819bf172d242e0a10792473e662f66323c54f7687f33724a857a15",
        "l10n\/sl.js": "32a3668946f70ca7258d2e983ac92a90cb61035bb0760ff37071fded0116a592fd268dfcbbce2e0709c4301a1bc3a3e8b2d97f7d1d3a7296ab1a39476f7b6761",
        "l10n\/sl.json": "fc92b38acb44e83a6ed7450bf9ee13128db74394056e7a68e610a2381975b4473c1a5a82b0361dab5d65f98bc57f56ecfc72edaadd0f7efe05a22b2d78f74f94",
        "l10n\/sq.js": "987a50b9e6c03fd330008ab055209ecf3ec3e926c91a93990f4a3744f313bf6efba5accd3f270c07279e97e231f0a5cf3ba9ff8bc27313abfc3633919901123c",
        "l10n\/sq.json": "53e6253df1c8fba3dc0942a984732c8c9c057aa9e170112637d0da5b3998bfdd77543ae4909c2def2f6a9311338a210ba4cf9b9dae49b881908b5fc8bc414a8d",
        "l10n\/sr.js": "8c751292596536f0cee73a8e70d947e77db188c4311bc3e4cb0dc80a3efdff186196d5c71ccf0d0eeb1dd6900c24f476f1b9e1c50b40d3b1d5eae73ea45948d8",
        "l10n\/sr.json": "4b9df746cc0079db7faf9057110d85b8f49ce1ddb7c01f4e8289192819a3df6e0cacb44afc7907fbe5aaeaa63a2893c881d26a723596c12295850ccf9eee487c",
        "l10n\/sr@latin.js": "e0a846572632dd83192289434dae92f4e22a4eeaca71aeef8bc697e47934f185af541f2d0a76cd12ac7b38d3bb106ef738803f00e706905286a4d903cc1271df",
        "l10n\/sr@latin.json": "ecc8c977e19630fa1af20b45c366f6b1662e51c981b05fb46546f207f1e3fe2e0b8509b126f30bb5f09e58d45739322dbb304e1c0b9353f75a4e49b5a7a32f72",
        "l10n\/sv.js": "763e5e0fd2eccf585911ff24e6bf945c321c89188b61eae012fc87b99ce6a0ff6b567873605798bd662f66398a1cf0c06985f926d43e5ffde949db50a6e78772",
        "l10n\/sv.json": "77bd651d7bf161755c281c84b268553e4a284aca2e61c8f89948e6f7766b3fc9ee151077ca08e8fd0d95f9cb9054a2735cdb3de1d95b5b5b940c0faf2607d81c",
        "l10n\/ta_LK.js": "53f1b4e43e95afd4b6b6284c208bd2d57abe315dff2171ef0d26514cbd18543f9929efb4733d726529447007419cc7b7f10e36b03ae36ee91358ea974e548812",
        "l10n\/ta_LK.json": "504cb07e4d2e763d476c2be70c49bea859377414cc9042188dbb4fbff88de6a74744e659ff6177ec7f71cd17a3b5675edbfb45acee19044157ffed8df6036b9a",
        "l10n\/te.js": "b2d1fad1d6691cdf2a44db60d17e992c1e23690d646f958e05d4f3a27b5ca5e81129a529e49422d396a7f4aa406d8eac7f5a0e0f8748567c7aa1c35ea7ca7e10",
        "l10n\/te.json": "59b0f595ae73291851e92921acda18a30ca3b24d479abb29d3dad7b3d44705df2073d056f4855702e67cba9b85aa0adb3901f610f3230e8fa5d7a366b50f5a3a",
        "l10n\/th.js": "56591ef4bb59322d8c0e37065543b82f502accbccaac71704e4f94e704493f9ee8098ecfd59fa78e057581f387dbc00a76d46592d4f1e3f778fd4c94ac2219ac",
        "l10n\/th.json": "692bce1c0da9aa103e3c740be0589cf887b4562cd52dd98a8bb87f6225fae3ad669dac98aab8fc2233829af16d4bbf094c423031a12fadf75722c9588e4a9ea0",
        "l10n\/th_TH.js": "83f24ef7ea54f6e055afe179bfb5fff04e2bdc93361e6762a24fc11f7777a1a4b8af0cffe5977210476f2f4bfa19846ebabbb7c9a9eadfd0f8d8676629b259a4",
        "l10n\/th_TH.json": "4044d51436051618fed7802d2c2da800a3d558b24df6d71ee4510ecbfd58a03f7b32c558758c885670003a332dd334ac27e16daac364f0ecc5e7bd94f97dcef1",
        "l10n\/tr.js": "39f74f1ed1ddf497e973150126548464d4c34724ae614391450fb2c1fccfb68292cee5f5b81572f393a0a07c6a631ccecea2501e86f023aad1225b55daa98226",
        "l10n\/tr.json": "c1dc8c716d3f917bd1326a82a0ab63a1a6813039ff6b3d14661b0ebae728ec4d8f23509b082dbad2518d662062b6ccfd10240269dcd8fba0e83e3e116e58284e",
        "l10n\/ug.js": "885fb0ee7a428f2d6855fafa344eea2aa4776b6671fba5f2ceb7a5dafe03f10f32ff138a8d3faa5e1235b0a202adbf7d68140fe3392fe523c3b28a60c9e06694",
        "l10n\/ug.json": "7182cae657a04db104e1a344b17215c71e8be6480b5cd9fea6f56a37cd23bc664e8a108e5740ce1b284fc16d65e9dd61a1e0a726cc7044cc53b1351c7cf61b02",
        "l10n\/uk.js": "9c96bffca14654737d5c8d9e1417fa5538a1a1cf1576c79333d6cc73501914677bcab1b52bcf36eb3c093e0180823a7abc2f48a757d2884e6db600b81cdfbeb4",
        "l10n\/uk.json": "9aab2e99648391bd52f45724a911f7d65b018b396f2449114d95f2f46d525a94be292d353f7bd0c28060d268ca645f4b70f6ed96f5bfef680079a5e3ebe4c682",
        "l10n\/ur_PK.js": "927ce33ab0268b3f1a52d6f189080858b2bb5e75432c148bc7c3de00c5e051f92c7e1e573640a2e40790d745886db2cacfe869fb77b29d6dd7326132774282e5",
        "l10n\/ur_PK.json": "10635302cf0e2f4c8ce27f35b5263c01c3ad7b3a8e2c7dc7fd02fa30620fe579b03dab3d074ce6280463e568859e7406a471203c47d716b10927fefe4bcf7166",
        "l10n\/vi.js": "fdef32b16a453c61d13be40090220b31b99b9e06e6d71a9bd58e1c42efd689b562bd06412c312cf44d09da5ada5da54920dbb6b9955eeb1515827efc3321fd39",
        "l10n\/vi.json": "cf23b2e1d6c89355226c75fe20e49bbdfcc0081b84fce4569950aea2e7f2e4e8ae7c6c1b86ffa87859c60c1293818e1700ab43a62ec87e8213e9900d6dda7131",
        "l10n\/zh_CN.js": "d74a0134e30c72b388baa7bdd286054a12ea5abf6961e2afac4da79d5a1830c165ba28b3f32c4724250220f2bda88db8b641fa3f8e5a2988ce025759eb7595d6",
        "l10n\/zh_CN.json": "4841c1211a4c4da6bf86a1ec97994d647752de61c84d409a4ee9bab4f5b8fbb7fc6f63486d914fd1bda6d8e12f9280cfd946289e99d88410614bb055917293c2",
        "l10n\/zh_HK.js": "e36489044b4d02e389ce4df778c3a10e671d7823749964c97071820365366ca8711fa68654c2e7c9cb2a9ffc498eef1c5e9d48eebd67215f39548d8dfd921cf4",
        "l10n\/zh_HK.json": "15e18899ec66b77aeca9eae5c2b4a2554ae58b7c8fac4e30e9f00dbbdffaa051ccbe6ecd3022c902a00750cec20389b12503792096f4ecd4b838d69b11dccf35",
        "l10n\/zh_TW.js": "e36489044b4d02e389ce4df778c3a10e671d7823749964c97071820365366ca8711fa68654c2e7c9cb2a9ffc498eef1c5e9d48eebd67215f39548d8dfd921cf4",
        "l10n\/zh_TW.json": "15e18899ec66b77aeca9eae5c2b4a2554ae58b7c8fac4e30e9f00dbbdffaa051ccbe6ecd3022c902a00750cec20389b12503792096f4ecd4b838d69b11dccf35",
        "lib\/AppInfo\/Application.php": "aef5b9c9369e52cde1ed9e78dd706c93bd268a9a34a1bd6243645b5f76bfffacdcd46139b846edca63c1e403008f4850ac7f8bb3ae53369f8c64077619e4bd63",
        "lib\/BackgroundJob\/ExpireTrash.php": "a395d725ec32c53eb6f8f9e58acb817724d0a0989130855e6b6fc0ca243d985a5da6e2750b61c112d171365c4f1b07f5cfa4f540b5efe5d2ab05535fcd4fa9ef",
        "lib\/Capabilities.php": "abca23d9e99a0e61e85fcbb33c66377a7ce6db2ed51d42a42a650736d479ed44d4c6db0e3b4ee9f462186668a143ee4b28f663ec9f50122eefb692748f29bde0",
        "lib\/Command\/CleanUp.php": "d6a669e7a3f894eba99796aa8568f00efa4309a0b8b0e8933e948fc84e25ff54476cbffa667fa9c0d489f8b41e940a20bcce5ae70fd625fa056ad8d23b6d83d4",
        "lib\/Command\/Expire.php": "f84601d530b1d39d0b9259b4956e02025d8fa1707c586ad070c5304938e54f4a20f71fb42b0faec7ff29c283beecbb866fc3da35c940e64632319c07fecddcf1",
        "lib\/Command\/ExpireTrash.php": "2df399375832680f89bb9d85a1b3e1d4ce343c7081684bf5144d9cf81f3387072ef18c1d6c9cd97f31291c762751f5a1060110adc035c870ff3485c10a846f35",
        "lib\/Command\/Size.php": "09a92cecbeb04a0d94fe32cfbf86030c50de99caf8d2838dde38d8861ebc234edc9031e02a08e59edafe76cdf1c818e9d3337275626f41b0e6da7afee59c3e0d",
        "lib\/Controller\/PreviewController.php": "09b6108a5f428143e528bc05503164bc578af499481d346f08a8e8020c89ea26617c2b83c798dd804f27ac4b92d72568d775fe0de9743ba119853f37dd453f35",
        "lib\/Events\/MoveToTrashEvent.php": "a823068f51f6537141d18a68455b4ecb6eb025ee306ea5e63b1c932d5744c7971f82e87d6b52a1d589bcf83d14980f9a63f103dbc342b0b6ba82c8d1a6b53a63",
        "lib\/Exceptions\/CopyRecursiveException.php": "f22583cc43f8631f162080661b8ceb8fbfaa0a83d650d65f6e2df164d22a1b517b65149710b613eccb3a94f64789dbf85f29f196adcb7f9cc8dc8e0489d8d744",
        "lib\/Expiration.php": "4be5d879c2fa9ed1c663042025597dcfb58829c28376a249877bfdbba35187c33b3b7b5973e35be5ac645c26fabf4940769a6667f43ef8aae5032e1bb27ea3e6",
        "lib\/Helper.php": "3858daa728103f3576ebf9247f3a89452ca3562600ab8a0f72edcc6efa1453ba86f0332d169e4105cc31600f620144e30cd277bfe966fa2b02ca2fb827832633",
        "lib\/Hooks.php": "5423f20e2862f06b7c0ed7151766087a433f46d8dfe11eb3c40d418fb60d99c57bb87a4cdf22efdddc407c9008088d417b2f05235b8bf141d96a3a34d931ba7b",
        "lib\/Migration\/Version1010Date20200630192639.php": "caacb773512168d85a1728fe5abc874b972a2922b4fba11c496eaaf44cc971afc329fabbee45c427284dff11451ab342b2f6f73ffde054824703282b5bc47098",
        "lib\/Sabre\/AbstractTrash.php": "ce68f0b9ce0824598241aed719a5b28ab7e47141d612e73e085391f42ae7eafe8e7a4b1e02f6f442c1c916019bbf1f216e71a63086f9815be92eded239cdf78d",
        "lib\/Sabre\/AbstractTrashFile.php": "b908e1a61ed8df7ba481ccfebd79087048b2292e5c9e8de7d861ac0c74cb54090eda078e7d7f34df50e5b6e46610235a68ffdf1c79e73127825400c95a6a648b",
        "lib\/Sabre\/AbstractTrashFolder.php": "f146b55e70d5e4d48495b41cc3f93839d632440be4180bcb5ef16bb213645288d6b26316f0c0b4105c557c2fcf3f70255456aa483d9340563fde9a62fbb6464d",
        "lib\/Sabre\/ITrash.php": "980e43928aa3e8f65222736f8f765c5c775e1900b054aacd47dcbf5f8ff1a6cf9407014116fa392a7145dd59475520ff89c5073391052d2850708d10e46d9a0b",
        "lib\/Sabre\/PropfindPlugin.php": "d7bbe114ecd883dbc2c61092f69076151bdf42906645a3dc6c93dc9ea0d442664f1dfbf836c2719229452d545b1a55e29b27b7125e6fa93887c01f8a6f7a0396",
        "lib\/Sabre\/RestoreFolder.php": "de5944d2fdbd375f890e75828831a44323302e443a607ff555807c877e7f844abf45beb02a983ddf6c059eaca1aafc9f430bc2086ff220c8233bd9b490eb1224",
        "lib\/Sabre\/RootCollection.php": "d49c41c6894e18d22d38590e3f8482d75b8c7454b7830a964608f25028ba53dcbe2840e0ba0e7272564cc9a29d36b6a7ce0434d9c69c243aece97f58ef268289",
        "lib\/Sabre\/TrashFile.php": "23f45dedc9aff53a4b2d287cb49aef784467e3a9f47c23576ba692b67def51e2853278c1d5a2b3783606a37498f7f81354d0aedce6c25f23ed325eedb9d8a572",
        "lib\/Sabre\/TrashFolder.php": "347c8daadc953ffefc0d8b3cd9fcbceeba90edbe0623fbffe24cac47f10be1ddb826293b33bd001d9f126b60fffb434077065cad70cf5d3ae66bd4036a4a792d",
        "lib\/Sabre\/TrashFolderFile.php": "9799c52069df93e573c2adeefc9894ad98698fa13f440a42f719133e9a4765e6c70c9751c0ef0692cc4bbdc0a85c212b1e5b362df45d67ec2601100fc3a5980a",
        "lib\/Sabre\/TrashFolderFolder.php": "7f8e183bf461d4b9527619e1571763038257b3aad7614d0e433c496be50eb3fe262eafae05b766a7b7edaf418da9a9e607fc8be92a35fe34f5dcf238e18daaf0",
        "lib\/Sabre\/TrashHome.php": "014093a0dce65c872948735e255c851951447182191c5d3488ebc80fa6b3106e29a2efb15d9cb4a5d8d45ba7c26e97a420c0b0cbe62499ad56582f9c2a69b95d",
        "lib\/Sabre\/TrashRoot.php": "dd79e21c0953637a2923f52f56693101beeceb4e9485115b8ec28fe7d4a158b7bcd19e67decda7e17f13b02325317db23d36822f5be412ae039873bc0d2e3c0b",
        "lib\/Storage.php": "19060f107fbbf0cc0c770cd1132809ae2839210aec1e0ea96fe5640f1e33750b939b07a8e147e1d50a3c251ac4070720670ab4137691e91f8c2d24ee620a394b",
        "lib\/Trash\/BackendNotFoundException.php": "a0e3e214e220b7965b7d2572a9f0cf94cfd1784a12007e3648dd8828ce635e446fea4ae49428ccc15e1210b31189723baa6cd8a480b42f2d3ea0f8674fed6cbf",
        "lib\/Trash\/ITrashBackend.php": "4af78188196ee813e703c6ae4cbf154d1a4cb371d669681faa1a3c841d19d5629551de7f865c385c67753a58f6f7252abd48c2098045c284d3610a447d1f239a",
        "lib\/Trash\/ITrashItem.php": "925f4e223d0640b3dea8e0be0dda26412c4d092e93b87f0ca7d4695663fa69926fbfb3b5f491e748a2f8c3d8f0eed06e822e437ec05de2f3261c10c455cae9fe",
        "lib\/Trash\/ITrashManager.php": "85503c4e85c8e7536af07ef18c87e68c13468f3edddf14e0082f2fcfeaf97495e9c62fdcaf08f995f2457d8c45c5146ac9380d87187bebb9425211ddf7e68395",
        "lib\/Trash\/LegacyTrashBackend.php": "101a73f86548cb6b9aae8096d7ce4f2c7b1cd72804997f43905ad7ef867ae8be0ad37bbd20baff49673075c94d27af2114893bff6f0d4bfd1f8aa5851e3cb26b",
        "lib\/Trash\/TrashItem.php": "4017e12ddb112f2bf4981899111f6ccc20d2b9881394d100f0cd5aaea1fb9e3a6699dc2b434133101d55cb33ecd49528afd6b2490c30728ccabba7acd4401ec2",
        "lib\/Trash\/TrashManager.php": "fa1a06fa85d14b66669f593e949fbfa0893586fa390dba5a2b28bbeb790d44813ebdbf434ac5c403592556898b3e4395a0f722beaa3b75630ad93113c3abc841",
        "lib\/Trashbin.php": "2bb49ddc2a5ab985b16c0e866f61405f0c86de898321300247b30ccf12f18e0e69cae0b99064d030ca0d6b60b61abab34c0efcea0c3c70e63a948c51c5d5a1f7",
        "list.php": "bfff6ca06d90c26830343c9917d25cdf710034bb5bcac910cd2eea086fae89afb868a7be7d7585d14c4e059689b5500a4e7bd6fe647bf4e93ba674317de6fc8c",
        "templates\/index.php": "9e14cd522014f662f72861b5e9f56acb4104539129e4b92ccfedbc193c4268cdcc5b42c6140336e4b787d04450bb8c679e889316fe5bf549a59a8384c5101b69"
    },
    "signature": "fq5wiVy3AgpkQH4cyMRLZvyuNhHiZMLvhmft2sqIeNKeOLGL3EsuYkmtCcqwCQoy0EKHVCsOiN5mKOP5hFavWiube0KQvL2tY\/zPqjZ6q\/X2Va0T3+pGVzAw4vfpzpRXTRR2AhOoQg9eitTLV8V2gnd8c3gilcR8NR9KWka2hkSe1EqtH4ccc7ZqVfIgxnyuj+NDG6yb+0fbcrvhxOJO3w7orno1Ys9K\/k\/TL5xKA66\/he8JYYptpZBG5t6IUCBvwJ8Bf1bR1LE17vJnEejFGyiPga4cHieXtjMceC2EILv5O7OY3VZlP+xZ1zUYYQ1vbfJg6GYEQpknP8tHBQad5g==",
    "certificate": "-----BEGIN CERTIFICATE-----\r\nMIIEojCCA4qgAwIBAgICEAAwDQYJKoZIhvcNAQELBQAwezELMAkGA1UEBhMCREUx\r\nGzAZBgNVBAgMEkJhZGVuLVd1ZXJ0dGVtYmVyZzEXMBUGA1UECgwOTmV4dGNsb3Vk\r\nIEdtYkgxNjA0BgNVBAMMLU5leHRjbG91ZCBDb2RlIFNpZ25pbmcgSW50ZXJtZWRp\r\nYXRlIEF1dGhvcml0eTAeFw0xNjA2MTIyMTA1MDZaFw00MTA2MDYyMTA1MDZaMGYx\r\nCzAJBgNVBAYTAkRFMRswGQYDVQQIDBJCYWRlbi1XdWVydHRlbWJlcmcxEjAQBgNV\r\nBAcMCVN0dXR0Z2FydDEXMBUGA1UECgwOTmV4dGNsb3VkIEdtYkgxDTALBgNVBAMM\r\nBGNvcmUwggEiMA0GCSqGSIb3DQEBAQUAA4IBDwAwggEKAoIBAQDUxcrn2DC892IX\r\n8+dJjZVh9YeHF65n2ha886oeAizOuHBdWBfzqt+GoUYTOjqZF93HZMcwy0P+xyCf\r\nQqak5Ke9dybN06RXUuGP45k9UYBp03qzlUzCDalrkj+Jd30LqcSC1sjRTsfuhc+u\r\nvH1IBuBnf7SMUJUcoEffbmmpAPlEcLHxlUGlGnz0q1e8UFzjbEFj3JucMO4ys35F\r\nqZS4dhvCngQhRW3DaMlQLXEUL9k3kFV+BzlkPzVZEtSmk4HJujFCnZj1vMcjQBg\/\r\nBqq1HCmUB6tulnGcxUzt\/Z\/oSIgnuGyENeke077W3EyryINL7EIyD4Xp7sxLizTM\r\nFCFCjjH1AgMBAAGjggFDMIIBPzAJBgNVHRMEAjAAMBEGCWCGSAGG+EIBAQQEAwIG\r\nQDAzBglghkgBhvhCAQ0EJhYkT3BlblNTTCBHZW5lcmF0ZWQgU2VydmVyIENlcnRp\r\nZmljYXRlMB0GA1UdDgQWBBQwc1H9AL8pRlW2e5SLCfPPqtqc0DCBpQYDVR0jBIGd\r\nMIGagBRt6m6qqTcsPIktFz79Ru7DnnjtdKF+pHwwejELMAkGA1UEBhMCREUxGzAZ\r\nBgNVBAgMEkJhZGVuLVd1ZXJ0dGVtYmVyZzESMBAGA1UEBwwJU3R1dHRnYXJ0MRcw\r\nFQYDVQQKDA5OZXh0Y2xvdWQgR21iSDEhMB8GA1UEAwwYTmV4dGNsb3VkIFJvb3Qg\r\nQXV0aG9yaXR5ggIQADAOBgNVHQ8BAf8EBAMCBaAwEwYDVR0lBAwwCgYIKwYBBQUH\r\nAwEwDQYJKoZIhvcNAQELBQADggEBADZ6+HV\/+0NEH3nahTBFxO6nKyR\/VWigACH0\r\nnaV0ecTcoQwDjKDNNFr+4S1WlHdwITlnNabC7v9rZ\/6QvbkrOTuO9fOR6azp1EwW\r\n2pixWqj0Sb9\/dSIVRpSq+jpBE6JAiX44dSR7zoBxRB8DgVO2Afy0s80xEpr5JAzb\r\nNYuPS7M5UHdAv2dr16fDcDIvn+vk92KpNh1NTeZFjBbRVQ9DXrgkRGW34TK8uSLI\r\nYG6jnfJ6eJgTaO431ywWPXNg1mUMaT\/+QBOgB299QVCKQU+lcZWptQt+RdsJUm46\r\nNY\/nARy4Oi4uOe88SuWITj9KhrFmEvrUlgM8FvoXA1ldrR7KiEg=\r\n-----END CERTIFICATE-----"
}